{
  "entityType" : "NOTIFICATION_RULE",
  "entity" : {
    "additionalConfig" : {
      "description" : "Send notification to tenant admins when any Rule chain or Rule node failed to start, update or stop"
    },
    "enabled" : true,
    "externalId" : null,
    "id" : {
      "entityType" : "NOTIFICATION_RULE",
      "id" : "d6e7f600-87ae-11ef-9e51-bd4861d58417"
    },
    "name" : "Rule node initialization failure",
    "recipientsConfig" : {
      "targets" : [ "d6d30e70-87ae-11ef-9e51-bd4861d58417" ],
      "triggerType" : "RULE_ENGINE_COMPONENT_LIFECYCLE_EVENT"
    },
    "templateId" : {
      "entityType" : "NOTIFICATION_TEMPLATE",
      "id" : "d6e732b0-87ae-11ef-9e51-bd4861d58417"
    },
    "triggerConfig" : {
      "triggerType" : "RULE_ENGINE_COMPONENT_LIFECYCLE_EVENT",
      "onlyRuleChainLifecycleFailures" : true,
      "onlyRuleNodeLifecycleFailures" : true,
      "ruleChainEvents" : [ "UPDATED", "STARTED", "STOPPED" ],
      "ruleChains" : null,
      "ruleNodeEvents" : [ "UPDATED", "STARTED", "STOPPED" ],
      "trackRuleNodeEvents" : true,
      "triggerType" : "RULE_ENGINE_COMPONENT_LIFECYCLE_EVENT"
    },
    "triggerType" : "RULE_ENGINE_COMPONENT_LIFECYCLE_EVENT"
  },
  "relations" : [ ],
  "attributes" : {
    "SERVER_SCOPE" : [ ]
  }
}