{
  "entityType" : "NOTIFICATION_TEMPLATE",
  "entity" : {
    "configuration" : {
      "deliveryMethodsTemplates" : {
        "WEB" : {
          "method" : "WEB",
          "additionalConfig" : {
            "icon" : {
              "enabled" : true,
              "icon" : "notifications",
              "color" : "#757575"
            },
            "actionButtonConfig" : {
              "enabled" : false
            }
          },
          "body" : "Severity: ${alarmSeverity}, originator: ${alarmOriginatorEntityType} '${alarmOriginatorName}'",
          "enabled" : true,
          "subject" : "Alarm '${alarmType}' - ${action}"
        }
      }
    },
    "externalId" : null,
    "id" : {
      "entityType" : "NOTIFICATION_TEMPLATE",
      "id" : "8a209140-592b-11ee-bf75-b3669b27d675"
    },
    "name" : "Alarm update notification",
    "notificationType" : "ALARM"
  },
  "relations" : [ ],
  "attributes" : {
    "SERVER_SCOPE" : [ ]
  }
}