{
  "entityType" : "NOTIFICATION_TEMPLATE",
  "entity" : {
    "configuration" : {
      "deliveryMethodsTemplates" : {
        "WEB" : {
          "method" : "WEB",
          "additionalConfig" : {
            "icon" : {
              "enabled" : true,
              "icon" : "info",
              "color" : "#757575"
            },
            "actionButtonConfig" : {
              "enabled" : true,
              "text" : "Go to device",
              "linkType" : "LINK",
              "link" : "/devices/${deviceId}"
            }
          },
          "body" : "Device '${deviceName}' of type '${deviceType}' is now ${eventType}",
          "enabled" : true,
          "subject" : "Device '${deviceName}' became ${eventType}"
        }
      }
    },
    "externalId" : null,
    "id" : {
      "entityType" : "NOTIFICATION_TEMPLATE",
      "id" : "8a24d701-592b-11ee-bf75-b3669b27d675"
    },
    "name" : "Device activity notification",
    "notificationType" : "DEVICE_ACTIVITY"
  },
  "relations" : [ ],
  "attributes" : {
    "SERVER_SCOPE" : [ ]
  }
}