{
  "entityType" : "NOTIFICATION_TEMPLATE",
  "entity" : {
    "configuration" : {
      "deliveryMethodsTemplates" : {
        "WEB" : {
          "method" : "WEB",
          "additionalConfig" : {
            "icon" : {
              "enabled" : true,
              "icon" : "person",
              "color" : "#757575"
            },
            "actionButtonConfig" : {
              "enabled" : false
            }
          },
          "body" : "${userEmail} assigned alarm on ${alarmOriginatorEntityType} '${alarmOriginatorName}' to ${assigneeEmail}",
          "enabled" : true,
          "subject" : "Alarm '${alarmType}' (${alarmSeverity}) was assigned to user"
        }
      }
    },
    "externalId" : null,
    "id" : {
      "entityType" : "NOTIFICATION_TEMPLATE",
      "id" : "8a2a7c50-592b-11ee-bf75-b3669b27d675"
    },
    "name" : "Alarm assigned notification",
    "notificationType" : "ALARM_ASSIGNMENT"
  },
  "relations" : [ ],
  "attributes" : {
    "SERVER_SCOPE" : [ ]
  }
}