{
  "entityType" : "NOTIFICATION_TEMPLATE",
  "entity" : {
    "configuration" : {
      "deliveryMethodsTemplates" : {
        "WEB" : {
          "method" : "WEB",
          "additionalConfig" : {
            "icon" : {
              "enabled" : true,
              "icon" : "people",
              "color" : "#757575"
            },
            "actionButtonConfig" : {
              "enabled" : false
            }
          },
          "body" : "${userEmail} ${action} comment: ${comment}",
          "enabled" : true,
          "subject" : "Comment on '${alarmType}' alarm"
        }
      }
    },
    "externalId" : null,
    "id" : {
      "entityType" : "NOTIFICATION_TEMPLATE",
      "id" : "d6e3d750-87ae-11ef-9e51-bd4861d58417"
    },
    "name" : "Alarm comment notification",
    "notificationType" : "ALARM_COMMENT"
  },
  "relations" : [ ],
  "attributes" : {
    "SERVER_SCOPE" : [ ]
  }
}