{
  "entityType" : "WIDGET_TYPE",
  "entity" : {
    "fqn" : "web_ifc_reader_1",
    "name" : "Web IFC Reader 1",
    "deprecated" : false,
    "image" : null,
    "description" : null,
    "descriptor" : {
      "type" : "latest",
      "sizeX" : 7.5,
      "sizeY" : 3,
      "resources" : [ ],
      "templateHtml" : "<tb-web-ifc [id]=\"my-component\" [ctx]='ctx' [data]='data'></tb-web-ifc>",
      "templateCss" : "",
      "controllerScript" : "\r\nvar canvasElement;\r\n\r\nself.onInit = function() {\r\n    // canvasElement = $('#my-component', self.ctx.$container)[0];\r\n    // // Initialization logic for your custom widget.\r\n    // // Add any code specific to your widget here.\r\n    // self.onResize();\r\n    self.ctx.ifc = new WebIfcComponent(self.ctx, 'ifcComponent');  \r\n}\r\nself.actionSources = function() {\r\n    return {\r\n        'elementClick': {\r\n            name: 'widget-action.element-click',\r\n            multiple: false,\r\n            hasShowCondition: false\r\n        }\r\n    };\r\n}\r\n\r\n// self.onDataUpdated = function() {\r\n//     self.ctx.ifc.dataUpdate();\r\n// }\r\n\r\nself.onResize = function() {\r\n    // canvasElement.width = self.ctx.width;\r\n    // canvasElement.height = self.ctx.height;\r\n}\r\n\r\nself.onDestroy = function() {\r\n    // Cleanup logic for your custom widget, if needed.\r\n}\r\n",
      "settingsSchema" : "",
      "dataKeySettingsSchema" : "",
      "settingsDirective" : "tb-web-ifc-settings",
      "defaultConfig" : "{\"datasources\":[{\"type\":\"static\",\"name\":\"function\",\"dataKeys\":[{\"name\":\"f(x)\",\"type\":\"function\",\"label\":\"Random\",\"color\":\"#2196f3\",\"settings\":{},\"_hash\":0.15479322438769105,\"funcBody\":\"var value = prevValue + Math.random() * 100 - 50;\\nvar multiplier = Math.pow(10, 2 || 0);\\nvar value = Math.round(value * multiplier) / multiplier;\\nif (value < -1000) {\\n\\tvalue = -1000;\\n} else if (value > 1000) {\\n\\tvalue = 1000;\\n}\\nreturn value;\"}]}],\"timewindow\":{\"realtime\":{\"timewindowMs\":60000}},\"showTitle\":false,\"backgroundColor\":\"rgb(255, 255, 255)\",\"color\":\"rgba(0, 0, 0, 0.87)\",\"padding\":\"8px\",\"settings\":{\"cardHtml\":\"<div class='card'>HTML code here</div>\",\"cardCss\":\".card {\\n    font-weight: bold;\\n    font-size: 32px;\\n    color: #999;\\n    width: 100%;\\n    height: 100%;\\n    display: flex;\\n    align-items: center;\\n    justify-content: center;\\n}\"},\"title\":\"HTML Card\",\"dropShadow\":true}"
    },
    "externalId" : null,
    "id" : {
      "entityType" : "WIDGET_TYPE",
      "id" : "47f41fa0-28a9-11ef-b732-979429daf50a"
    },
    "tags" : null
  },
  "relations" : [ ],
  "attributes" : {
    "SERVER_SCOPE" : [ ]
  }
}