{
  "entityType" : "DASHBOARD",
  "entity" : {
    "assignedCustomers" : null,
    "configuration" : {
      "widgets" : {
        "795f9d94-8cfd-533c-b818-4d94d02d0e3d" : {
          "typeFullFqn" : "system.charts.basic_timeseries",
          "type" : "timeseries",
          "sizeX" : 16,
          "sizeY" : 10,
          "row" : 0,
          "col" : 2,
          "config" : {
            "datasources" : [ {
              "type" : "entity",
              "entityAliasId" : "c13a2904-f2a5-917e-ada6-aa7d7a062db3",
              "dataKeys" : [ {
                "name" : "x",
                "label" : "x",
                "type" : "timeseries",
                "color" : "#2196f3",
                "settings" : {
                  "hideDataByDefault" : false,
                  "disableDataHiding" : false,
                  "removeFromLegend" : false,
                  "excludeFromStacking" : false,
                  "showLines" : true,
                  "lineWidth" : 1,
                  "fillLines" : false,
                  "showPoints" : false,
                  "tooltipValueFormatter" : "",
                  "showSeparateAxis" : false,
                  "axisTitle" : "",
                  "axisMin" : null,
                  "axisMax" : null,
                  "axisPosition" : "left",
                  "axisTickSize" : null,
                  "axisTickDecimals" : 3,
                  "axisTicksFormatter" : "",
                  "comparisonSettings" : {
                    "showValuesForComparison" : true,
                    "comparisonValuesLabel" : "",
                    "color" : ""
                  },
                  "thresholds" : [ ]
                },
                "_hash" : 0.6785121825173559,
                "aggregationType" : null,
                "units" : null,
                "decimals" : null,
                "funcBody" : null,
                "usePostProcessing" : null,
                "postFuncBody" : null
              }, {
                "name" : "y",
                "label" : "y",
                "type" : "timeseries",
                "color" : "#4caf50",
                "settings" : { },
                "_hash" : 0.9326210900515826
              }, {
                "name" : "z",
                "label" : "z",
                "type" : "timeseries",
                "color" : "#f44336",
                "settings" : { },
                "_hash" : 0.3844809686411408
              } ],
              "alarmFilterConfig" : {
                "statusList" : [ "ACTIVE" ]
              }
            } ],
            "timewindow" : {
              "hideInterval" : false,
              "hideLastInterval" : false,
              "hideQuickInterval" : false,
              "hideAggregation" : false,
              "hideAggInterval" : false,
              "hideTimezone" : false,
              "selectedTab" : 0,
              "realtime" : {
                "realtimeType" : 0,
                "timewindowMs" : 60000,
                "quickInterval" : "CURRENT_DAY",
                "interval" : 8000
              },
              "aggregation" : {
                "type" : "NONE",
                "limit" : 25000
              },
              "timezone" : null
            },
            "showTitle" : true,
            "backgroundColor" : "#fff",
            "color" : "rgba(0, 0, 0, 0.87)",
            "padding" : "8px",
            "settings" : {
              "stack" : false,
              "enableSelection" : true,
              "fontSize" : 10,
              "fontColor" : "#545454",
              "showTooltip" : true,
              "tooltipIndividual" : true,
              "tooltipCumulative" : true,
              "hideZeros" : false,
              "tooltipValueFormatter" : "",
              "grid" : {
                "verticalLines" : true,
                "horizontalLines" : true,
                "outlineWidth" : 1,
                "color" : "#545454",
                "backgroundColor" : null,
                "tickColor" : "#DDDDDD"
              },
              "xaxis" : {
                "title" : "TIme",
                "showLabels" : true,
                "color" : "#545454"
              },
              "yaxis" : {
                "min" : null,
                "max" : null,
                "title" : "G",
                "showLabels" : true,
                "color" : "#545454",
                "tickSize" : 0.1,
                "tickDecimals" : 4,
                "ticksFormatter" : ""
              },
              "shadowSize" : 2,
              "smoothLines" : true,
              "thresholdsLineWidth" : 3,
              "comparisonEnabled" : false,
              "showLegend" : true,
              "legendConfig" : {
                "direction" : "column",
                "position" : "right",
                "sortDataKeys" : false,
                "showMin" : false,
                "showMax" : false,
                "showAvg" : false,
                "showTotal" : false,
                "showLatest" : true
              },
              "customLegendEnabled" : false
            },
            "title" : "Timeseries Line Chart",
            "dropShadow" : true,
            "enableFullscreen" : true,
            "titleStyle" : {
              "fontSize" : "16px",
              "fontWeight" : 400
            },
            "mobileHeight" : null,
            "configMode" : "advanced",
            "actions" : { },
            "showTitleIcon" : false,
            "titleIcon" : "thermostat",
            "iconColor" : "#1F6BDD",
            "useDashboardTimewindow" : false,
            "displayTimewindow" : true,
            "titleFont" : null,
            "titleColor" : null,
            "titleTooltip" : "",
            "widgetStyle" : { },
            "widgetCss" : "",
            "pageSize" : 1024,
            "units" : null,
            "decimals" : 4,
            "noDataDisplayMessage" : ""
          },
          "id" : "795f9d94-8cfd-533c-b818-4d94d02d0e3d"
        },
        "0fa91276-fe22-38ad-c766-ebc0f8305942" : {
          "typeFullFqn" : "system.cards.timeseries_table",
          "type" : "timeseries",
          "sizeX" : 8,
          "sizeY" : 6.5,
          "config" : {
            "datasources" : [ {
              "type" : "device",
              "name" : "",
              "deviceId" : "975399e0-fb09-11ee-b59c-bd8c29f0f2d9",
              "entityAliasId" : null,
              "filterId" : null,
              "dataKeys" : [ {
                "name" : "x",
                "type" : "timeseries",
                "label" : "X",
                "color" : "#2196f3",
                "settings" : { },
                "_hash" : 0.07397066829442744,
                "units" : "",
                "decimals" : 3
              }, {
                "name" : "y",
                "type" : "timeseries",
                "label" : "y",
                "color" : "#4caf50",
                "settings" : { },
                "_hash" : 0.9422989695110724,
                "decimals" : 3
              }, {
                "name" : "z",
                "type" : "timeseries",
                "label" : "z",
                "color" : "#f44336",
                "settings" : { },
                "_hash" : 0.6914378582200496,
                "decimals" : 3
              } ],
              "alarmFilterConfig" : {
                "statusList" : [ "ACTIVE" ]
              },
              "latestDataKeys" : [ ]
            } ],
            "timewindow" : {
              "hideInterval" : false,
              "hideLastInterval" : false,
              "hideQuickInterval" : false,
              "hideAggregation" : false,
              "hideAggInterval" : false,
              "hideTimezone" : false,
              "selectedTab" : 0,
              "realtime" : {
                "realtimeType" : 0,
                "timewindowMs" : 3600000,
                "quickInterval" : "CURRENT_DAY",
                "interval" : 1000
              },
              "aggregation" : {
                "type" : "NONE",
                "limit" : 200
              },
              "timezone" : null
            },
            "showTitle" : true,
            "backgroundColor" : "rgb(255, 255, 255)",
            "color" : "rgba(0, 0, 0, 0.87)",
            "padding" : "8px",
            "settings" : {
              "showTimestamp" : true,
              "displayPagination" : true,
              "defaultPageSize" : 10,
              "enableSearch" : true,
              "enableSelectColumnDisplay" : true
            },
            "title" : "Timeseries table",
            "dropShadow" : true,
            "enableFullscreen" : true,
            "titleStyle" : {
              "fontSize" : "16px",
              "fontWeight" : 400,
              "padding" : "5px 10px 5px 10px"
            },
            "useDashboardTimewindow" : false,
            "showLegend" : false,
            "widgetStyle" : { },
            "actions" : { },
            "showTitleIcon" : false,
            "iconColor" : "rgba(0, 0, 0, 0.87)",
            "iconSize" : "24px",
            "displayTimewindow" : true,
            "configMode" : "basic",
            "titleFont" : null,
            "titleColor" : null,
            "titleIcon" : null
          },
          "row" : 0,
          "col" : 0,
          "id" : "0fa91276-fe22-38ad-c766-ebc0f8305942"
        }
      },
      "states" : {
        "default" : {
          "name" : "Test Chart XYZ",
          "root" : true,
          "layouts" : {
            "main" : {
              "widgets" : {
                "795f9d94-8cfd-533c-b818-4d94d02d0e3d" : {
                  "sizeX" : 24,
                  "sizeY" : 7,
                  "mobileHeight" : null,
                  "row" : 0,
                  "col" : 0
                },
                "0fa91276-fe22-38ad-c766-ebc0f8305942" : {
                  "sizeX" : 24,
                  "sizeY" : 6,
                  "row" : 7,
                  "col" : 0
                }
              },
              "gridSettings" : {
                "backgroundColor" : "#eeeeee",
                "columns" : 24,
                "margin" : 10,
                "outerMargin" : true,
                "backgroundSizeMode" : "100%"
              }
            }
          }
        }
      },
      "entityAliases" : {
        "c13a2904-f2a5-917e-ada6-aa7d7a062db3" : {
          "id" : "c13a2904-f2a5-917e-ada6-aa7d7a062db3",
          "alias" : "AT-006",
          "filter" : {
            "type" : "singleEntity",
            "singleEntity" : {
              "entityType" : "DEVICE",
              "id" : "975399e0-fb09-11ee-b59c-bd8c29f0f2d9"
            },
            "resolveMultiple" : false
          }
        }
      },
      "filters" : { },
      "timewindow" : {
        "displayValue" : "",
        "hideInterval" : false,
        "hideLastInterval" : false,
        "hideQuickInterval" : false,
        "hideAggregation" : false,
        "hideAggInterval" : false,
        "hideTimezone" : false,
        "selectedTab" : 0,
        "realtime" : {
          "realtimeType" : 0,
          "interval" : 1000,
          "timewindowMs" : 60000,
          "quickInterval" : "CURRENT_DAY"
        },
        "history" : {
          "historyType" : 0,
          "interval" : 1000,
          "timewindowMs" : 60000,
          "fixedTimewindow" : {
            "startTimeMs" : 1713091451314,
            "endTimeMs" : 1713177851314
          },
          "quickInterval" : "CURRENT_DAY"
        },
        "aggregation" : {
          "type" : "AVG",
          "limit" : 25000
        }
      },
      "settings" : {
        "stateControllerId" : "entity",
        "showTitle" : false,
        "showDashboardsSelect" : true,
        "showEntitiesSelect" : true,
        "showDashboardTimewindow" : true,
        "showDashboardExport" : true,
        "toolbarAlwaysOpen" : true
      }
    },
    "externalId" : null,
    "id" : {
      "entityType" : "DASHBOARD",
      "id" : "1831b5a0-fb15-11ee-b59c-bd8c29f0f2d9"
    },
    "image" : null,
    "mobileHide" : false,
    "mobileOrder" : null,
    "name" : "Test Chart XYZ",
    "title" : "Test Chart XYZ"
  },
  "relations" : [ ],
  "attributes" : {
    "SERVER_SCOPE" : [ ]
  }
}