{
  "entityType" : "ASSET",
  "entity" : {
    "additionalInfo" : {
      "description" : ""
    },
    "assetProfileId" : {
      "entityType" : "ASSET_PROFILE",
      "id" : "e7ca4e60-4b31-11ee-ac5a-edd33deef9c1"
    },
    "customerId" : {
      "entityType" : "CUSTOMER",
      "id" : "58860100-ae05-11ed-b366-dfefa829992c"
    },
    "externalId" : {
      "entityType" : "ASSET",
      "id" : "203abe00-4b33-11ee-ac5a-edd33deef9c1"
    },
    "id" : {
      "entityType" : "ASSET",
      "id" : "203abe00-4b33-11ee-ac5a-edd33deef9c1"
    },
    "label" : null,
    "name" : "Pavimento:0.20:385486",
    "type" : "Bridge element"
  },
  "relations" : [ {
    "additionalInfo" : null,
    "from" : {
      "entityType" : "ASSET",
      "id" : "68af9d30-c321-11ed-9297-2bd8f7589584"
    },
    "to" : {
      "entityType" : "ASSET",
      "id" : "203abe00-4b33-11ee-ac5a-edd33deef9c1"
    },
    "type" : "Contains",
    "typeGroup" : "COMMON"
  } ],
  "attributes" : {
    "SERVER_SCOPE" : [ {
      "booleanValue" : null,
      "doubleValue" : null,
      "jsonValue" : null,
      "key" : "color",
      "lastUpdateTs" : 1698345026100,
      "longValue" : null,
      "strValue" : "0x0000ff"
    } ]
  }
}