{
  "entityType" : "ASSET",
  "entity" : {
    "additionalInfo" : {
      "description" : ""
    },
    "assetProfileId" : {
      "entityType" : "ASSET_PROFILE",
      "id" : "2995e1a0-164f-11ee-bb26-8fe792596cc5"
    },
    "customerId" : {
      "entityType" : "CUSTOMER",
      "id" : "13814000-1dd2-11b2-8080-808080808080"
    },
    "externalId" : {
      "entityType" : "ASSET",
      "id" : "417c95f0-1651-11ee-bb26-8fe792596cc5"
    },
    "id" : {
      "entityType" : "ASSET",
      "id" : "417c95f0-1651-11ee-bb26-8fe792596cc5"
    },
    "label" : null,
    "name" : "Km 80+10",
    "type" : "pk"
  },
  "relations" : [ ],
  "attributes" : {
    "SERVER_SCOPE" : [ ]
  }
}