{
  "entityType" : "ASSET",
  "entity" : {
    "additionalInfo" : null,
    "assetProfileId" : {
      "entityType" : "ASSET_PROFILE",
      "id" : "41419ad0-9844-11ed-aeff-5ffcf0268e49"
    },
    "customerId" : {
      "entityType" : "CUSTOMER",
      "id" : "13814000-1dd2-11b2-8080-808080808080"
    },
    "externalId" : {
      "entityType" : "ASSET",
      "id" : "50d4bfd0-9290-11ee-b6d4-81d685ab2d2f"
    },
    "id" : {
      "entityType" : "ASSET",
      "id" : "50d4bfd0-9290-11ee-b6d4-81d685ab2d2f"
    },
    "label" : null,
    "name" : "Main_c5dca0abe6bf",
    "type" : "TbServiceQueue"
  },
  "relations" : [ ],
  "attributes" : {
    "SERVER_SCOPE" : [ ]
  }
}