{
  "entityType" : "ASSET",
  "entity" : {
    "additionalInfo" : null,
    "assetProfileId" : {
      "entityType" : "ASSET_PROFILE",
      "id" : "41419ad0-9844-11ed-aeff-5ffcf0268e49"
    },
    "customerId" : {
      "entityType" : "CUSTOMER",
      "id" : "13814000-1dd2-11b2-8080-808080808080"
    },
    "externalId" : null,
    "id" : {
      "entityType" : "ASSET",
      "id" : "6a0dcbb0-135d-11ef-9c30-9ff7c5032ea3"
    },
    "label" : null,
    "name" : "Main_50dea0bb3c79",
    "type" : "TbServiceQueue"
  },
  "relations" : [ ],
  "attributes" : {
    "SERVER_SCOPE" : [ ]
  }
}