{
  "entityType" : "ASSET",
  "entity" : {
    "additionalInfo" : { },
    "assetProfileId" : {
      "entityType" : "ASSET_PROFILE",
      "id" : "b451d020-66ad-11ee-a96a-cb2a6d50d019"
    },
    "customerId" : {
      "entityType" : "CUSTOMER",
      "id" : "58860100-ae05-11ed-b366-dfefa829992c"
    },
    "externalId" : {
      "entityType" : "ASSET",
      "id" : "6ed2ad50-fac7-11ed-acb3-713c20aa7e65"
    },
    "id" : {
      "entityType" : "ASSET",
      "id" : "6ed2ad50-fac7-11ed-acb3-713c20aa7e65"
    },
    "label" : null,
    "name" : "PV045",
    "type" : "Locale"
  },
  "relations" : [ ],
  "attributes" : {
    "SERVER_SCOPE" : [ {
      "booleanValue" : null,
      "doubleValue" : null,
      "jsonValue" : null,
      "key" : "Alternative stradali",
      "lastUpdateTs" : 1698236655485,
      "longValue" : null,
      "strValue" : "Presenti"
    }, {
      "booleanValue" : null,
      "doubleValue" : null,
      "jsonValue" : null,
      "key" : "Categoria di sottosuolo",
      "lastUpdateTs" : 1698236655485,
      "longValue" : null,
      "strValue" : "C"
    }, {
      "booleanValue" : null,
      "doubleValue" : null,
      "jsonValue" : null,
      "key" : "Categoria topografica",
      "lastUpdateTs" : 1698236655485,
      "longValue" : null,
      "strValue" : "T1"
    }, {
      "booleanValue" : null,
      "doubleValue" : null,
      "jsonValue" : null,
      "key" : "Classe sismica",
      "lastUpdateTs" : 1684996998331,
      "longValue" : null,
      "strValue" : "ALTA"
    }, {
      "booleanValue" : null,
      "doubleValue" : null,
      "jsonValue" : null,
      "key" : "Classe strutturale e fondazionale",
      "lastUpdateTs" : 1684996998331,
      "longValue" : null,
      "strValue" : "ALTA"
    }, {
      "booleanValue" : null,
      "doubleValue" : null,
      "jsonValue" : null,
      "key" : "CodiceIOP",
      "lastUpdateTs" : 1698236655485,
      "longValue" : null,
      "strValue" : "STAU0015PNTAXGQSZG"
    }, {
      "booleanValue" : null,
      "doubleValue" : null,
      "jsonValue" : null,
      "key" : "Comune",
      "lastUpdateTs" : 1698236655485,
      "longValue" : null,
      "strValue" : "Fornovo di Taro"
    }, {
      "booleanValue" : null,
      "doubleValue" : null,
      "jsonValue" : null,
      "key" : "IDRAULICA",
      "lastUpdateTs" : 1684996998331,
      "longValue" : null,
      "strValue" : "X"
    }, {
      "booleanValue" : null,
      "doubleValue" : null,
      "jsonValue" : null,
      "key" : "Infrastruttura",
      "lastUpdateTs" : 1684996998331,
      "longValue" : null,
      "strValue" : "A15 Parma-La Spezia"
    }, {
      "booleanValue" : null,
      "doubleValue" : 11.7,
      "jsonValue" : null,
      "key" : "Larghezza Carreggiata",
      "lastUpdateTs" : 1698236655485,
      "longValue" : null,
      "strValue" : null
    }, {
      "booleanValue" : null,
      "doubleValue" : 44.6525638,
      "jsonValue" : null,
      "key" : "Latitudine finale",
      "lastUpdateTs" : 1698236655485,
      "longValue" : null,
      "strValue" : null
    }, {
      "booleanValue" : null,
      "doubleValue" : 44.65905925,
      "jsonValue" : null,
      "key" : "Latitudine iniziale",
      "lastUpdateTs" : 1698236655485,
      "longValue" : null,
      "strValue" : null
    }, {
      "booleanValue" : null,
      "doubleValue" : null,
      "jsonValue" : null,
      "key" : "Limitazioni Carico",
      "lastUpdateTs" : 1698236655485,
      "longValue" : null,
      "strValue" : "Classe A"
    }, {
      "booleanValue" : null,
      "doubleValue" : 10.0495446,
      "jsonValue" : null,
      "key" : "Longitudine finale",
      "lastUpdateTs" : 1698236655485,
      "longValue" : null,
      "strValue" : null
    }, {
      "booleanValue" : null,
      "doubleValue" : 10.05412559,
      "jsonValue" : null,
      "key" : "Longitudine iniziale",
      "lastUpdateTs" : 1698236655485,
      "longValue" : null,
      "strValue" : null
    }, {
      "booleanValue" : null,
      "doubleValue" : 35.8,
      "jsonValue" : null,
      "key" : "Luce campata max",
      "lastUpdateTs" : 1698236655485,
      "longValue" : null,
      "strValue" : null
    }, {
      "booleanValue" : null,
      "doubleValue" : null,
      "jsonValue" : null,
      "key" : "Lunghezza opera",
      "lastUpdateTs" : 1698236655485,
      "longValue" : 808,
      "strValue" : null
    }, {
      "booleanValue" : null,
      "doubleValue" : null,
      "jsonValue" : null,
      "key" : "Materiale",
      "lastUpdateTs" : 1684996998331,
      "longValue" : null,
      "strValue" : "C.a.p."
    }, {
      "booleanValue" : null,
      "doubleValue" : null,
      "jsonValue" : null,
      "key" : "Nome",
      "lastUpdateTs" : 1698236655485,
      "longValue" : null,
      "strValue" : "Taro 1"
    }, {
      "booleanValue" : null,
      "doubleValue" : null,
      "jsonValue" : null,
      "key" : "Numero Campate",
      "lastUpdateTs" : 1698236655485,
      "longValue" : 23,
      "strValue" : null
    }, {
      "booleanValue" : null,
      "doubleValue" : null,
      "jsonValue" : null,
      "key" : "Periodo di costruzione",
      "lastUpdateTs" : 1698236655485,
      "longValue" : null,
      "strValue" : "NULL"
    }, {
      "booleanValue" : null,
      "doubleValue" : null,
      "jsonValue" : null,
      "key" : "Progressiva km Finale",
      "lastUpdateTs" : 1698236655485,
      "longValue" : 28711,
      "strValue" : null
    }, {
      "booleanValue" : null,
      "doubleValue" : null,
      "jsonValue" : null,
      "key" : "Progressiva km Iniziale",
      "lastUpdateTs" : 1698236655485,
      "longValue" : 27861,
      "strValue" : null
    }, {
      "booleanValue" : null,
      "doubleValue" : null,
      "jsonValue" : null,
      "key" : "Provincia",
      "lastUpdateTs" : 1698236655485,
      "longValue" : null,
      "strValue" : "Parma"
    }, {
      "booleanValue" : null,
      "doubleValue" : null,
      "jsonValue" : null,
      "key" : "Quota SLM (m)",
      "lastUpdateTs" : 1698236655485,
      "longValue" : null,
      "strValue" : "NULL"
    }, {
      "booleanValue" : null,
      "doubleValue" : null,
      "jsonValue" : null,
      "key" : "Regione",
      "lastUpdateTs" : 1698236655485,
      "longValue" : null,
      "strValue" : "Emilia Romagna"
    }, {
      "booleanValue" : null,
      "doubleValue" : null,
      "jsonValue" : null,
      "key" : "Rischio Sismico",
      "lastUpdateTs" : 1698236655485,
      "longValue" : null,
      "strValue" : "Si"
    }, {
      "booleanValue" : null,
      "doubleValue" : null,
      "jsonValue" : null,
      "key" : "STRUTTURALE",
      "lastUpdateTs" : 1684996998331,
      "longValue" : null,
      "strValue" : "X"
    }, {
      "booleanValue" : null,
      "doubleValue" : null,
      "jsonValue" : null,
      "key" : "Schema Statico",
      "lastUpdateTs" : 1698236655485,
      "longValue" : null,
      "strValue" : "iperstatico"
    }, {
      "booleanValue" : null,
      "doubleValue" : null,
      "jsonValue" : null,
      "key" : "Schema statico",
      "lastUpdateTs" : 1684996998331,
      "longValue" : null,
      "strValue" : "Solettone continuo"
    }, {
      "booleanValue" : null,
      "doubleValue" : null,
      "jsonValue" : null,
      "key" : "Strada di appartenenza",
      "lastUpdateTs" : 1698236655485,
      "longValue" : null,
      "strValue" : "A15 Parma - S.Stefano"
    }, {
      "booleanValue" : null,
      "doubleValue" : null,
      "jsonValue" : null,
      "key" : "Strategicità opera",
      "lastUpdateTs" : 1698236655485,
      "longValue" : null,
      "strValue" : "Strategica"
    }, {
      "booleanValue" : null,
      "doubleValue" : null,
      "jsonValue" : null,
      "key" : "Tipologia Ente Scavalcato",
      "lastUpdateTs" : 1698236655485,
      "longValue" : null,
      "strValue" : "Ponte/Viadotto su discontinuità orografica"
    }, {
      "booleanValue" : null,
      "doubleValue" : null,
      "jsonValue" : null,
      "key" : "Tipologia Fonazione Spalla Finale",
      "lastUpdateTs" : 1698236655485,
      "longValue" : null,
      "strValue" : "Su pali"
    }, {
      "booleanValue" : null,
      "doubleValue" : null,
      "jsonValue" : null,
      "key" : "Tipologia Fonazione Spalla Iniziale",
      "lastUpdateTs" : 1698236655485,
      "longValue" : null,
      "strValue" : "Su pali"
    }, {
      "booleanValue" : null,
      "doubleValue" : null,
      "jsonValue" : null,
      "key" : "Tipologia Fondazione PIle",
      "lastUpdateTs" : 1698236655485,
      "longValue" : null,
      "strValue" : "Su Pozzi"
    }, {
      "booleanValue" : null,
      "doubleValue" : null,
      "jsonValue" : null,
      "key" : "Valori di TMG",
      "lastUpdateTs" : 1698236655485,
      "longValue" : 11370,
      "strValue" : null
    }, {
      "booleanValue" : null,
      "doubleValue" : null,
      "jsonValue" : null,
      "key" : "denominazione",
      "lastUpdateTs" : 1684996998331,
      "longValue" : null,
      "strValue" : "Taro 1 Direz. La Spezia"
    }, {
      "booleanValue" : null,
      "doubleValue" : 44.65581,
      "jsonValue" : null,
      "key" : "latitude",
      "lastUpdateTs" : 1684996998331,
      "longValue" : null,
      "strValue" : null
    }, {
      "booleanValue" : null,
      "doubleValue" : 10.05184,
      "jsonValue" : null,
      "key" : "longitude",
      "lastUpdateTs" : 1684996998331,
      "longValue" : null,
      "strValue" : null
    }, {
      "booleanValue" : null,
      "doubleValue" : null,
      "jsonValue" : null,
      "key" : "norme di progettazione",
      "lastUpdateTs" : 1698236655485,
      "longValue" : 1980,
      "strValue" : null
    }, {
      "booleanValue" : null,
      "doubleValue" : null,
      "jsonValue" : null,
      "key" : "progressivo",
      "lastUpdateTs" : 1684996998331,
      "longValue" : 20,
      "strValue" : null
    } ]
  }
}