{
  "entityType" : "ASSET",
  "entity" : {
    "additionalInfo" : { },
    "assetProfileId" : {
      "entityType" : "ASSET_PROFILE",
      "id" : "b451d020-66ad-11ee-a96a-cb2a6d50d019"
    },
    "customerId" : {
      "entityType" : "CUSTOMER",
      "id" : "58860100-ae05-11ed-b366-dfefa829992c"
    },
    "externalId" : {
      "entityType" : "ASSET",
      "id" : "6ed397b0-fac7-11ed-acb3-713c20aa7e65"
    },
    "id" : {
      "entityType" : "ASSET",
      "id" : "6ed397b0-fac7-11ed-acb3-713c20aa7e65"
    },
    "label" : null,
    "name" : "PV270",
    "type" : "Locale"
  },
  "relations" : [ ],
  "attributes" : {
    "SERVER_SCOPE" : [ {
      "booleanValue" : null,
      "doubleValue" : null,
      "jsonValue" : null,
      "key" : "Alternative stradali",
      "lastUpdateTs" : 1698236655509,
      "longValue" : null,
      "strValue" : "Presenti"
    }, {
      "booleanValue" : null,
      "doubleValue" : null,
      "jsonValue" : null,
      "key" : "Categoria di sottosuolo",
      "lastUpdateTs" : 1698236655509,
      "longValue" : null,
      "strValue" : "C"
    }, {
      "booleanValue" : null,
      "doubleValue" : null,
      "jsonValue" : null,
      "key" : "Categoria topografica",
      "lastUpdateTs" : 1698236655509,
      "longValue" : null,
      "strValue" : "T1"
    }, {
      "booleanValue" : null,
      "doubleValue" : null,
      "jsonValue" : null,
      "key" : "Classe sismica",
      "lastUpdateTs" : 1684996998334,
      "longValue" : null,
      "strValue" : "MEDIO-ALTA"
    }, {
      "booleanValue" : null,
      "doubleValue" : null,
      "jsonValue" : null,
      "key" : "Classe strutturale e fondazionale",
      "lastUpdateTs" : 1684996998334,
      "longValue" : null,
      "strValue" : "MEDIO-ALTA"
    }, {
      "booleanValue" : null,
      "doubleValue" : null,
      "jsonValue" : null,
      "key" : "CodiceIOP",
      "lastUpdateTs" : 1698236655509,
      "longValue" : null,
      "strValue" : "STAU0015PNCLQPM1VF"
    }, {
      "booleanValue" : null,
      "doubleValue" : null,
      "jsonValue" : null,
      "key" : "Comune",
      "lastUpdateTs" : 1698236655509,
      "longValue" : null,
      "strValue" : "Berceto"
    }, {
      "booleanValue" : null,
      "doubleValue" : null,
      "jsonValue" : null,
      "key" : "FRANE",
      "lastUpdateTs" : 1684996998334,
      "longValue" : null,
      "strValue" : "X"
    }, {
      "booleanValue" : null,
      "doubleValue" : null,
      "jsonValue" : null,
      "key" : "IDRAULICA",
      "lastUpdateTs" : 1684996998334,
      "longValue" : null,
      "strValue" : "X"
    }, {
      "booleanValue" : null,
      "doubleValue" : null,
      "jsonValue" : null,
      "key" : "Infrastruttura",
      "lastUpdateTs" : 1684996998334,
      "longValue" : null,
      "strValue" : "A15 Parma-La Spezia"
    }, {
      "booleanValue" : null,
      "doubleValue" : null,
      "jsonValue" : null,
      "key" : "Larghezza Carreggiata",
      "lastUpdateTs" : 1698236655509,
      "longValue" : 10,
      "strValue" : null
    }, {
      "booleanValue" : null,
      "doubleValue" : 44.54514923,
      "jsonValue" : null,
      "key" : "Latitudine finale",
      "lastUpdateTs" : 1698236655509,
      "longValue" : null,
      "strValue" : null
    }, {
      "booleanValue" : null,
      "doubleValue" : 44.54584919,
      "jsonValue" : null,
      "key" : "Latitudine iniziale",
      "lastUpdateTs" : 1698236655509,
      "longValue" : null,
      "strValue" : null
    }, {
      "booleanValue" : null,
      "doubleValue" : null,
      "jsonValue" : null,
      "key" : "Limitazioni Carico",
      "lastUpdateTs" : 1698236655509,
      "longValue" : null,
      "strValue" : "Classe A"
    }, {
      "booleanValue" : null,
      "doubleValue" : 9.950203927,
      "jsonValue" : null,
      "key" : "Longitudine finale",
      "lastUpdateTs" : 1698236655509,
      "longValue" : null,
      "strValue" : null
    }, {
      "booleanValue" : null,
      "doubleValue" : 9.949845856,
      "jsonValue" : null,
      "key" : "Longitudine iniziale",
      "lastUpdateTs" : 1698236655509,
      "longValue" : null,
      "strValue" : null
    }, {
      "booleanValue" : null,
      "doubleValue" : 32.905,
      "jsonValue" : null,
      "key" : "Luce campata max",
      "lastUpdateTs" : 1698236655509,
      "longValue" : null,
      "strValue" : null
    }, {
      "booleanValue" : null,
      "doubleValue" : null,
      "jsonValue" : null,
      "key" : "Lunghezza opera",
      "lastUpdateTs" : 1698236655509,
      "longValue" : 104,
      "strValue" : null
    }, {
      "booleanValue" : null,
      "doubleValue" : null,
      "jsonValue" : null,
      "key" : "Materiale",
      "lastUpdateTs" : 1684996998334,
      "longValue" : null,
      "strValue" : "C.a.p."
    }, {
      "booleanValue" : null,
      "doubleValue" : null,
      "jsonValue" : null,
      "key" : "Nome",
      "lastUpdateTs" : 1698236655509,
      "longValue" : null,
      "strValue" : "Bussetolo"
    }, {
      "booleanValue" : null,
      "doubleValue" : null,
      "jsonValue" : null,
      "key" : "Numero Campate",
      "lastUpdateTs" : 1698236655509,
      "longValue" : 3,
      "strValue" : null
    }, {
      "booleanValue" : null,
      "doubleValue" : null,
      "jsonValue" : null,
      "key" : "Periodo di costruzione",
      "lastUpdateTs" : 1698236655509,
      "longValue" : null,
      "strValue" : "NULL"
    }, {
      "booleanValue" : null,
      "doubleValue" : null,
      "jsonValue" : null,
      "key" : "Progressiva km Finale",
      "lastUpdateTs" : 1698236655509,
      "longValue" : 45782,
      "strValue" : null
    }, {
      "booleanValue" : null,
      "doubleValue" : null,
      "jsonValue" : null,
      "key" : "Progressiva km Iniziale",
      "lastUpdateTs" : 1698236655509,
      "longValue" : 45698,
      "strValue" : null
    }, {
      "booleanValue" : null,
      "doubleValue" : null,
      "jsonValue" : null,
      "key" : "Provincia",
      "lastUpdateTs" : 1698236655509,
      "longValue" : null,
      "strValue" : "Parma"
    }, {
      "booleanValue" : null,
      "doubleValue" : null,
      "jsonValue" : null,
      "key" : "Quota SLM (m)",
      "lastUpdateTs" : 1698236655509,
      "longValue" : null,
      "strValue" : "NULL"
    }, {
      "booleanValue" : null,
      "doubleValue" : null,
      "jsonValue" : null,
      "key" : "Regione",
      "lastUpdateTs" : 1698236655509,
      "longValue" : null,
      "strValue" : "Emilia Romagna"
    }, {
      "booleanValue" : null,
      "doubleValue" : null,
      "jsonValue" : null,
      "key" : "Rischio Sismico",
      "lastUpdateTs" : 1698236655509,
      "longValue" : null,
      "strValue" : "Si"
    }, {
      "booleanValue" : null,
      "doubleValue" : null,
      "jsonValue" : null,
      "key" : "STRUTTURALE",
      "lastUpdateTs" : 1684996998334,
      "longValue" : null,
      "strValue" : "X"
    }, {
      "booleanValue" : null,
      "doubleValue" : null,
      "jsonValue" : null,
      "key" : "Schema Statico",
      "lastUpdateTs" : 1698236655509,
      "longValue" : null,
      "strValue" : "isostatico"
    }, {
      "booleanValue" : null,
      "doubleValue" : null,
      "jsonValue" : null,
      "key" : "Schema statico",
      "lastUpdateTs" : 1684996998334,
      "longValue" : null,
      "strValue" : "Travate appoggiate"
    }, {
      "booleanValue" : null,
      "doubleValue" : null,
      "jsonValue" : null,
      "key" : "Strada di appartenenza",
      "lastUpdateTs" : 1698236655509,
      "longValue" : null,
      "strValue" : "A15 Parma - S.Stefano"
    }, {
      "booleanValue" : null,
      "doubleValue" : null,
      "jsonValue" : null,
      "key" : "Strategicità opera",
      "lastUpdateTs" : 1698236655509,
      "longValue" : null,
      "strValue" : "Strategica"
    }, {
      "booleanValue" : null,
      "doubleValue" : null,
      "jsonValue" : null,
      "key" : "Tipologia Ente Scavalcato",
      "lastUpdateTs" : 1698236655509,
      "longValue" : null,
      "strValue" : "Ponte su corso d’acqua - reticolo principale"
    }, {
      "booleanValue" : null,
      "doubleValue" : null,
      "jsonValue" : null,
      "key" : "Tipologia Fonazione Spalla Finale",
      "lastUpdateTs" : 1698236655509,
      "longValue" : null,
      "strValue" : "Su pozzi"
    }, {
      "booleanValue" : null,
      "doubleValue" : null,
      "jsonValue" : null,
      "key" : "Tipologia Fonazione Spalla Iniziale",
      "lastUpdateTs" : 1698236655509,
      "longValue" : null,
      "strValue" : "Su pozzi"
    }, {
      "booleanValue" : null,
      "doubleValue" : null,
      "jsonValue" : null,
      "key" : "Tipologia Fondazione PIle",
      "lastUpdateTs" : 1698236655509,
      "longValue" : null,
      "strValue" : "Su pozzi"
    }, {
      "booleanValue" : null,
      "doubleValue" : null,
      "jsonValue" : null,
      "key" : "Valori di TMG",
      "lastUpdateTs" : 1698236655509,
      "longValue" : 10818,
      "strValue" : null
    }, {
      "booleanValue" : null,
      "doubleValue" : null,
      "jsonValue" : null,
      "key" : "denominazione",
      "lastUpdateTs" : 1684996998334,
      "longValue" : null,
      "strValue" : "Bussetolo Direz. Parma"
    }, {
      "booleanValue" : null,
      "doubleValue" : 44.5455,
      "jsonValue" : null,
      "key" : "latitude",
      "lastUpdateTs" : 1684996998334,
      "longValue" : null,
      "strValue" : null
    }, {
      "booleanValue" : null,
      "doubleValue" : 9.95002,
      "jsonValue" : null,
      "key" : "longitude",
      "lastUpdateTs" : 1684996998334,
      "longValue" : null,
      "strValue" : null
    }, {
      "booleanValue" : null,
      "doubleValue" : null,
      "jsonValue" : null,
      "key" : "norme di progettazione",
      "lastUpdateTs" : 1698236655509,
      "longValue" : 1962,
      "strValue" : null
    }, {
      "booleanValue" : null,
      "doubleValue" : null,
      "jsonValue" : null,
      "key" : "progressivo",
      "lastUpdateTs" : 1684996998334,
      "longValue" : 21,
      "strValue" : null
    } ]
  }
}