{
  "entityType" : "ASSET",
  "entity" : {
    "additionalInfo" : { },
    "assetProfileId" : {
      "entityType" : "ASSET_PROFILE",
      "id" : "b451d020-66ad-11ee-a96a-cb2a6d50d019"
    },
    "customerId" : {
      "entityType" : "CUSTOMER",
      "id" : "58860100-ae05-11ed-b366-dfefa829992c"
    },
    "externalId" : {
      "entityType" : "ASSET",
      "id" : "6ed71a20-fac7-11ed-acb3-713c20aa7e65"
    },
    "id" : {
      "entityType" : "ASSET",
      "id" : "6ed71a20-fac7-11ed-acb3-713c20aa7e65"
    },
    "label" : null,
    "name" : "W115",
    "type" : "Locale"
  },
  "relations" : [ ],
  "attributes" : {
    "SERVER_SCOPE" : [ {
      "booleanValue" : null,
      "doubleValue" : null,
      "jsonValue" : null,
      "key" : "Alternative stradali",
      "lastUpdateTs" : 1698236655605,
      "longValue" : null,
      "strValue" : "Presenti"
    }, {
      "booleanValue" : null,
      "doubleValue" : null,
      "jsonValue" : null,
      "key" : "Categoria di sottosuolo",
      "lastUpdateTs" : 1698236655605,
      "longValue" : null,
      "strValue" : "C"
    }, {
      "booleanValue" : null,
      "doubleValue" : null,
      "jsonValue" : null,
      "key" : "Categoria topografica",
      "lastUpdateTs" : 1698236655605,
      "longValue" : null,
      "strValue" : "T1"
    }, {
      "booleanValue" : null,
      "doubleValue" : null,
      "jsonValue" : null,
      "key" : "Classe sismica",
      "lastUpdateTs" : 1684996998343,
      "longValue" : null,
      "strValue" : "MEDIA"
    }, {
      "booleanValue" : null,
      "doubleValue" : null,
      "jsonValue" : null,
      "key" : "Classe strutturale e fondazionale",
      "lastUpdateTs" : 1684996998343,
      "longValue" : null,
      "strValue" : "MEDIO-ALTA"
    }, {
      "booleanValue" : null,
      "doubleValue" : null,
      "jsonValue" : null,
      "key" : "CodiceIOP",
      "lastUpdateTs" : 1698236655605,
      "longValue" : null,
      "strValue" : "STAU0033PNDXUEHGWS"
    }, {
      "booleanValue" : null,
      "doubleValue" : null,
      "jsonValue" : null,
      "key" : "Comune",
      "lastUpdateTs" : 1698236655605,
      "longValue" : null,
      "strValue" : "Cuneo"
    }, {
      "booleanValue" : null,
      "doubleValue" : null,
      "jsonValue" : null,
      "key" : "IDRAULICA",
      "lastUpdateTs" : 1684996998343,
      "longValue" : null,
      "strValue" : "X"
    }, {
      "booleanValue" : null,
      "doubleValue" : null,
      "jsonValue" : null,
      "key" : "Infrastruttura",
      "lastUpdateTs" : 1684996998343,
      "longValue" : null,
      "strValue" : "A33 Asti-Cuneo"
    }, {
      "booleanValue" : null,
      "doubleValue" : null,
      "jsonValue" : null,
      "key" : "Larghezza Carreggiata",
      "lastUpdateTs" : 1698236655605,
      "longValue" : 24,
      "strValue" : null
    }, {
      "booleanValue" : null,
      "doubleValue" : 44.42224044,
      "jsonValue" : null,
      "key" : "Latitudine finale",
      "lastUpdateTs" : 1698236655605,
      "longValue" : null,
      "strValue" : null
    }, {
      "booleanValue" : null,
      "doubleValue" : 44.42542211,
      "jsonValue" : null,
      "key" : "Latitudine iniziale",
      "lastUpdateTs" : 1698236655605,
      "longValue" : null,
      "strValue" : null
    }, {
      "booleanValue" : null,
      "doubleValue" : null,
      "jsonValue" : null,
      "key" : "Limitazioni Carico",
      "lastUpdateTs" : 1698236655605,
      "longValue" : null,
      "strValue" : "Classe A"
    }, {
      "booleanValue" : null,
      "doubleValue" : 7.582306556,
      "jsonValue" : null,
      "key" : "Longitudine finale",
      "lastUpdateTs" : 1698236655605,
      "longValue" : null,
      "strValue" : null
    }, {
      "booleanValue" : null,
      "doubleValue" : 7.569689333,
      "jsonValue" : null,
      "key" : "Longitudine iniziale",
      "lastUpdateTs" : 1698236655605,
      "longValue" : null,
      "strValue" : null
    }, {
      "booleanValue" : null,
      "doubleValue" : 53.43,
      "jsonValue" : null,
      "key" : "Luce campata max",
      "lastUpdateTs" : 1698236655605,
      "longValue" : null,
      "strValue" : null
    }, {
      "booleanValue" : null,
      "doubleValue" : null,
      "jsonValue" : null,
      "key" : "Lunghezza opera",
      "lastUpdateTs" : 1698236655605,
      "longValue" : 1106,
      "strValue" : null
    }, {
      "booleanValue" : null,
      "doubleValue" : null,
      "jsonValue" : null,
      "key" : "Materiale",
      "lastUpdateTs" : 1684996998343,
      "longValue" : null,
      "strValue" : "Struttura composta acciaio-c.a."
    }, {
      "booleanValue" : null,
      "doubleValue" : null,
      "jsonValue" : null,
      "key" : "Nome",
      "lastUpdateTs" : 1698236655605,
      "longValue" : null,
      "strValue" : "Ponte Stura di Demonte I"
    }, {
      "booleanValue" : null,
      "doubleValue" : null,
      "jsonValue" : null,
      "key" : "Numero Campate",
      "lastUpdateTs" : 1698236655605,
      "longValue" : 12,
      "strValue" : null
    }, {
      "booleanValue" : null,
      "doubleValue" : null,
      "jsonValue" : null,
      "key" : "PNC",
      "lastUpdateTs" : 1684996998343,
      "longValue" : null,
      "strValue" : "X"
    }, {
      "booleanValue" : null,
      "doubleValue" : null,
      "jsonValue" : null,
      "key" : "Periodo di costruzione",
      "lastUpdateTs" : 1698236655605,
      "longValue" : null,
      "strValue" : "NULL"
    }, {
      "booleanValue" : null,
      "doubleValue" : null,
      "jsonValue" : null,
      "key" : "Progressiva km Finale",
      "lastUpdateTs" : 1698236655605,
      "longValue" : 1825,
      "strValue" : null
    }, {
      "booleanValue" : null,
      "doubleValue" : null,
      "jsonValue" : null,
      "key" : "Progressiva km Iniziale",
      "lastUpdateTs" : 1698236655605,
      "longValue" : 725,
      "strValue" : null
    }, {
      "booleanValue" : null,
      "doubleValue" : null,
      "jsonValue" : null,
      "key" : "Provincia",
      "lastUpdateTs" : 1698236655605,
      "longValue" : null,
      "strValue" : "Cuneo"
    }, {
      "booleanValue" : null,
      "doubleValue" : null,
      "jsonValue" : null,
      "key" : "Quota SLM (m)",
      "lastUpdateTs" : 1698236655605,
      "longValue" : null,
      "strValue" : "NULL"
    }, {
      "booleanValue" : null,
      "doubleValue" : null,
      "jsonValue" : null,
      "key" : "Regione",
      "lastUpdateTs" : 1698236655605,
      "longValue" : null,
      "strValue" : "Piemonte"
    }, {
      "booleanValue" : null,
      "doubleValue" : null,
      "jsonValue" : null,
      "key" : "Rischio Sismico",
      "lastUpdateTs" : 1698236655605,
      "longValue" : null,
      "strValue" : "Si"
    }, {
      "booleanValue" : null,
      "doubleValue" : null,
      "jsonValue" : null,
      "key" : "STRUTTURALE",
      "lastUpdateTs" : 1684996998343,
      "longValue" : null,
      "strValue" : "X"
    }, {
      "booleanValue" : null,
      "doubleValue" : null,
      "jsonValue" : null,
      "key" : "Schema Statico",
      "lastUpdateTs" : 1698236655605,
      "longValue" : null,
      "strValue" : "iperstatico"
    }, {
      "booleanValue" : null,
      "doubleValue" : null,
      "jsonValue" : null,
      "key" : "Schema statico",
      "lastUpdateTs" : 1684996998343,
      "longValue" : null,
      "strValue" : "Travate continue"
    }, {
      "booleanValue" : null,
      "doubleValue" : null,
      "jsonValue" : null,
      "key" : "Strada di appartenenza",
      "lastUpdateTs" : 1698236655605,
      "longValue" : null,
      "strValue" : "A33 Asti - Cuneo"
    }, {
      "booleanValue" : null,
      "doubleValue" : null,
      "jsonValue" : null,
      "key" : "Strategicità opera",
      "lastUpdateTs" : 1698236655605,
      "longValue" : null,
      "strValue" : "Strategica"
    }, {
      "booleanValue" : null,
      "doubleValue" : null,
      "jsonValue" : null,
      "key" : "Tipologia Ente Scavalcato",
      "lastUpdateTs" : 1698236655605,
      "longValue" : null,
      "strValue" : "NULL"
    }, {
      "booleanValue" : null,
      "doubleValue" : null,
      "jsonValue" : null,
      "key" : "Tipologia Fonazione Spalla Finale",
      "lastUpdateTs" : 1698236655605,
      "longValue" : null,
      "strValue" : "Su pali"
    }, {
      "booleanValue" : null,
      "doubleValue" : null,
      "jsonValue" : null,
      "key" : "Tipologia Fonazione Spalla Iniziale",
      "lastUpdateTs" : 1698236655605,
      "longValue" : null,
      "strValue" : "Su pali"
    }, {
      "booleanValue" : null,
      "doubleValue" : null,
      "jsonValue" : null,
      "key" : "Tipologia Fondazione PIle",
      "lastUpdateTs" : 1698236655605,
      "longValue" : null,
      "strValue" : "Su Pali"
    }, {
      "booleanValue" : null,
      "doubleValue" : null,
      "jsonValue" : null,
      "key" : "Valori di TMG",
      "lastUpdateTs" : 1698236655605,
      "longValue" : null,
      "strValue" : "NULL"
    }, {
      "booleanValue" : null,
      "doubleValue" : null,
      "jsonValue" : null,
      "key" : "denominazione",
      "lastUpdateTs" : 1684996998343,
      "longValue" : null,
      "strValue" : "Ponte Stura di Demonte I"
    }, {
      "booleanValue" : null,
      "doubleValue" : 44.422565721297126,
      "jsonValue" : null,
      "key" : "latitude",
      "lastUpdateTs" : 1694529286400,
      "longValue" : null,
      "strValue" : null
    }, {
      "booleanValue" : null,
      "doubleValue" : 7.575538669463946,
      "jsonValue" : null,
      "key" : "longitude",
      "lastUpdateTs" : 1694529286400,
      "longValue" : null,
      "strValue" : null
    }, {
      "booleanValue" : null,
      "doubleValue" : null,
      "jsonValue" : null,
      "key" : "norme di progettazione",
      "lastUpdateTs" : 1698236655605,
      "longValue" : 1990,
      "strValue" : null
    }, {
      "booleanValue" : null,
      "doubleValue" : null,
      "jsonValue" : null,
      "key" : "progressivo",
      "lastUpdateTs" : 1684996998343,
      "longValue" : 34,
      "strValue" : null
    } ]
  }
}