{
  "entityType" : "ASSET",
  "entity" : {
    "additionalInfo" : {
      "description" : ""
    },
    "assetProfileId" : {
      "entityType" : "ASSET_PROFILE",
      "id" : "a4cfd1e0-9842-11ed-ae3d-232983d77f71"
    },
    "customerId" : {
      "entityType" : "CUSTOMER",
      "id" : "13814000-1dd2-11b2-8080-808080808080"
    },
    "externalId" : {
      "entityType" : "ASSET",
      "id" : "7f9b1b20-6130-11ee-ad34-391d68ed07a4"
    },
    "id" : {
      "entityType" : "ASSET",
      "id" : "7f9b1b20-6130-11ee-ad34-391d68ed07a4"
    },
    "label" : null,
    "name" : "testtest",
    "type" : "default"
  },
  "relations" : [ ],
  "attributes" : {
    "SERVER_SCOPE" : [ ]
  }
}