{
  "entityType" : "ASSET",
  "entity" : {
    "additionalInfo" : null,
    "assetProfileId" : {
      "entityType" : "ASSET_PROFILE",
      "id" : "41419ad0-9844-11ed-aeff-5ffcf0268e49"
    },
    "customerId" : {
      "entityType" : "CUSTOMER",
      "id" : "13814000-1dd2-11b2-8080-808080808080"
    },
    "externalId" : {
      "entityType" : "ASSET",
      "id" : "8231e530-6e6e-11ee-ab35-f78cd813e170"
    },
    "id" : {
      "entityType" : "ASSET",
      "id" : "8231e530-6e6e-11ee-ab35-f78cd813e170"
    },
    "label" : null,
    "name" : "HighPriority_0381637c2aa1",
    "type" : "TbServiceQueue"
  },
  "relations" : [ ],
  "attributes" : {
    "SERVER_SCOPE" : [ ]
  }
}