{
  "entityType" : "ASSET",
  "entity" : {
    "additionalInfo" : { },
    "assetProfileId" : {
      "entityType" : "ASSET_PROFILE",
      "id" : "63f069b0-8af7-11ef-9e51-bd4861d58417"
    },
    "customerId" : {
      "entityType" : "CUSTOMER",
      "id" : "e8eb91c0-91e7-11ef-8fd8-05f5511a927e"
    },
    "externalId" : null,
    "id" : {
      "entityType" : "ASSET",
      "id" : "9d45a790-91e9-11ef-8fd8-05f5511a927e"
    },
    "label" : null,
    "name" : "W13C0",
    "type" : "Bridge"
  },
  "relations" : [ {
    "additionalInfo" : null,
    "from" : {
      "entityType" : "CUSTOMER",
      "id" : "e8eb91c0-91e7-11ef-8fd8-05f5511a927e"
    },
    "to" : {
      "entityType" : "ASSET",
      "id" : "9d45a790-91e9-11ef-8fd8-05f5511a927e"
    },
    "type" : "Owns",
    "typeGroup" : "COMMON"
  } ],
  "attributes" : {
    "SERVER_SCOPE" : [ {
      "booleanValue" : null,
      "doubleValue" : null,
      "jsonValue" : null,
      "key" : "Alternative stradali",
      "lastUpdateTs" : 1729761802389,
      "longValue" : null,
      "strValue" : "Presenti"
    }, {
      "booleanValue" : null,
      "doubleValue" : null,
      "jsonValue" : null,
      "key" : "Categoria di sottosuolo",
      "lastUpdateTs" : 1729761802389,
      "longValue" : null,
      "strValue" : "C"
    }, {
      "booleanValue" : null,
      "doubleValue" : null,
      "jsonValue" : null,
      "key" : "Categoria topografica",
      "lastUpdateTs" : 1729761802389,
      "longValue" : null,
      "strValue" : "T1"
    }, {
      "booleanValue" : null,
      "doubleValue" : null,
      "jsonValue" : null,
      "key" : "Classe complessiva",
      "lastUpdateTs" : 1729761802389,
      "longValue" : null,
      "strValue" : "MEDIO-ALTA"
    }, {
      "booleanValue" : null,
      "doubleValue" : null,
      "jsonValue" : null,
      "key" : "Classe frane",
      "lastUpdateTs" : 1729761802389,
      "longValue" : null,
      "strValue" : "BASSA"
    }, {
      "booleanValue" : null,
      "doubleValue" : null,
      "jsonValue" : null,
      "key" : "Classe frane e idraulica",
      "lastUpdateTs" : 1729761802389,
      "longValue" : null,
      "strValue" : "MEDIA"
    }, {
      "booleanValue" : null,
      "doubleValue" : null,
      "jsonValue" : null,
      "key" : "Classe idraulica",
      "lastUpdateTs" : 1729761802389,
      "longValue" : null,
      "strValue" : "BASSA"
    }, {
      "booleanValue" : null,
      "doubleValue" : null,
      "jsonValue" : null,
      "key" : "Classe sismica",
      "lastUpdateTs" : 1729761802389,
      "longValue" : null,
      "strValue" : "ALTA"
    }, {
      "booleanValue" : null,
      "doubleValue" : null,
      "jsonValue" : null,
      "key" : "Classe strutturale e fondazionale",
      "lastUpdateTs" : 1729761802389,
      "longValue" : null,
      "strValue" : "MEDIO-ALTA"
    }, {
      "booleanValue" : null,
      "doubleValue" : null,
      "jsonValue" : null,
      "key" : "CodiceIOP",
      "lastUpdateTs" : 1729761802389,
      "longValue" : null,
      "strValue" : "STAU0033PNSUOCMDXO"
    }, {
      "booleanValue" : null,
      "doubleValue" : null,
      "jsonValue" : null,
      "key" : "Comune",
      "lastUpdateTs" : 1729761802389,
      "longValue" : null,
      "strValue" : "Carrù"
    }, {
      "booleanValue" : null,
      "doubleValue" : null,
      "jsonValue" : null,
      "key" : "Fenomeni Erosivi",
      "lastUpdateTs" : 1729761802389,
      "longValue" : null,
      "strValue" : "NULL"
    }, {
      "booleanValue" : null,
      "doubleValue" : null,
      "jsonValue" : null,
      "key" : "Fenomeni Franosi",
      "lastUpdateTs" : 1729761802389,
      "longValue" : null,
      "strValue" : "Assenti"
    }, {
      "booleanValue" : null,
      "doubleValue" : null,
      "jsonValue" : null,
      "key" : "Id",
      "lastUpdateTs" : 1729761802389,
      "longValue" : 1903,
      "strValue" : null
    }, {
      "booleanValue" : null,
      "doubleValue" : 9.5,
      "jsonValue" : null,
      "key" : "Larghezza Carreggiata",
      "lastUpdateTs" : 1729761802389,
      "longValue" : null,
      "strValue" : null
    }, {
      "booleanValue" : null,
      "doubleValue" : null,
      "jsonValue" : null,
      "key" : "Latitudine finale",
      "lastUpdateTs" : 1729761802389,
      "longValue" : null,
      "strValue" : "NULL"
    }, {
      "booleanValue" : null,
      "doubleValue" : 44.49014522,
      "jsonValue" : null,
      "key" : "Latitudine iniziale",
      "lastUpdateTs" : 1729761802389,
      "longValue" : null,
      "strValue" : null
    }, {
      "booleanValue" : null,
      "doubleValue" : null,
      "jsonValue" : null,
      "key" : "Limitazioni Carico",
      "lastUpdateTs" : 1729761802389,
      "longValue" : null,
      "strValue" : "Classe A - Nessuna limitazione"
    }, {
      "booleanValue" : null,
      "doubleValue" : null,
      "jsonValue" : null,
      "key" : "Longitudine finale",
      "lastUpdateTs" : 1729761802389,
      "longValue" : null,
      "strValue" : "NULL"
    }, {
      "booleanValue" : null,
      "doubleValue" : 7.816591944,
      "jsonValue" : null,
      "key" : "Longitudine iniziale",
      "lastUpdateTs" : 1729761802389,
      "longValue" : null,
      "strValue" : null
    }, {
      "booleanValue" : null,
      "doubleValue" : null,
      "jsonValue" : null,
      "key" : "Luce campata max",
      "lastUpdateTs" : 1729761802389,
      "longValue" : 33,
      "strValue" : null
    }, {
      "booleanValue" : null,
      "doubleValue" : null,
      "jsonValue" : null,
      "key" : "Lunghezza opera",
      "lastUpdateTs" : 1729761802389,
      "longValue" : 73,
      "strValue" : null
    }, {
      "booleanValue" : null,
      "doubleValue" : null,
      "jsonValue" : null,
      "key" : "Materiale Pile",
      "lastUpdateTs" : 1729761802389,
      "longValue" : null,
      "strValue" : "C.a."
    }, {
      "booleanValue" : null,
      "doubleValue" : null,
      "jsonValue" : null,
      "key" : "MaterialeImpalcato",
      "lastUpdateTs" : 1729761802389,
      "longValue" : null,
      "strValue" : "Misto (C.a./acciaio)"
    }, {
      "booleanValue" : null,
      "doubleValue" : null,
      "jsonValue" : null,
      "key" : "Nome",
      "lastUpdateTs" : 1729761802389,
      "longValue" : null,
      "strValue" : "Viadotto su A6 TO-SV (rampa ingresso da A6 dir. TO su A33 dir. CN)"
    }, {
      "booleanValue" : null,
      "doubleValue" : null,
      "jsonValue" : null,
      "key" : "Numero Campate",
      "lastUpdateTs" : 1729761802389,
      "longValue" : 3,
      "strValue" : null
    }, {
      "booleanValue" : null,
      "doubleValue" : null,
      "jsonValue" : null,
      "key" : "Periodo di costruzione",
      "lastUpdateTs" : 1729761802389,
      "longValue" : null,
      "strValue" : "NULL"
    }, {
      "booleanValue" : null,
      "doubleValue" : null,
      "jsonValue" : null,
      "key" : "Progressiva km Finale",
      "lastUpdateTs" : 1729761802389,
      "longValue" : 0,
      "strValue" : null
    }, {
      "booleanValue" : null,
      "doubleValue" : null,
      "jsonValue" : null,
      "key" : "Progressiva km Iniziale",
      "lastUpdateTs" : 1729761802389,
      "longValue" : 23000,
      "strValue" : null
    }, {
      "booleanValue" : null,
      "doubleValue" : null,
      "jsonValue" : null,
      "key" : "Provincia",
      "lastUpdateTs" : 1729761802389,
      "longValue" : null,
      "strValue" : "Cuneo"
    }, {
      "booleanValue" : null,
      "doubleValue" : null,
      "jsonValue" : null,
      "key" : "Quota SLM (m)",
      "lastUpdateTs" : 1729761802389,
      "longValue" : null,
      "strValue" : "NULL"
    }, {
      "booleanValue" : null,
      "doubleValue" : null,
      "jsonValue" : null,
      "key" : "Regione",
      "lastUpdateTs" : 1729761802389,
      "longValue" : null,
      "strValue" : "Piemonte"
    }, {
      "booleanValue" : null,
      "doubleValue" : null,
      "jsonValue" : null,
      "key" : "Rischio Frane",
      "lastUpdateTs" : 1729761802389,
      "longValue" : null,
      "strValue" : "No"
    }, {
      "booleanValue" : null,
      "doubleValue" : null,
      "jsonValue" : null,
      "key" : "Rischio Idraulico",
      "lastUpdateTs" : 1729761802389,
      "longValue" : null,
      "strValue" : "No"
    }, {
      "booleanValue" : null,
      "doubleValue" : null,
      "jsonValue" : null,
      "key" : "Rischio Sismico",
      "lastUpdateTs" : 1729761802389,
      "longValue" : null,
      "strValue" : "Si"
    }, {
      "booleanValue" : null,
      "doubleValue" : null,
      "jsonValue" : null,
      "key" : "Schema Statico",
      "lastUpdateTs" : 1729761802389,
      "longValue" : null,
      "strValue" : "iperstatico"
    }, {
      "booleanValue" : null,
      "doubleValue" : null,
      "jsonValue" : null,
      "key" : "Strada di appartenenza",
      "lastUpdateTs" : 1729761802389,
      "longValue" : null,
      "strValue" : "A33 Asti - Cuneo"
    }, {
      "booleanValue" : null,
      "doubleValue" : null,
      "jsonValue" : null,
      "key" : "Strategicita opera",
      "lastUpdateTs" : 1729761802389,
      "longValue" : null,
      "strValue" : "Strategica"
    }, {
      "booleanValue" : null,
      "doubleValue" : null,
      "jsonValue" : null,
      "key" : "Tipologia Arginatura",
      "lastUpdateTs" : 1729761802389,
      "longValue" : null,
      "strValue" : "NULL"
    }, {
      "booleanValue" : null,
      "doubleValue" : null,
      "jsonValue" : null,
      "key" : "Tipologia Ente Scavalcato",
      "lastUpdateTs" : 1729761802389,
      "longValue" : null,
      "strValue" : "Viadotto su zona urbanizzata"
    }, {
      "booleanValue" : null,
      "doubleValue" : null,
      "jsonValue" : null,
      "key" : "Tipologia Fondazione Pile",
      "lastUpdateTs" : 1729761802389,
      "longValue" : null,
      "strValue" : "Superficiali"
    }, {
      "booleanValue" : null,
      "doubleValue" : null,
      "jsonValue" : null,
      "key" : "Tipologia Fondazione Spalla Finale",
      "lastUpdateTs" : 1729761802389,
      "longValue" : null,
      "strValue" : "Su pali"
    }, {
      "booleanValue" : null,
      "doubleValue" : null,
      "jsonValue" : null,
      "key" : "Tipologia Fondazione Spalla Iniziale",
      "lastUpdateTs" : 1729761802389,
      "longValue" : null,
      "strValue" : "Su pali"
    }, {
      "booleanValue" : null,
      "doubleValue" : null,
      "jsonValue" : null,
      "key" : "Tipologia Strutturale",
      "lastUpdateTs" : 1729761802389,
      "longValue" : null,
      "strValue" : "Travate continue / Telaio"
    }, {
      "booleanValue" : null,
      "doubleValue" : null,
      "jsonValue" : null,
      "key" : "Valori TMG Comm",
      "lastUpdateTs" : 1729761802389,
      "longValue" : null,
      "strValue" : "NULL"
    }, {
      "booleanValue" : null,
      "doubleValue" : null,
      "jsonValue" : null,
      "key" : "Valori di TMG",
      "lastUpdateTs" : 1729761802389,
      "longValue" : null,
      "strValue" : "NULL"
    }, {
      "booleanValue" : null,
      "doubleValue" : 0.066417015341278,
      "jsonValue" : null,
      "key" : "ag",
      "lastUpdateTs" : 1729761802389,
      "longValue" : null,
      "strValue" : null
    }, {
      "booleanValue" : null,
      "doubleValue" : null,
      "jsonValue" : null,
      "key" : "fileSchedaL0",
      "lastUpdateTs" : 1729761802389,
      "longValue" : null,
      "strValue" : "\\\\vmsy02\\commesse\\113400_A33\\Opere\\W13C0\\Report\\SchedeLv0\\LG20_SL0_W13C0_20230710_091143_3714.pdf"
    }, {
      "booleanValue" : null,
      "doubleValue" : 44.49014522,
      "jsonValue" : null,
      "key" : "latitude",
      "lastUpdateTs" : 1729761802389,
      "longValue" : null,
      "strValue" : null
    }, {
      "booleanValue" : null,
      "doubleValue" : 7.816591944,
      "jsonValue" : null,
      "key" : "longitude",
      "lastUpdateTs" : 1729761802389,
      "longValue" : null,
      "strValue" : null
    }, {
      "booleanValue" : null,
      "doubleValue" : null,
      "jsonValue" : null,
      "key" : "nomeFileSchedaL0",
      "lastUpdateTs" : 1729761802389,
      "longValue" : null,
      "strValue" : "LG20_SL0_W13C0_20230710_091143_3714.pdf"
    }, {
      "booleanValue" : null,
      "doubleValue" : null,
      "jsonValue" : null,
      "key" : "norme di progettazione",
      "lastUpdateTs" : 1729761802389,
      "longValue" : 1990,
      "strValue" : null
    }, {
      "booleanValue" : null,
      "doubleValue" : null,
      "jsonValue" : null,
      "key" : "tipologia Corso Acqua",
      "lastUpdateTs" : 1729761802389,
      "longValue" : null,
      "strValue" : "NULL"
    } ]
  }
}