{
  "entityType" : "ASSET",
  "entity" : {
    "additionalInfo" : null,
    "assetProfileId" : {
      "entityType" : "ASSET_PROFILE",
      "id" : "41419ad0-9844-11ed-aeff-5ffcf0268e49"
    },
    "customerId" : {
      "entityType" : "CUSTOMER",
      "id" : "13814000-1dd2-11b2-8080-808080808080"
    },
    "externalId" : {
      "entityType" : "ASSET",
      "id" : "a7206970-795e-11ee-8305-3bb1b87715ee"
    },
    "id" : {
      "entityType" : "ASSET",
      "id" : "a7206970-795e-11ee-8305-3bb1b87715ee"
    },
    "label" : null,
    "name" : "HighPriority_9f08d8f81c66",
    "type" : "TbServiceQueue"
  },
  "relations" : [ ],
  "attributes" : {
    "SERVER_SCOPE" : [ ]
  }
}