{
  "entityType" : "ASSET",
  "entity" : {
    "additionalInfo" : {
      "description" : ""
    },
    "assetProfileId" : {
      "entityType" : "ASSET_PROFILE",
      "id" : "94b09a40-95d1-11ef-8fd8-05f5511a927e"
    },
    "customerId" : {
      "entityType" : "CUSTOMER",
      "id" : "13814000-1dd2-11b2-8080-808080808080"
    },
    "externalId" : null,
    "id" : {
      "entityType" : "ASSET",
      "id" : "ea689280-95d1-11ef-8fd8-05f5511a927e"
    },
    "label" : null,
    "name" : "Idro_configuration",
    "type" : "configuration"
  },
  "relations" : [ ],
  "attributes" : {
    "SERVER_SCOPE" : [ {
      "booleanValue" : null,
      "doubleValue" : null,
      "jsonValue" : "[{\"scenarioType\":\"SORMONTO\",\"effeto\":[{\"name\":\"Variazione di quota del pelo libero\",\"indicatoreDiDanno\":[\"Franco al ponte\"]}]},{\"scenarioType\":\"EROSIONE LOCALIZZATA\",\"effeto\":[{\"name\":\"Variazione di quota del fondo alveo in corrispondenza della pila\",\"indicatoreDiDanno\":[\"IEL (indice erosione localizzata)\"]},{\"name\":\"Incremento della profondità di scavo per effetto della presenza di materiale flottante che si accumula in corrispondenza della pila/spalla\",\"indicatoreDiDanno\":[\"Accumulo materiale flottante\"]}]},{\"scenarioType\":\"EROSIONE GENERALIZZATA\",\"effeto\":[{\"name\":\"Variazione di quota del fondo alveo su tutta la sezione trasversale del ponte\",\"indicatoreDiDanno\":[\"IEG (indice erosione generalizzata)\"]}]},{\"scenarioType\":\"DIVAGAZIONE PLANIMETRICA\",\"effeto\":[{\"name\":\"Erosione spondale\",\"indicatoreDiDanno\":[\"Erosione spondale\"]}]}]",
      "key" : "config",
      "lastUpdateTs" : 1730191480327,
      "longValue" : null,
      "strValue" : null
    } ]
  }
}