{
  "entityType" : "ASSET",
  "entity" : {
    "additionalInfo" : {
      "description" : ""
    },
    "assetProfileId" : {
      "entityType" : "ASSET_PROFILE",
      "id" : "a4cfd1e0-9842-11ed-ae3d-232983d77f71"
    },
    "customerId" : {
      "entityType" : "CUSTOMER",
      "id" : "13814000-1dd2-11b2-8080-808080808080"
    },
    "externalId" : null,
    "id" : {
      "entityType" : "ASSET",
      "id" : "fdfed980-fb35-11ee-9795-0be0db08e426"
    },
    "label" : null,
    "name" : "ImperoFull",
    "type" : "default"
  },
  "relations" : [ {
    "additionalInfo" : null,
    "from" : {
      "entityType" : "ASSET",
      "id" : "fdfed980-fb35-11ee-9795-0be0db08e426"
    },
    "to" : {
      "entityType" : "FILE",
      "id" : "0264fc90-b3d6-11ee-9dbe-a1b753db715b"
    },
    "type" : "Contains",
    "typeGroup" : "COMMON"
  } ],
  "attributes" : {
    "SERVER_SCOPE" : [ ]
  }
}