{
  "entityType" : "ASSET_PROFILE",
  "entity" : {
    "default" : false,
    "defaultDashboardId" : null,
    "defaultEdgeRuleChainId" : null,
    "defaultQueueName" : null,
    "defaultRuleChainId" : null,
    "description" : "Road design",
    "externalId" : {
      "entityType" : "ASSET_PROFILE",
      "id" : "02d3eb90-5c61-11ee-bd48-b70fa5f76abc"
    },
    "id" : {
      "entityType" : "ASSET_PROFILE",
      "id" : "02d3eb90-5c61-11ee-bd48-b70fa5f76abc"
    },
    "image" : null,
    "name" : "Road"
  },
  "relations" : [ ],
  "attributes" : {
    "SERVER_SCOPE" : [ ]
  }
}