{
  "entityType" : "ASSET_PROFILE",
  "entity" : {
    "default" : false,
    "defaultDashboardId" : null,
    "defaultEdgeRuleChainId" : null,
    "defaultQueueName" : null,
    "defaultRuleChainId" : null,
    "description" : null,
    "externalId" : {
      "entityType" : "ASSET_PROFILE",
      "id" : "04bdb090-a86f-11ed-9719-81bc5c240dd0"
    },
    "id" : {
      "entityType" : "ASSET_PROFILE",
      "id" : "04bdb090-a86f-11ed-9719-81bc5c240dd0"
    },
    "image" : null,
    "name" : "Bridge"
  },
  "relations" : [ ],
  "attributes" : {
    "SERVER_SCOPE" : [ ]
  }
}