{
  "entityType" : "ASSET_PROFILE",
  "entity" : {
    "default" : false,
    "defaultDashboardId" : null,
    "defaultEdgeRuleChainId" : null,
    "defaultQueueName" : null,
    "defaultRuleChainId" : {
      "entityType" : "RULE_CHAIN",
      "id" : "92dd0430-6c22-11ee-94c7-8b08acb654b9"
    },
    "description" : "Asset profile for  SHM",
    "externalId" : {
      "entityType" : "ASSET_PROFILE",
      "id" : "2aa46900-6770-11ee-94c7-8b08acb654b9"
    },
    "id" : {
      "entityType" : "ASSET_PROFILE",
      "id" : "2aa46900-6770-11ee-94c7-8b08acb654b9"
    },
    "image" : null,
    "name" : "SHM"
  },
  "relations" : [ ],
  "attributes" : {
    "SERVER_SCOPE" : [ ]
  }
}