{
  "entityType" : "ASSET_PROFILE",
  "entity" : {
    "default" : false,
    "defaultDashboardId" : null,
    "defaultEdgeRuleChainId" : null,
    "defaultQueueName" : null,
    "defaultRuleChainId" : null,
    "description" : "Default asset profile",
    "externalId" : {
      "entityType" : "ASSET_PROFILE",
      "id" : "330c8300-fac6-11ed-acb3-713c20aa7e65"
    },
    "id" : {
      "entityType" : "ASSET_PROFILE",
      "id" : "330c8300-fac6-11ed-acb3-713c20aa7e65"
    },
    "image" : null,
    "name" : "Cavalcavia"
  },
  "relations" : [ ],
  "attributes" : {
    "SERVER_SCOPE" : [ ]
  }
}