{
  "entityType" : "ASSET_PROFILE",
  "entity" : {
    "default" : false,
    "defaultDashboardId" : null,
    "defaultEdgeRuleChainId" : null,
    "defaultQueueName" : null,
    "defaultRuleChainId" : null,
    "description" : null,
    "externalId" : {
      "entityType" : "ASSET_PROFILE",
      "id" : "f3873ed0-b81e-11ed-b366-dfefa829992c"
    },
    "id" : {
      "entityType" : "ASSET_PROFILE",
      "id" : "f3873ed0-b81e-11ed-b366-dfefa829992c"
    },
    "image" : null,
    "name" : "layer0"
  },
  "relations" : [ ],
  "attributes" : {
    "SERVER_SCOPE" : [ ]
  }
}