{
  "entityType" : "TB_RESOURCE",
  "entity" : {
    "data" : "PHN2ZyB3aWR0aD0iMjAiIGhlaWdodD0iMjAiIHZpZXdCb3g9IjAgMCAyMCAyMCIgZmlsbD0ibm9uZSIgeG1sbnM9Imh0dHA6Ly93d3cudzMub3JnLzIwMDAvc3ZnIj4KPGNpcmNsZSBjeD0iMTAiIGN5PSIxMCIgcj0iNiIgZmlsbD0iI0U2NEExOSIvPgo8L3N2Zz4K",
    "descriptor" : {
      "mediaType" : "image/svg+xml",
      "width" : 20,
      "height" : 20,
      "size" : 150,
      "etag" : "220e8641114b0e0602b9c38f8a8985f4bfc76654c65ae802bf8cf59c02b14250",
      "previewDescriptor" : {
        "mediaType" : "image/svg+xml",
        "width" : 20,
        "height" : 20,
        "size" : 150,
        "etag" : "220e8641114b0e0602b9c38f8a8985f4bfc76654c65ae802bf8cf59c02b14250"
      }
    },
    "etag" : "220e8641114b0e0602b9c38f8a8985f4bfc76654c65ae802bf8cf59c02b14250",
    "externalId" : null,
    "fileName" : "shm_management_dashboard_widget_state_filter_custom_icon_(2).svg",
    "id" : {
      "entityType" : "TB_RESOURCE",
      "id" : "bbe523e0-87c8-11ef-9e51-bd4861d58417"
    },
    "link" : "/api/images/tenant/shm_management_dashboard_widget_state_filter_custom_icon_(2).svg",
    "name" : "\"SHM Management\" dashboard widget \"State Filter\" custom icon",
    "preview" : null,
    "public" : true,
    "publicLink" : "/api/images/public/cI4zAyT5byc3GkNKgvUadByxzPvi0rou",
    "publicResourceKey" : "cI4zAyT5byc3GkNKgvUadByxzPvi0rou",
    "resourceKey" : "shm_management_dashboard_widget_state_filter_custom_icon_(2).svg",
    "resourceType" : "IMAGE",
    "title" : "\"SHM Management\" dashboard widget \"State Filter\" custom icon"
  },
  "relations" : [ ],
  "attributes" : {
    "SERVER_SCOPE" : [ ]
  }
}