{
  "entityType" : "CUSTOMER",
  "entity" : {
    "additionalInfo" : {
      "description" : "Asti Cuneo",
      "homeDashboardId" : null,
      "homeDashboardHideToolbar" : true
    },
    "address" : null,
    "address2" : null,
    "city" : "",
    "country" : "Italy",
    "email" : null,
    "externalId" : {
      "entityType" : "CUSTOMER",
      "id" : "10eeb5b0-4cc2-11ee-ac5a-edd33deef9c1"
    },
    "id" : {
      "entityType" : "CUSTOMER",
      "id" : "10eeb5b0-4cc2-11ee-ac5a-edd33deef9c1"
    },
    "name" : "Asti Cuneo",
    "phone" : null,
    "state" : null,
    "title" : "Asti Cuneo",
    "zip" : null
  },
  "relations" : [ ],
  "attributes" : {
    "SERVER_SCOPE" : [ ]
  }
}