{
  "entityType" : "DEVICE",
  "entity" : {
    "additionalInfo" : {
      "lastConnectedGateway" : "c845da10-c9a2-11ee-9bae-8b2ec629601c"
    },
    "customerId" : {
      "entityType" : "CUSTOMER",
      "id" : "13814000-1dd2-11b2-8080-808080808080"
    },
    "deviceData" : {
      "configuration" : {
        "type" : "DEFAULT"
      },
      "transportConfiguration" : {
        "type" : "DEFAULT"
      }
    },
    "deviceProfileId" : {
      "entityType" : "DEVICE_PROFILE",
      "id" : "196dbb00-5d07-11ee-bd48-b70fa5f76abc"
    },
    "externalId" : null,
    "firmwareId" : null,
    "id" : {
      "entityType" : "DEVICE",
      "id" : "0cf460b0-c9c0-11ee-8b99-ef98cf4316a7"
    },
    "label" : null,
    "name" : "S2.2.2",
    "softwareId" : null,
    "type" : "Accelerometer"
  },
  "credentials" : {
    "credentialsId" : "QREjemv9BkiYo1Bw9CcZ",
    "credentialsType" : "ACCESS_TOKEN",
    "credentialsValue" : null
  },
  "relations" : [ ],
  "attributes" : {
    "SERVER_SCOPE" : [ {
      "booleanValue" : false,
      "doubleValue" : null,
      "jsonValue" : null,
      "key" : "active",
      "lastUpdateTs" : 1708330743754,
      "longValue" : null,
      "strValue" : null
    }, {
      "booleanValue" : null,
      "doubleValue" : null,
      "jsonValue" : null,
      "key" : "inactivityAlarmTime",
      "lastUpdateTs" : 1708330743754,
      "longValue" : 1708330743753,
      "strValue" : null
    }, {
      "booleanValue" : null,
      "doubleValue" : null,
      "jsonValue" : null,
      "key" : "lastActivityTime",
      "lastUpdateTs" : 1708330586400,
      "longValue" : 1708330585602,
      "strValue" : null
    }, {
      "booleanValue" : null,
      "doubleValue" : null,
      "jsonValue" : null,
      "key" : "lastConnectTime",
      "lastUpdateTs" : 1708330569032,
      "longValue" : 1708330569032,
      "strValue" : null
    }, {
      "booleanValue" : null,
      "doubleValue" : null,
      "jsonValue" : null,
      "key" : "lastDisconnectTime",
      "lastUpdateTs" : 1708330585621,
      "longValue" : 1708330585621,
      "strValue" : null
    } ],
    "SHARED_SCOPE" : [ {
      "booleanValue" : null,
      "doubleValue" : 7.4418E-5,
      "jsonValue" : null,
      "key" : "A",
      "lastUpdateTs" : 1707904039906,
      "longValue" : null,
      "strValue" : null
    }, {
      "booleanValue" : null,
      "doubleValue" : -1.1328E-6,
      "jsonValue" : null,
      "key" : "B",
      "lastUpdateTs" : 1707904039906,
      "longValue" : null,
      "strValue" : null
    }, {
      "booleanValue" : null,
      "doubleValue" : null,
      "jsonValue" : null,
      "key" : "C",
      "lastUpdateTs" : 1707904039906,
      "longValue" : null,
      "strValue" : " +0.0000000291 "
    }, {
      "booleanValue" : null,
      "doubleValue" : -1.1402E-6,
      "jsonValue" : null,
      "key" : "D",
      "lastUpdateTs" : 1707904039906,
      "longValue" : null,
      "strValue" : null
    }, {
      "booleanValue" : null,
      "doubleValue" : 7.67731E-5,
      "jsonValue" : null,
      "key" : "E",
      "lastUpdateTs" : 1707904039906,
      "longValue" : null,
      "strValue" : null
    }, {
      "booleanValue" : null,
      "doubleValue" : -2.817E-7,
      "jsonValue" : null,
      "key" : "F",
      "lastUpdateTs" : 1707904039906,
      "longValue" : null,
      "strValue" : null
    }, {
      "booleanValue" : null,
      "doubleValue" : -9.65E-8,
      "jsonValue" : null,
      "key" : "G",
      "lastUpdateTs" : 1707904039906,
      "longValue" : null,
      "strValue" : null
    }, {
      "booleanValue" : null,
      "doubleValue" : -5.37E-8,
      "jsonValue" : null,
      "key" : "H",
      "lastUpdateTs" : 1707904039906,
      "longValue" : null,
      "strValue" : null
    }, {
      "booleanValue" : null,
      "doubleValue" : null,
      "jsonValue" : null,
      "key" : "I",
      "lastUpdateTs" : 1707904039906,
      "longValue" : null,
      "strValue" : " +0.0000766262"
    }, {
      "booleanValue" : null,
      "doubleValue" : 0.0133785492,
      "jsonValue" : null,
      "key" : "Xoff",
      "lastUpdateTs" : 1707904039906,
      "longValue" : null,
      "strValue" : null
    }, {
      "booleanValue" : null,
      "doubleValue" : -0.0024803499,
      "jsonValue" : null,
      "key" : "Yoff",
      "lastUpdateTs" : 1707904039906,
      "longValue" : null,
      "strValue" : null
    }, {
      "booleanValue" : null,
      "doubleValue" : -0.0353387141,
      "jsonValue" : null,
      "key" : "Zoff",
      "lastUpdateTs" : 1707904039906,
      "longValue" : null,
      "strValue" : null
    } ]
  }
}