{
  "entityType" : "DEVICE",
  "entity" : {
    "additionalInfo" : {
      "lastConnectedGateway" : "c845da10-c9a2-11ee-9bae-8b2ec629601c"
    },
    "customerId" : {
      "entityType" : "CUSTOMER",
      "id" : "13814000-1dd2-11b2-8080-808080808080"
    },
    "deviceData" : {
      "configuration" : {
        "type" : "DEFAULT"
      },
      "transportConfiguration" : {
        "type" : "DEFAULT"
      }
    },
    "deviceProfileId" : {
      "entityType" : "DEVICE_PROFILE",
      "id" : "196dbb00-5d07-11ee-bd48-b70fa5f76abc"
    },
    "externalId" : null,
    "firmwareId" : null,
    "id" : {
      "entityType" : "DEVICE",
      "id" : "0d059ec0-c9c0-11ee-8b99-ef98cf4316a7"
    },
    "label" : null,
    "name" : "C2.2.1",
    "softwareId" : null,
    "type" : "Accelerometer"
  },
  "credentials" : {
    "credentialsId" : "iqBxvLr0kPcMhmW2ed2W",
    "credentialsType" : "ACCESS_TOKEN",
    "credentialsValue" : null
  },
  "relations" : [ {
    "additionalInfo" : null,
    "from" : {
      "entityType" : "ASSET",
      "id" : "dad60eb0-b47c-11ee-8ec6-3d74b061a9fa"
    },
    "to" : {
      "entityType" : "DEVICE",
      "id" : "0d059ec0-c9c0-11ee-8b99-ef98cf4316a7"
    },
    "type" : "Contains",
    "typeGroup" : "COMMON"
  } ],
  "attributes" : {
    "SERVER_SCOPE" : [ {
      "booleanValue" : false,
      "doubleValue" : null,
      "jsonValue" : null,
      "key" : "active",
      "lastUpdateTs" : 1708330743754,
      "longValue" : null,
      "strValue" : null
    }, {
      "booleanValue" : null,
      "doubleValue" : null,
      "jsonValue" : null,
      "key" : "inactivityAlarmTime",
      "lastUpdateTs" : 1708330743754,
      "longValue" : 1708330743753,
      "strValue" : null
    }, {
      "booleanValue" : null,
      "doubleValue" : null,
      "jsonValue" : null,
      "key" : "lastActivityTime",
      "lastUpdateTs" : 1708330586400,
      "longValue" : 1708330585602,
      "strValue" : null
    }, {
      "booleanValue" : null,
      "doubleValue" : null,
      "jsonValue" : null,
      "key" : "lastConnectTime",
      "lastUpdateTs" : 1708330568808,
      "longValue" : 1708330568808,
      "strValue" : null
    }, {
      "booleanValue" : null,
      "doubleValue" : null,
      "jsonValue" : null,
      "key" : "lastDisconnectTime",
      "lastUpdateTs" : 1708330585621,
      "longValue" : 1708330585621,
      "strValue" : null
    }, {
      "booleanValue" : null,
      "doubleValue" : null,
      "jsonValue" : null,
      "key" : "x",
      "lastUpdateTs" : 1708961160235,
      "longValue" : 5,
      "strValue" : null
    }, {
      "booleanValue" : null,
      "doubleValue" : null,
      "jsonValue" : null,
      "key" : "y",
      "lastUpdateTs" : 1708961160235,
      "longValue" : 4,
      "strValue" : null
    }, {
      "booleanValue" : null,
      "doubleValue" : null,
      "jsonValue" : null,
      "key" : "z",
      "lastUpdateTs" : 1708961160235,
      "longValue" : 5,
      "strValue" : null
    } ],
    "SHARED_SCOPE" : [ {
      "booleanValue" : null,
      "doubleValue" : 7.51059E-5,
      "jsonValue" : null,
      "key" : "A",
      "lastUpdateTs" : 1707904039991,
      "longValue" : null,
      "strValue" : null
    }, {
      "booleanValue" : null,
      "doubleValue" : -1.5188E-6,
      "jsonValue" : null,
      "key" : "B",
      "lastUpdateTs" : 1707904039991,
      "longValue" : null,
      "strValue" : null
    }, {
      "booleanValue" : null,
      "doubleValue" : -2.471E-7,
      "jsonValue" : null,
      "key" : "C",
      "lastUpdateTs" : 1707904039991,
      "longValue" : null,
      "strValue" : null
    }, {
      "booleanValue" : null,
      "doubleValue" : -1.0856E-6,
      "jsonValue" : null,
      "key" : "D",
      "lastUpdateTs" : 1707904039991,
      "longValue" : null,
      "strValue" : null
    }, {
      "booleanValue" : null,
      "doubleValue" : 7.63341E-5,
      "jsonValue" : null,
      "key" : "E",
      "lastUpdateTs" : 1707904039991,
      "longValue" : null,
      "strValue" : null
    }, {
      "booleanValue" : null,
      "doubleValue" : 4.77E-7,
      "jsonValue" : null,
      "key" : "F",
      "lastUpdateTs" : 1707904039991,
      "longValue" : null,
      "strValue" : null
    }, {
      "booleanValue" : null,
      "doubleValue" : 2.05E-7,
      "jsonValue" : null,
      "key" : "G",
      "lastUpdateTs" : 1707904039991,
      "longValue" : null,
      "strValue" : null
    }, {
      "booleanValue" : null,
      "doubleValue" : -6.185E-7,
      "jsonValue" : null,
      "key" : "H",
      "lastUpdateTs" : 1707904039991,
      "longValue" : null,
      "strValue" : null
    }, {
      "booleanValue" : null,
      "doubleValue" : 7.52096E-5,
      "jsonValue" : null,
      "key" : "I",
      "lastUpdateTs" : 1707904039991,
      "longValue" : null,
      "strValue" : null
    }, {
      "booleanValue" : null,
      "doubleValue" : -0.0020150231,
      "jsonValue" : null,
      "key" : "Xoff",
      "lastUpdateTs" : 1707904039991,
      "longValue" : null,
      "strValue" : null
    }, {
      "booleanValue" : null,
      "doubleValue" : -0.0032901898,
      "jsonValue" : null,
      "key" : "Yoff",
      "lastUpdateTs" : 1707904039991,
      "longValue" : null,
      "strValue" : null
    }, {
      "booleanValue" : null,
      "doubleValue" : -0.0367104995,
      "jsonValue" : null,
      "key" : "Zoff",
      "lastUpdateTs" : 1707904039991,
      "longValue" : null,
      "strValue" : null
    } ]
  }
}