{
  "entityType" : "DEVICE",
  "entity" : {
    "additionalInfo" : {
      "lastConnectedGateway" : "c845da10-c9a2-11ee-9bae-8b2ec629601c"
    },
    "customerId" : {
      "entityType" : "CUSTOMER",
      "id" : "13814000-1dd2-11b2-8080-808080808080"
    },
    "deviceData" : {
      "configuration" : {
        "type" : "DEFAULT"
      },
      "transportConfiguration" : {
        "type" : "DEFAULT"
      }
    },
    "deviceProfileId" : {
      "entityType" : "DEVICE_PROFILE",
      "id" : "196dbb00-5d07-11ee-bd48-b70fa5f76abc"
    },
    "externalId" : null,
    "firmwareId" : null,
    "id" : {
      "entityType" : "DEVICE",
      "id" : "0d199bf0-c9c0-11ee-8b99-ef98cf4316a7"
    },
    "label" : "",
    "name" : "C1.1.1",
    "softwareId" : null,
    "type" : "Accelerometer"
  },
  "credentials" : {
    "credentialsId" : "2mXGW2zcLkA5o2ns4zAn",
    "credentialsType" : "ACCESS_TOKEN",
    "credentialsValue" : null
  },
  "relations" : [ {
    "additionalInfo" : null,
    "from" : {
      "entityType" : "ASSET",
      "id" : "dad60eb0-b47c-11ee-8ec6-3d74b061a9fa"
    },
    "to" : {
      "entityType" : "DEVICE",
      "id" : "0d199bf0-c9c0-11ee-8b99-ef98cf4316a7"
    },
    "type" : "Contains",
    "typeGroup" : "COMMON"
  }, {
    "additionalInfo" : null,
    "from" : {
      "entityType" : "ASSET",
      "id" : "1bd83841-7335-11ee-8da2-79910a8e5f70"
    },
    "to" : {
      "entityType" : "DEVICE",
      "id" : "0d199bf0-c9c0-11ee-8b99-ef98cf4316a7"
    },
    "type" : "Contains",
    "typeGroup" : "COMMON"
  } ],
  "attributes" : {
    "SERVER_SCOPE" : [ {
      "booleanValue" : false,
      "doubleValue" : null,
      "jsonValue" : null,
      "key" : "active",
      "lastUpdateTs" : 1708330743753,
      "longValue" : null,
      "strValue" : null
    }, {
      "booleanValue" : null,
      "doubleValue" : null,
      "jsonValue" : null,
      "key" : "inactivityAlarmTime",
      "lastUpdateTs" : 1708330743753,
      "longValue" : 1708330743753,
      "strValue" : null
    }, {
      "booleanValue" : null,
      "doubleValue" : null,
      "jsonValue" : null,
      "key" : "lastActivityTime",
      "lastUpdateTs" : 1708330586400,
      "longValue" : 1708330585602,
      "strValue" : null
    }, {
      "booleanValue" : null,
      "doubleValue" : null,
      "jsonValue" : null,
      "key" : "lastConnectTime",
      "lastUpdateTs" : 1708330568778,
      "longValue" : 1708330568778,
      "strValue" : null
    }, {
      "booleanValue" : null,
      "doubleValue" : null,
      "jsonValue" : null,
      "key" : "lastDisconnectTime",
      "lastUpdateTs" : 1708330585621,
      "longValue" : 1708330585621,
      "strValue" : null
    }, {
      "booleanValue" : null,
      "doubleValue" : null,
      "jsonValue" : null,
      "key" : "x",
      "lastUpdateTs" : 1718787306759,
      "longValue" : 12,
      "strValue" : null
    }, {
      "booleanValue" : null,
      "doubleValue" : null,
      "jsonValue" : null,
      "key" : "y",
      "lastUpdateTs" : 1718787244246,
      "longValue" : 12,
      "strValue" : null
    }, {
      "booleanValue" : null,
      "doubleValue" : null,
      "jsonValue" : null,
      "key" : "z",
      "lastUpdateTs" : 1718787500502,
      "longValue" : 14,
      "strValue" : null
    } ],
    "SHARED_SCOPE" : [ {
      "booleanValue" : null,
      "doubleValue" : 7.50881E-5,
      "jsonValue" : null,
      "key" : "A",
      "lastUpdateTs" : 1707904040040,
      "longValue" : null,
      "strValue" : null
    }, {
      "booleanValue" : null,
      "doubleValue" : -1.0481E-6,
      "jsonValue" : null,
      "key" : "B",
      "lastUpdateTs" : 1707904040040,
      "longValue" : null,
      "strValue" : null
    }, {
      "booleanValue" : null,
      "doubleValue" : -7.24E-8,
      "jsonValue" : null,
      "key" : "C",
      "lastUpdateTs" : 1707904040040,
      "longValue" : null,
      "strValue" : null
    }, {
      "booleanValue" : null,
      "doubleValue" : -1.2645E-6,
      "jsonValue" : null,
      "key" : "D",
      "lastUpdateTs" : 1707904040040,
      "longValue" : null,
      "strValue" : null
    }, {
      "booleanValue" : null,
      "doubleValue" : 7.74843E-5,
      "jsonValue" : null,
      "key" : "E",
      "lastUpdateTs" : 1707904040040,
      "longValue" : null,
      "strValue" : null
    }, {
      "booleanValue" : null,
      "doubleValue" : 5.328E-7,
      "jsonValue" : null,
      "key" : "F",
      "lastUpdateTs" : 1707904040040,
      "longValue" : null,
      "strValue" : null
    }, {
      "booleanValue" : null,
      "doubleValue" : 1.075E-7,
      "jsonValue" : null,
      "key" : "G",
      "lastUpdateTs" : 1707904040040,
      "longValue" : null,
      "strValue" : null
    }, {
      "booleanValue" : null,
      "doubleValue" : -5.834E-7,
      "jsonValue" : null,
      "key" : "H",
      "lastUpdateTs" : 1707904040040,
      "longValue" : null,
      "strValue" : null
    }, {
      "booleanValue" : null,
      "doubleValue" : 7.48184E-5,
      "jsonValue" : null,
      "key" : "I",
      "lastUpdateTs" : 1707904040040,
      "longValue" : null,
      "strValue" : null
    }, {
      "booleanValue" : null,
      "doubleValue" : -0.0062960302,
      "jsonValue" : null,
      "key" : "Xoff",
      "lastUpdateTs" : 1707904040040,
      "longValue" : null,
      "strValue" : null
    }, {
      "booleanValue" : null,
      "doubleValue" : -0.007382059,
      "jsonValue" : null,
      "key" : "Yoff",
      "lastUpdateTs" : 1707904040040,
      "longValue" : null,
      "strValue" : null
    }, {
      "booleanValue" : null,
      "doubleValue" : -0.0243864604,
      "jsonValue" : null,
      "key" : "Zoff",
      "lastUpdateTs" : 1707904040040,
      "longValue" : null,
      "strValue" : null
    } ]
  }
}