{
  "entityType" : "DEVICE",
  "entity" : {
    "additionalInfo" : {
      "lastConnectedGateway" : "2bdf0eb0-95e6-11ef-8fd8-05f5511a927e"
    },
    "customerId" : {
      "entityType" : "CUSTOMER",
      "id" : "19121880-87c8-11ef-9e51-bd4861d58417"
    },
    "deviceData" : {
      "configuration" : {
        "type" : "DEFAULT"
      },
      "transportConfiguration" : {
        "type" : "DEFAULT"
      }
    },
    "deviceProfileId" : {
      "entityType" : "DEVICE_PROFILE",
      "id" : "196dbb00-5d07-11ee-bd48-b70fa5f76abc"
    },
    "externalId" : null,
    "firmwareId" : null,
    "id" : {
      "entityType" : "DEVICE",
      "id" : "10891580-95ea-11ef-8fd8-05f5511a927e"
    },
    "label" : null,
    "name" : "040512A2",
    "softwareId" : null,
    "type" : "Accelerometer"
  },
  "credentials" : {
    "credentialsId" : "r819FN45XNoB0ai04H51",
    "credentialsType" : "ACCESS_TOKEN",
    "credentialsValue" : null
  },
  "relations" : [ {
    "additionalInfo" : null,
    "from" : {
      "entityType" : "CUSTOMER",
      "id" : "19121880-87c8-11ef-9e51-bd4861d58417"
    },
    "to" : {
      "entityType" : "DEVICE",
      "id" : "10891580-95ea-11ef-8fd8-05f5511a927e"
    },
    "type" : "Owns",
    "typeGroup" : "COMMON"
  }, {
    "additionalInfo" : null,
    "from" : {
      "entityType" : "DEVICE",
      "id" : "2bdf0eb0-95e6-11ef-8fd8-05f5511a927e"
    },
    "to" : {
      "entityType" : "DEVICE",
      "id" : "10891580-95ea-11ef-8fd8-05f5511a927e"
    },
    "type" : "Created",
    "typeGroup" : "COMMON"
  }, {
    "additionalInfo" : null,
    "from" : {
      "entityType" : "ASSET",
      "id" : "64115f31-8af7-11ef-9e51-bd4861d58417"
    },
    "to" : {
      "entityType" : "DEVICE",
      "id" : "10891580-95ea-11ef-8fd8-05f5511a927e"
    },
    "type" : "Contains",
    "typeGroup" : "COMMON"
  } ],
  "attributes" : {
    "SERVER_SCOPE" : [ {
      "booleanValue" : false,
      "doubleValue" : null,
      "jsonValue" : null,
      "key" : "active",
      "lastUpdateTs" : 1730216578145,
      "longValue" : null,
      "strValue" : null
    }, {
      "booleanValue" : null,
      "doubleValue" : null,
      "jsonValue" : null,
      "key" : "inactivityAlarmTime",
      "lastUpdateTs" : 1730216578145,
      "longValue" : 1730216578143,
      "strValue" : null
    }, {
      "booleanValue" : null,
      "doubleValue" : null,
      "jsonValue" : null,
      "key" : "lastActivityTime",
      "lastUpdateTs" : 1730216421979,
      "longValue" : 1730216421979,
      "strValue" : null
    }, {
      "booleanValue" : null,
      "doubleValue" : null,
      "jsonValue" : null,
      "key" : "lastConnectTime",
      "lastUpdateTs" : 1730216421979,
      "longValue" : 1730216421979,
      "strValue" : null
    }, {
      "booleanValue" : null,
      "doubleValue" : null,
      "jsonValue" : null,
      "key" : "lastDisconnectTime",
      "lastUpdateTs" : 1730216724350,
      "longValue" : 1730216724350,
      "strValue" : null
    }, {
      "booleanValue" : null,
      "doubleValue" : null,
      "jsonValue" : null,
      "key" : "state",
      "lastUpdateTs" : 1730208079655,
      "longValue" : null,
      "strValue" : "normal"
    }, {
      "booleanValue" : null,
      "doubleValue" : 0.28627534900552565,
      "jsonValue" : null,
      "key" : "xPos",
      "lastUpdateTs" : 1730222922934,
      "longValue" : null,
      "strValue" : null
    }, {
      "booleanValue" : null,
      "doubleValue" : 0.6777292576419214,
      "jsonValue" : null,
      "key" : "yPos",
      "lastUpdateTs" : 1730218561799,
      "longValue" : null,
      "strValue" : null
    }, {
      "booleanValue" : null,
      "doubleValue" : 0.7256051224317478,
      "jsonValue" : null,
      "key" : "zPos",
      "lastUpdateTs" : 1730222922934,
      "longValue" : null,
      "strValue" : null
    } ],
    "SHARED_SCOPE" : [ ]
  }
}