{
  "entityType" : "DEVICE",
  "entity" : {
    "additionalInfo" : {
      "gateway" : false,
      "overwriteActivityTime" : false,
      "description" : ""
    },
    "customerId" : {
      "entityType" : "CUSTOMER",
      "id" : "58860100-ae05-11ed-b366-dfefa829992c"
    },
    "deviceData" : {
      "configuration" : {
        "type" : "DEFAULT"
      },
      "transportConfiguration" : {
        "type" : "DEFAULT"
      }
    },
    "deviceProfileId" : {
      "entityType" : "DEVICE_PROFILE",
      "id" : "a4a4ca40-9842-11ed-ae3d-232983d77f71"
    },
    "externalId" : {
      "entityType" : "DEVICE",
      "id" : "1dd43530-1c97-11ee-a6f4-378848afe507"
    },
    "firmwareId" : null,
    "id" : {
      "entityType" : "DEVICE",
      "id" : "1dd43530-1c97-11ee-a6f4-378848afe507"
    },
    "label" : "",
    "name" : "Commsigna RSU 162",
    "softwareId" : null,
    "type" : "default"
  },
  "credentials" : {
    "credentialsId" : "tCq12tLcHTWRDU7hKgHq",
    "credentialsType" : "ACCESS_TOKEN",
    "credentialsValue" : null
  },
  "attributes" : {
    "SERVER_SCOPE" : [ {
      "booleanValue" : false,
      "doubleValue" : null,
      "jsonValue" : null,
      "key" : "active",
      "lastUpdateTs" : 1689088120354,
      "longValue" : null,
      "strValue" : null
    }, {
      "booleanValue" : null,
      "doubleValue" : null,
      "jsonValue" : null,
      "key" : "inactivityAlarmTime",
      "lastUpdateTs" : 1689088120354,
      "longValue" : 1689088120354,
      "strValue" : null
    }, {
      "booleanValue" : null,
      "doubleValue" : null,
      "jsonValue" : null,
      "key" : "lastActivityTime",
      "lastUpdateTs" : 1689087943226,
      "longValue" : 1689087943222,
      "strValue" : null
    } ],
    "SHARED_SCOPE" : [ ]
  }
}