{
  "entityType" : "DEVICE",
  "entity" : {
    "additionalInfo" : {
      "gateway" : false,
      "overwriteActivityTime" : false,
      "description" : ""
    },
    "customerId" : {
      "entityType" : "CUSTOMER",
      "id" : "58860100-ae05-11ed-b366-dfefa829992c"
    },
    "deviceData" : {
      "configuration" : {
        "type" : "DEFAULT"
      },
      "transportConfiguration" : {
        "type" : "DEFAULT"
      }
    },
    "deviceProfileId" : {
      "entityType" : "DEVICE_PROFILE",
      "id" : "6285eb70-980b-11ee-b6d4-81d685ab2d2f"
    },
    "externalId" : {
      "entityType" : "DEVICE",
      "id" : "26427d70-5d07-11ee-9b8c-5bee00804d51"
    },
    "firmwareId" : null,
    "id" : {
      "entityType" : "DEVICE",
      "id" : "26427d70-5d07-11ee-9b8c-5bee00804d51"
    },
    "label" : "",
    "name" : "BRIDGE_SENSOR_1",
    "softwareId" : null,
    "type" : "control_chart"
  },
  "credentials" : {
    "credentialsId" : "WXjOZwXWZDy1cc6zgCQs",
    "credentialsType" : "ACCESS_TOKEN",
    "credentialsValue" : null
  },
  "attributes" : {
    "SERVER_SCOPE" : [ {
      "booleanValue" : false,
      "doubleValue" : null,
      "jsonValue" : null,
      "key" : "active",
      "lastUpdateTs" : 1700648307115,
      "longValue" : null,
      "strValue" : null
    }, {
      "booleanValue" : null,
      "doubleValue" : null,
      "jsonValue" : "[\"datetime\",{\"deviceName\":\"C3.2.1\",\"channel\":[\"humidity\",\"x\",\"y\"]}]",
      "key" : "channel",
      "lastUpdateTs" : 1703258920258,
      "longValue" : null,
      "strValue" : null
    }, {
      "booleanValue" : null,
      "doubleValue" : null,
      "jsonValue" : null,
      "key" : "inactivityAlarmTime",
      "lastUpdateTs" : 1700648307115,
      "longValue" : 1700648307114,
      "strValue" : null
    }, {
      "booleanValue" : null,
      "doubleValue" : null,
      "jsonValue" : null,
      "key" : "lastActivityTime",
      "lastUpdateTs" : 1700648139326,
      "longValue" : 1700648139307,
      "strValue" : null
    }, {
      "booleanValue" : null,
      "doubleValue" : null,
      "jsonValue" : null,
      "key" : "x",
      "lastUpdateTs" : 1702541719549,
      "longValue" : 1,
      "strValue" : null
    }, {
      "booleanValue" : null,
      "doubleValue" : null,
      "jsonValue" : null,
      "key" : "y",
      "lastUpdateTs" : 1702541719549,
      "longValue" : 1,
      "strValue" : null
    }, {
      "booleanValue" : null,
      "doubleValue" : null,
      "jsonValue" : null,
      "key" : "z",
      "lastUpdateTs" : 1702541719549,
      "longValue" : 1,
      "strValue" : null
    } ],
    "SHARED_SCOPE" : [ ]
  }
}