{
  "entityType" : "DEVICE",
  "entity" : {
    "additionalInfo" : {
      "gateway" : false,
      "overwriteActivityTime" : false,
      "description" : ""
    },
    "customerId" : {
      "entityType" : "CUSTOMER",
      "id" : "13814000-1dd2-11b2-8080-808080808080"
    },
    "deviceData" : {
      "configuration" : {
        "type" : "DEFAULT"
      },
      "transportConfiguration" : {
        "type" : "DEFAULT"
      }
    },
    "deviceProfileId" : {
      "entityType" : "DEVICE_PROFILE",
      "id" : "196dbb00-5d07-11ee-bd48-b70fa5f76abc"
    },
    "externalId" : null,
    "firmwareId" : null,
    "id" : {
      "entityType" : "DEVICE",
      "id" : "2c216630-fb17-11ee-9795-0be0db08e426"
    },
    "label" : "",
    "name" : "AM-038",
    "softwareId" : null,
    "type" : "Accelerometer"
  },
  "credentials" : {
    "credentialsId" : "ikNx5XFLauGy2nqcFdws",
    "credentialsType" : "ACCESS_TOKEN",
    "credentialsValue" : null
  },
  "relations" : [ {
    "additionalInfo" : null,
    "from" : {
      "entityType" : "ASSET",
      "id" : "1bcc2a50-7335-11ee-8da2-79910a8e5f70"
    },
    "to" : {
      "entityType" : "DEVICE",
      "id" : "2c216630-fb17-11ee-9795-0be0db08e426"
    },
    "type" : "Contains",
    "typeGroup" : "COMMON"
  }, {
    "additionalInfo" : null,
    "from" : {
      "entityType" : "DEVICE",
      "id" : "5db472a0-fb26-11ee-9795-0be0db08e426"
    },
    "to" : {
      "entityType" : "DEVICE",
      "id" : "2c216630-fb17-11ee-9795-0be0db08e426"
    },
    "type" : "Contains",
    "typeGroup" : "COMMON"
  } ],
  "attributes" : {
    "SERVER_SCOPE" : [ {
      "booleanValue" : false,
      "doubleValue" : null,
      "jsonValue" : null,
      "key" : "active",
      "lastUpdateTs" : 1717061275124,
      "longValue" : null,
      "strValue" : null
    }, {
      "booleanValue" : null,
      "doubleValue" : null,
      "jsonValue" : null,
      "key" : "inactivityAlarmTime",
      "lastUpdateTs" : 1717061275124,
      "longValue" : 1717061275113,
      "strValue" : null
    }, {
      "booleanValue" : null,
      "doubleValue" : null,
      "jsonValue" : null,
      "key" : "lastActivityTime",
      "lastUpdateTs" : 1717061101401,
      "longValue" : 1717061099277,
      "strValue" : null
    }, {
      "booleanValue" : null,
      "doubleValue" : null,
      "jsonValue" : null,
      "key" : "lastConnectTime",
      "lastUpdateTs" : 1717059985227,
      "longValue" : 1717059985226,
      "strValue" : null
    }, {
      "booleanValue" : null,
      "doubleValue" : null,
      "jsonValue" : null,
      "key" : "lastDisconnectTime",
      "lastUpdateTs" : 1717061099293,
      "longValue" : 1717061099293,
      "strValue" : null
    }, {
      "booleanValue" : null,
      "doubleValue" : null,
      "jsonValue" : null,
      "key" : "state",
      "lastUpdateTs" : 1713178743859,
      "longValue" : null,
      "strValue" : "normal"
    }, {
      "booleanValue" : null,
      "doubleValue" : 7.5,
      "jsonValue" : null,
      "key" : "x",
      "lastUpdateTs" : 1713262358776,
      "longValue" : null,
      "strValue" : null
    }, {
      "booleanValue" : null,
      "doubleValue" : null,
      "jsonValue" : null,
      "key" : "x1",
      "lastUpdateTs" : 1713271215847,
      "longValue" : 5,
      "strValue" : null
    }, {
      "booleanValue" : null,
      "doubleValue" : 0.34452941962816713,
      "jsonValue" : null,
      "key" : "xPos",
      "lastUpdateTs" : 1713524176137,
      "longValue" : null,
      "strValue" : null
    }, {
      "booleanValue" : null,
      "doubleValue" : null,
      "jsonValue" : null,
      "key" : "y",
      "lastUpdateTs" : 1713265757171,
      "longValue" : 7,
      "strValue" : null
    }, {
      "booleanValue" : null,
      "doubleValue" : null,
      "jsonValue" : null,
      "key" : "y1",
      "lastUpdateTs" : 1713271222931,
      "longValue" : 5,
      "strValue" : null
    }, {
      "booleanValue" : null,
      "doubleValue" : 0.43777265564002915,
      "jsonValue" : null,
      "key" : "yPos",
      "lastUpdateTs" : 1713524161569,
      "longValue" : null,
      "strValue" : null
    }, {
      "booleanValue" : null,
      "doubleValue" : null,
      "jsonValue" : null,
      "key" : "z",
      "lastUpdateTs" : 1713262358776,
      "longValue" : 3,
      "strValue" : null
    }, {
      "booleanValue" : null,
      "doubleValue" : null,
      "jsonValue" : null,
      "key" : "z1",
      "lastUpdateTs" : 1713271227479,
      "longValue" : 5,
      "strValue" : null
    }, {
      "booleanValue" : null,
      "doubleValue" : 0.36478306144221295,
      "jsonValue" : null,
      "key" : "zPos",
      "lastUpdateTs" : 1713524176137,
      "longValue" : null,
      "strValue" : null
    } ],
    "SHARED_SCOPE" : [ ]
  }
}