{
  "entityType" : "DEVICE",
  "entity" : {
    "additionalInfo" : {
      "lastConnectedGateway" : "fb425280-3b68-11ef-8891-0db6cd2e5de0"
    },
    "customerId" : {
      "entityType" : "CUSTOMER",
      "id" : "13814000-1dd2-11b2-8080-808080808080"
    },
    "deviceData" : {
      "configuration" : {
        "type" : "DEFAULT"
      },
      "transportConfiguration" : {
        "type" : "DEFAULT"
      }
    },
    "deviceProfileId" : {
      "entityType" : "DEVICE_PROFILE",
      "id" : "435d9e20-3a9d-11ef-8891-0db6cd2e5de0"
    },
    "externalId" : null,
    "firmwareId" : null,
    "id" : {
      "entityType" : "DEVICE",
      "id" : "2c49bde5-3c82-11ef-8202-ff4a49371549"
    },
    "label" : null,
    "name" : "Z24_MOD1_0",
    "softwareId" : null,
    "type" : "frequency_tracking"
  },
  "credentials" : {
    "credentialsId" : "Xa2J0wrh3fXUioowdcmr",
    "credentialsType" : "ACCESS_TOKEN",
    "credentialsValue" : null
  },
  "relations" : [ {
    "additionalInfo" : null,
    "from" : {
      "entityType" : "DEVICE",
      "id" : "4fb4ad40-2e35-11ef-8118-c99b59b38ae5"
    },
    "to" : {
      "entityType" : "DEVICE",
      "id" : "2c49bde5-3c82-11ef-8202-ff4a49371549"
    },
    "type" : "contains_frequencies",
    "typeGroup" : "COMMON"
  } ],
  "attributes" : {
    "SERVER_SCOPE" : [ {
      "booleanValue" : false,
      "doubleValue" : null,
      "jsonValue" : null,
      "key" : "active",
      "lastUpdateTs" : 1722585011814,
      "longValue" : null,
      "strValue" : null
    }, {
      "booleanValue" : null,
      "doubleValue" : null,
      "jsonValue" : null,
      "key" : "inactivityAlarmTime",
      "lastUpdateTs" : 1722585011814,
      "longValue" : 1722585011814,
      "strValue" : null
    }, {
      "booleanValue" : null,
      "doubleValue" : null,
      "jsonValue" : null,
      "key" : "lastActivityTime",
      "lastUpdateTs" : 1722584839604,
      "longValue" : 1722584837672,
      "strValue" : null
    }, {
      "booleanValue" : null,
      "doubleValue" : null,
      "jsonValue" : null,
      "key" : "lastConnectTime",
      "lastUpdateTs" : 1722584558750,
      "longValue" : 1722584558750,
      "strValue" : null
    }, {
      "booleanValue" : null,
      "doubleValue" : null,
      "jsonValue" : null,
      "key" : "lastDisconnectTime",
      "lastUpdateTs" : 1722584837693,
      "longValue" : 1722584837693,
      "strValue" : null
    } ],
    "SHARED_SCOPE" : [ ]
  }
}