{
  "entityType" : "DEVICE",
  "entity" : {
    "additionalInfo" : {
      "gateway" : false,
      "overwriteActivityTime" : false,
      "description" : ""
    },
    "customerId" : {
      "entityType" : "CUSTOMER",
      "id" : "13814000-1dd2-11b2-8080-808080808080"
    },
    "deviceData" : {
      "configuration" : {
        "type" : "DEFAULT"
      },
      "transportConfiguration" : {
        "type" : "DEFAULT"
      }
    },
    "deviceProfileId" : {
      "entityType" : "DEVICE_PROFILE",
      "id" : "196dbb00-5d07-11ee-bd48-b70fa5f76abc"
    },
    "externalId" : null,
    "firmwareId" : null,
    "id" : {
      "entityType" : "DEVICE",
      "id" : "36e9eb30-be8d-11ee-bee5-9fcebc70a874"
    },
    "label" : "",
    "name" : "F415_05P1_AT_237",
    "softwareId" : null,
    "type" : "Accelerometer"
  },
  "credentials" : {
    "credentialsId" : "rZgveCkaflxMiU1neOc3",
    "credentialsType" : "ACCESS_TOKEN",
    "credentialsValue" : null
  },
  "relations" : [ {
    "additionalInfo" : null,
    "from" : {
      "entityType" : "ASSET",
      "id" : "f5a6d580-b47c-11ee-8ec6-3d74b061a9fa"
    },
    "to" : {
      "entityType" : "DEVICE",
      "id" : "36e9eb30-be8d-11ee-bee5-9fcebc70a874"
    },
    "type" : "Contains",
    "typeGroup" : "COMMON"
  }, {
    "additionalInfo" : null,
    "from" : {
      "entityType" : "ASSET",
      "id" : "1bda0d00-7335-11ee-8da2-79910a8e5f70"
    },
    "to" : {
      "entityType" : "DEVICE",
      "id" : "36e9eb30-be8d-11ee-bee5-9fcebc70a874"
    },
    "type" : "Contains",
    "typeGroup" : "COMMON"
  } ],
  "attributes" : {
    "SERVER_SCOPE" : [ {
      "booleanValue" : false,
      "doubleValue" : null,
      "jsonValue" : null,
      "key" : "active",
      "lastUpdateTs" : 1706522583302,
      "longValue" : null,
      "strValue" : null
    }, {
      "booleanValue" : null,
      "doubleValue" : null,
      "jsonValue" : null,
      "key" : "inactivityAlarmTime",
      "lastUpdateTs" : 1706522583302,
      "longValue" : 1706522583302,
      "strValue" : null
    }, {
      "booleanValue" : null,
      "doubleValue" : null,
      "jsonValue" : null,
      "key" : "state",
      "lastUpdateTs" : 1706522421712,
      "longValue" : null,
      "strValue" : "normal"
    }, {
      "booleanValue" : null,
      "doubleValue" : null,
      "jsonValue" : null,
      "key" : "x",
      "lastUpdateTs" : 1706602111036,
      "longValue" : 0,
      "strValue" : null
    }, {
      "booleanValue" : null,
      "doubleValue" : 2.5,
      "jsonValue" : null,
      "key" : "y",
      "lastUpdateTs" : 1706602111036,
      "longValue" : null,
      "strValue" : null
    }, {
      "booleanValue" : null,
      "doubleValue" : null,
      "jsonValue" : null,
      "key" : "z",
      "lastUpdateTs" : 1706602111036,
      "longValue" : 0,
      "strValue" : null
    } ],
    "SHARED_SCOPE" : [ ]
  }
}