{
  "entityType" : "DEVICE",
  "entity" : {
    "additionalInfo" : null,
    "customerId" : {
      "entityType" : "CUSTOMER",
      "id" : "13814000-1dd2-11b2-8080-808080808080"
    },
    "deviceData" : {
      "configuration" : {
        "type" : "DEFAULT"
      },
      "transportConfiguration" : {
        "type" : "DEFAULT"
      }
    },
    "deviceProfileId" : {
      "entityType" : "DEVICE_PROFILE",
      "id" : "aef6b770-904d-11ee-a888-1d6093a7ee12"
    },
    "externalId" : null,
    "firmwareId" : null,
    "id" : {
      "entityType" : "DEVICE",
      "id" : "4666ba90-f27f-11ee-9ec1-4f9225c7e944"
    },
    "label" : "",
    "name" : "v1_node",
    "softwareId" : null,
    "type" : "virtual nodes"
  },
  "credentials" : {
    "credentialsId" : "h322ajrEXpB2g2fbk2oR",
    "credentialsType" : "ACCESS_TOKEN",
    "credentialsValue" : null
  },
  "relations" : [ {
    "additionalInfo" : null,
    "from" : {
      "entityType" : "DEVICE",
      "id" : "e15ccce0-f268-11ee-9ec1-4f9225c7e944"
    },
    "to" : {
      "entityType" : "DEVICE",
      "id" : "4666ba90-f27f-11ee-9ec1-4f9225c7e944"
    },
    "type" : "Contains",
    "typeGroup" : "COMMON"
  } ],
  "attributes" : {
    "SERVER_SCOPE" : [ {
      "booleanValue" : false,
      "doubleValue" : null,
      "jsonValue" : null,
      "key" : "active",
      "lastUpdateTs" : 1712234065618,
      "longValue" : null,
      "strValue" : null
    }, {
      "booleanValue" : null,
      "doubleValue" : null,
      "jsonValue" : null,
      "key" : "inactivityAlarmTime",
      "lastUpdateTs" : 1712234065618,
      "longValue" : 1712234065618,
      "strValue" : null
    }, {
      "booleanValue" : null,
      "doubleValue" : null,
      "jsonValue" : null,
      "key" : "x",
      "lastUpdateTs" : 1712234139095,
      "longValue" : 3,
      "strValue" : null
    }, {
      "booleanValue" : null,
      "doubleValue" : null,
      "jsonValue" : null,
      "key" : "y",
      "lastUpdateTs" : 1712234139095,
      "longValue" : 6,
      "strValue" : null
    }, {
      "booleanValue" : null,
      "doubleValue" : null,
      "jsonValue" : null,
      "key" : "z",
      "lastUpdateTs" : 1712234139095,
      "longValue" : 6,
      "strValue" : null
    } ],
    "SHARED_SCOPE" : [ ]
  }
}