{
  "entityType" : "DEVICE",
  "entity" : {
    "additionalInfo" : {
      "gateway" : false,
      "overwriteActivityTime" : false,
      "description" : ""
    },
    "customerId" : {
      "entityType" : "CUSTOMER",
      "id" : "13814000-1dd2-11b2-8080-808080808080"
    },
    "deviceData" : {
      "configuration" : {
        "type" : "DEFAULT"
      },
      "transportConfiguration" : {
        "type" : "DEFAULT"
      }
    },
    "deviceProfileId" : {
      "entityType" : "DEVICE_PROFILE",
      "id" : "5b827e70-2e1e-11ef-8118-c99b59b38ae5"
    },
    "externalId" : null,
    "firmwareId" : null,
    "id" : {
      "entityType" : "DEVICE",
      "id" : "5310cfc0-3d0b-11ef-8202-ff4a49371549"
    },
    "label" : "",
    "name" : "temp_device_case1",
    "softwareId" : null,
    "type" : "temp"
  },
  "credentials" : {
    "credentialsId" : "Czgc9mHXwSY14iysoRlj",
    "credentialsType" : "ACCESS_TOKEN",
    "credentialsValue" : null
  },
  "relations" : [ {
    "additionalInfo" : null,
    "from" : {
      "entityType" : "ASSET",
      "id" : "dad60eb0-b47c-11ee-8ec6-3d74b061a9fa"
    },
    "to" : {
      "entityType" : "DEVICE",
      "id" : "5310cfc0-3d0b-11ef-8202-ff4a49371549"
    },
    "type" : "Contains",
    "typeGroup" : "COMMON"
  }, {
    "additionalInfo" : {
      "type" : "tempSensor"
    },
    "from" : {
      "entityType" : "DEVICE",
      "id" : "e15ccce0-f268-11ee-9ec1-4f9225c7e944"
    },
    "to" : {
      "entityType" : "DEVICE",
      "id" : "5310cfc0-3d0b-11ef-8202-ff4a49371549"
    },
    "type" : "Contains",
    "typeGroup" : "COMMON"
  } ],
  "attributes" : {
    "SERVER_SCOPE" : [ {
      "booleanValue" : false,
      "doubleValue" : null,
      "jsonValue" : null,
      "key" : "active",
      "lastUpdateTs" : 1720430562914,
      "longValue" : null,
      "strValue" : null
    }, {
      "booleanValue" : null,
      "doubleValue" : null,
      "jsonValue" : null,
      "key" : "inactivityAlarmTime",
      "lastUpdateTs" : 1720430562915,
      "longValue" : 1720430562914,
      "strValue" : null
    }, {
      "booleanValue" : null,
      "doubleValue" : null,
      "jsonValue" : null,
      "key" : "x",
      "lastUpdateTs" : 1720430645138,
      "longValue" : 3,
      "strValue" : null
    }, {
      "booleanValue" : null,
      "doubleValue" : null,
      "jsonValue" : null,
      "key" : "y",
      "lastUpdateTs" : 1720430645138,
      "longValue" : 4,
      "strValue" : null
    }, {
      "booleanValue" : null,
      "doubleValue" : null,
      "jsonValue" : null,
      "key" : "z",
      "lastUpdateTs" : 1720430645138,
      "longValue" : 2,
      "strValue" : null
    } ],
    "SHARED_SCOPE" : [ ]
  }
}