{
  "entityType" : "DEVICE",
  "entity" : {
    "additionalInfo" : {
      "lastConnectedGateway" : "2bdf0eb0-95e6-11ef-8fd8-05f5511a927e"
    },
    "customerId" : {
      "entityType" : "CUSTOMER",
      "id" : "13814000-1dd2-11b2-8080-808080808080"
    },
    "deviceData" : {
      "configuration" : {
        "type" : "DEFAULT"
      },
      "transportConfiguration" : {
        "type" : "DEFAULT"
      }
    },
    "deviceProfileId" : {
      "entityType" : "DEVICE_PROFILE",
      "id" : "e69b7f20-8a03-11ef-9e51-bd4861d58417"
    },
    "externalId" : null,
    "firmwareId" : null,
    "id" : {
      "entityType" : "DEVICE",
      "id" : "585a22c0-9610-11ef-8fd8-05f5511a927e"
    },
    "label" : null,
    "name" : "02404460",
    "softwareId" : null,
    "type" : "Displacement"
  },
  "credentials" : {
    "credentialsId" : "S1PSX6mQJM3eP03hf10x",
    "credentialsType" : "ACCESS_TOKEN",
    "credentialsValue" : null
  },
  "relations" : [ {
    "additionalInfo" : null,
    "from" : {
      "entityType" : "DEVICE",
      "id" : "2bdf0eb0-95e6-11ef-8fd8-05f5511a927e"
    },
    "to" : {
      "entityType" : "DEVICE",
      "id" : "585a22c0-9610-11ef-8fd8-05f5511a927e"
    },
    "type" : "Created",
    "typeGroup" : "COMMON"
  }, {
    "additionalInfo" : null,
    "from" : {
      "entityType" : "ASSET",
      "id" : "6412e5d0-8af7-11ef-9e51-bd4861d58417"
    },
    "to" : {
      "entityType" : "DEVICE",
      "id" : "585a22c0-9610-11ef-8fd8-05f5511a927e"
    },
    "type" : "Contains",
    "typeGroup" : "COMMON"
  } ],
  "attributes" : {
    "SERVER_SCOPE" : [ {
      "booleanValue" : false,
      "doubleValue" : null,
      "jsonValue" : null,
      "key" : "active",
      "lastUpdateTs" : 1730240038233,
      "longValue" : null,
      "strValue" : null
    }, {
      "booleanValue" : null,
      "doubleValue" : null,
      "jsonValue" : null,
      "key" : "inactivityAlarmTime",
      "lastUpdateTs" : 1730240038233,
      "longValue" : 1730240038232,
      "strValue" : null
    }, {
      "booleanValue" : null,
      "doubleValue" : null,
      "jsonValue" : null,
      "key" : "lastActivityTime",
      "lastUpdateTs" : 1730239863361,
      "longValue" : 1730239860638,
      "strValue" : null
    }, {
      "booleanValue" : null,
      "doubleValue" : null,
      "jsonValue" : null,
      "key" : "lastConnectTime",
      "lastUpdateTs" : 1730239837107,
      "longValue" : 1730239837107,
      "strValue" : null
    }, {
      "booleanValue" : null,
      "doubleValue" : null,
      "jsonValue" : null,
      "key" : "lastDisconnectTime",
      "lastUpdateTs" : 1730239860650,
      "longValue" : 1730239860650,
      "strValue" : null
    } ],
    "SHARED_SCOPE" : [ ]
  }
}