{
  "entityType" : "DEVICE",
  "entity" : {
    "additionalInfo" : {
      "lastConnectedGateway" : "40f96470-2e1d-11ef-8118-c99b59b38ae5"
    },
    "customerId" : {
      "entityType" : "CUSTOMER",
      "id" : "13814000-1dd2-11b2-8080-808080808080"
    },
    "deviceData" : {
      "configuration" : {
        "type" : "DEFAULT"
      },
      "transportConfiguration" : {
        "type" : "DEFAULT"
      }
    },
    "deviceProfileId" : {
      "entityType" : "DEVICE_PROFILE",
      "id" : "196dbb00-5d07-11ee-bd48-b70fa5f76abc"
    },
    "externalId" : null,
    "firmwareId" : null,
    "id" : {
      "entityType" : "DEVICE",
      "id" : "5b878780-2e1e-11ef-8118-c99b59b38ae5"
    },
    "label" : "",
    "name" : "14_z24",
    "softwareId" : null,
    "type" : "Accelerometer"
  },
  "credentials" : {
    "credentialsId" : "HYqPKBDq7w2sx0kd1rvu",
    "credentialsType" : "ACCESS_TOKEN",
    "credentialsValue" : null
  },
  "relations" : [ {
    "additionalInfo" : null,
    "from" : {
      "entityType" : "DEVICE",
      "id" : "2ca8e600-3b9f-11ef-be47-55827d6c86f3"
    },
    "to" : {
      "entityType" : "DEVICE",
      "id" : "5b878780-2e1e-11ef-8118-c99b59b38ae5"
    },
    "type" : "Contains",
    "typeGroup" : "COMMON"
  }, {
    "additionalInfo" : null,
    "from" : {
      "entityType" : "ASSET",
      "id" : "3500d460-2e21-11ef-8118-c99b59b38ae5"
    },
    "to" : {
      "entityType" : "DEVICE",
      "id" : "5b878780-2e1e-11ef-8118-c99b59b38ae5"
    },
    "type" : "Contains",
    "typeGroup" : "COMMON"
  }, {
    "additionalInfo" : null,
    "from" : {
      "entityType" : "DEVICE",
      "id" : "4fb4ad40-2e35-11ef-8118-c99b59b38ae5"
    },
    "to" : {
      "entityType" : "DEVICE",
      "id" : "5b878780-2e1e-11ef-8118-c99b59b38ae5"
    },
    "type" : "Contains",
    "typeGroup" : "COMMON"
  } ],
  "attributes" : {
    "SERVER_SCOPE" : [ {
      "booleanValue" : false,
      "doubleValue" : null,
      "jsonValue" : null,
      "key" : "active",
      "lastUpdateTs" : 1718789504268,
      "longValue" : null,
      "strValue" : null
    }, {
      "booleanValue" : null,
      "doubleValue" : null,
      "jsonValue" : null,
      "key" : "inactivityAlarmTime",
      "lastUpdateTs" : 1718789504268,
      "longValue" : 1718789504267,
      "strValue" : null
    }, {
      "booleanValue" : null,
      "doubleValue" : null,
      "jsonValue" : null,
      "key" : "lastActivityTime",
      "lastUpdateTs" : 1718789354046,
      "longValue" : 1718789353893,
      "strValue" : null
    }, {
      "booleanValue" : null,
      "doubleValue" : null,
      "jsonValue" : null,
      "key" : "lastConnectTime",
      "lastUpdateTs" : 1718789339224,
      "longValue" : 1718789339224,
      "strValue" : null
    }, {
      "booleanValue" : null,
      "doubleValue" : null,
      "jsonValue" : null,
      "key" : "lastDisconnectTime",
      "lastUpdateTs" : 1718789353895,
      "longValue" : 1718789353894,
      "strValue" : null
    }, {
      "booleanValue" : null,
      "doubleValue" : null,
      "jsonValue" : null,
      "key" : "state",
      "lastUpdateTs" : 1718800626162,
      "longValue" : null,
      "strValue" : "major"
    }, {
      "booleanValue" : null,
      "doubleValue" : null,
      "jsonValue" : null,
      "key" : "x",
      "lastUpdateTs" : 1721289311590,
      "longValue" : 2,
      "strValue" : null
    }, {
      "booleanValue" : null,
      "doubleValue" : 0.9088122195117411,
      "jsonValue" : null,
      "key" : "xPos",
      "lastUpdateTs" : 1718892024390,
      "longValue" : null,
      "strValue" : null
    }, {
      "booleanValue" : null,
      "doubleValue" : null,
      "jsonValue" : null,
      "key" : "y",
      "lastUpdateTs" : 1721289311590,
      "longValue" : 0,
      "strValue" : null
    }, {
      "booleanValue" : null,
      "doubleValue" : 0.294478527607362,
      "jsonValue" : null,
      "key" : "yPos",
      "lastUpdateTs" : 1718800704898,
      "longValue" : null,
      "strValue" : null
    }, {
      "booleanValue" : null,
      "doubleValue" : null,
      "jsonValue" : null,
      "key" : "z",
      "lastUpdateTs" : 1721289311590,
      "longValue" : 0,
      "strValue" : null
    }, {
      "booleanValue" : null,
      "doubleValue" : 0.40549965326938076,
      "jsonValue" : null,
      "key" : "zPos",
      "lastUpdateTs" : 1718892024390,
      "longValue" : null,
      "strValue" : null
    } ],
    "SHARED_SCOPE" : [ ]
  }
}