{
  "entityType" : "DEVICE",
  "entity" : {
    "additionalInfo" : {
      "lastConnectedGateway" : "d70a0590-8919-11ee-9bab-356d01dae18e"
    },
    "customerId" : {
      "entityType" : "CUSTOMER",
      "id" : "13814000-1dd2-11b2-8080-808080808080"
    },
    "deviceData" : {
      "configuration" : {
        "type" : "DEFAULT"
      },
      "transportConfiguration" : {
        "type" : "DEFAULT"
      }
    },
    "deviceProfileId" : {
      "entityType" : "DEVICE_PROFILE",
      "id" : "ddb6cd90-77cd-11ee-a573-172a852c61ec"
    },
    "externalId" : {
      "entityType" : "DEVICE",
      "id" : "5eeb9f30-9501-11ee-bce9-4d898643d326"
    },
    "firmwareId" : null,
    "id" : {
      "entityType" : "DEVICE",
      "id" : "5eeb9f30-9501-11ee-bce9-4d898643d326"
    },
    "label" : null,
    "name" : "scenario_test_device_3_PbMwjvPFvkwzqzr",
    "softwareId" : null,
    "type" : "Scenarios"
  },
  "credentials" : {
    "credentialsId" : "wjGkqSihOXyILBmnJtQy",
    "credentialsType" : "ACCESS_TOKEN",
    "credentialsValue" : null
  },
  "attributes" : {
    "SERVER_SCOPE" : [ {
      "booleanValue" : false,
      "doubleValue" : null,
      "jsonValue" : null,
      "key" : "active",
      "lastUpdateTs" : 1701954501721,
      "longValue" : null,
      "strValue" : null
    }, {
      "booleanValue" : null,
      "doubleValue" : null,
      "jsonValue" : null,
      "key" : "inactivityAlarmTime",
      "lastUpdateTs" : 1701954501721,
      "longValue" : 1701954501721,
      "strValue" : null
    }, {
      "booleanValue" : null,
      "doubleValue" : null,
      "jsonValue" : null,
      "key" : "lastActivityTime",
      "lastUpdateTs" : 1701954362478,
      "longValue" : 1701954362465,
      "strValue" : null
    } ],
    "SHARED_SCOPE" : [ ]
  }
}