{
  "entityType" : "DEVICE",
  "entity" : {
    "additionalInfo" : null,
    "customerId" : {
      "entityType" : "CUSTOMER",
      "id" : "13814000-1dd2-11b2-8080-808080808080"
    },
    "deviceData" : {
      "configuration" : {
        "type" : "DEFAULT"
      },
      "transportConfiguration" : {
        "type" : "DEFAULT"
      }
    },
    "deviceProfileId" : {
      "entityType" : "DEVICE_PROFILE",
      "id" : "368608c0-980b-11ee-b6d4-81d685ab2d2f"
    },
    "externalId" : {
      "entityType" : "DEVICE",
      "id" : "649f3cf0-a0bb-11ee-8e3a-a944b73841e6"
    },
    "firmwareId" : null,
    "id" : {
      "entityType" : "DEVICE",
      "id" : "649f3cf0-a0bb-11ee-8e3a-a944b73841e6"
    },
    "label" : "",
    "name" : "new_scenario_test",
    "softwareId" : null,
    "type" : "oma_cov_ssi"
  },
  "credentials" : {
    "credentialsId" : "8BznUapy3YUavdjn3oY7",
    "credentialsType" : "ACCESS_TOKEN",
    "credentialsValue" : null
  },
  "attributes" : {
    "SERVER_SCOPE" : [ {
      "booleanValue" : false,
      "doubleValue" : null,
      "jsonValue" : null,
      "key" : "active",
      "lastUpdateTs" : 1703243890890,
      "longValue" : null,
      "strValue" : null
    }, {
      "booleanValue" : null,
      "doubleValue" : null,
      "jsonValue" : "[{\"deviceName\":\"C2.1.1\",\"channel\":[\"temperature\",\"humidity\",\"x\",\"y\"]}]",
      "key" : "channel",
      "lastUpdateTs" : 1704709755419,
      "longValue" : null,
      "strValue" : null
    }, {
      "booleanValue" : null,
      "doubleValue" : null,
      "jsonValue" : null,
      "key" : "inactivityAlarmTime",
      "lastUpdateTs" : 1703243890890,
      "longValue" : 1703243890890,
      "strValue" : null
    } ],
    "SHARED_SCOPE" : [ ]
  }
}