{
  "entityType" : "DEVICE",
  "entity" : {
    "additionalInfo" : {
      "gateway" : false,
      "overwriteActivityTime" : false,
      "description" : "",
      "lastConnectedGateway" : "5682d590-d15e-11ee-8b99-ef98cf4316a7"
    },
    "customerId" : {
      "entityType" : "CUSTOMER",
      "id" : "13814000-1dd2-11b2-8080-808080808080"
    },
    "deviceData" : {
      "configuration" : {
        "type" : "DEFAULT"
      },
      "transportConfiguration" : {
        "type" : "DEFAULT"
      }
    },
    "deviceProfileId" : {
      "entityType" : "DEVICE_PROFILE",
      "id" : "ddb6cd90-77cd-11ee-a573-172a852c61ec"
    },
    "externalId" : null,
    "firmwareId" : null,
    "id" : {
      "entityType" : "DEVICE",
      "id" : "64e7d4c0-d61b-11ee-b9fb-7b1cc6be7fac"
    },
    "label" : "",
    "name" : "Schenario_Sch_C1",
    "softwareId" : null,
    "type" : "Scenarios"
  },
  "credentials" : {
    "credentialsId" : "qlrLxKdGUySdWrEEvJ9j",
    "credentialsType" : "ACCESS_TOKEN",
    "credentialsValue" : null
  },
  "relations" : [ {
    "additionalInfo" : null,
    "from" : {
      "entityType" : "DEVICE",
      "id" : "c1c2cf10-dd3c-11ee-8fc6-7d359e2129b3"
    },
    "to" : {
      "entityType" : "DEVICE",
      "id" : "64e7d4c0-d61b-11ee-b9fb-7b1cc6be7fac"
    },
    "type" : "ANALYSIS",
    "typeGroup" : "COMMON"
  }, {
    "additionalInfo" : null,
    "from" : {
      "entityType" : "ASSET",
      "id" : "dad60eb0-b47c-11ee-8ec6-3d74b061a9fa"
    },
    "to" : {
      "entityType" : "DEVICE",
      "id" : "64e7d4c0-d61b-11ee-b9fb-7b1cc6be7fac"
    },
    "type" : "Contains",
    "typeGroup" : "COMMON"
  }, {
    "additionalInfo" : null,
    "from" : {
      "entityType" : "DEVICE",
      "id" : "64e7d4c0-d61b-11ee-b9fb-7b1cc6be7fac"
    },
    "to" : {
      "entityType" : "DEVICE",
      "id" : "94384720-dbaf-11ee-976e-0d9f5031d9fa"
    },
    "type" : "Contains",
    "typeGroup" : "COMMON"
  }, {
    "additionalInfo" : null,
    "from" : {
      "entityType" : "DEVICE",
      "id" : "64e7d4c0-d61b-11ee-b9fb-7b1cc6be7fac"
    },
    "to" : {
      "entityType" : "DEVICE",
      "id" : "a19d7070-dbb4-11ee-976e-0d9f5031d9fa"
    },
    "type" : "Contains",
    "typeGroup" : "COMMON"
  }, {
    "additionalInfo" : null,
    "from" : {
      "entityType" : "DEVICE",
      "id" : "64e7d4c0-d61b-11ee-b9fb-7b1cc6be7fac"
    },
    "to" : {
      "entityType" : "DEVICE",
      "id" : "a4c92730-dbaf-11ee-976e-0d9f5031d9fa"
    },
    "type" : "Contains",
    "typeGroup" : "COMMON"
  }, {
    "additionalInfo" : null,
    "from" : {
      "entityType" : "DEVICE",
      "id" : "64e7d4c0-d61b-11ee-b9fb-7b1cc6be7fac"
    },
    "to" : {
      "entityType" : "DEVICE",
      "id" : "b3a24520-dbaf-11ee-976e-0d9f5031d9fa"
    },
    "type" : "Contains",
    "typeGroup" : "COMMON"
  }, {
    "additionalInfo" : null,
    "from" : {
      "entityType" : "DEVICE",
      "id" : "64e7d4c0-d61b-11ee-b9fb-7b1cc6be7fac"
    },
    "to" : {
      "entityType" : "DEVICE",
      "id" : "bae72210-dbb4-11ee-976e-0d9f5031d9fa"
    },
    "type" : "Contains",
    "typeGroup" : "COMMON"
  }, {
    "additionalInfo" : null,
    "from" : {
      "entityType" : "DEVICE",
      "id" : "64e7d4c0-d61b-11ee-b9fb-7b1cc6be7fac"
    },
    "to" : {
      "entityType" : "DEVICE",
      "id" : "d47e5770-dbb4-11ee-976e-0d9f5031d9fa"
    },
    "type" : "Contains",
    "typeGroup" : "COMMON"
  }, {
    "additionalInfo" : null,
    "from" : {
      "entityType" : "DEVICE",
      "id" : "64e7d4c0-d61b-11ee-b9fb-7b1cc6be7fac"
    },
    "to" : {
      "entityType" : "DEVICE",
      "id" : "e523a9e0-dbb4-11ee-976e-0d9f5031d9fa"
    },
    "type" : "Contains",
    "typeGroup" : "COMMON"
  }, {
    "additionalInfo" : null,
    "from" : {
      "entityType" : "DEVICE",
      "id" : "64e7d4c0-d61b-11ee-b9fb-7b1cc6be7fac"
    },
    "to" : {
      "entityType" : "DEVICE",
      "id" : "0108e530-2728-11ef-9ab9-392a81c4dafe"
    },
    "type" : "Contains",
    "typeGroup" : "COMMON"
  }, {
    "additionalInfo" : null,
    "from" : {
      "entityType" : "DEVICE",
      "id" : "64e7d4c0-d61b-11ee-b9fb-7b1cc6be7fac"
    },
    "to" : {
      "entityType" : "DEVICE",
      "id" : "0d02dfa0-c9c0-11ee-8b99-ef98cf4316a7"
    },
    "type" : "Contains",
    "typeGroup" : "COMMON"
  }, {
    "additionalInfo" : null,
    "from" : {
      "entityType" : "DEVICE",
      "id" : "64e7d4c0-d61b-11ee-b9fb-7b1cc6be7fac"
    },
    "to" : {
      "entityType" : "DEVICE",
      "id" : "0d03a2f0-c9c0-11ee-8b99-ef98cf4316a7"
    },
    "type" : "Contains",
    "typeGroup" : "COMMON"
  }, {
    "additionalInfo" : null,
    "from" : {
      "entityType" : "DEVICE",
      "id" : "64e7d4c0-d61b-11ee-b9fb-7b1cc6be7fac"
    },
    "to" : {
      "entityType" : "DEVICE",
      "id" : "0d0aa7d0-c9c0-11ee-8b99-ef98cf4316a7"
    },
    "type" : "Contains",
    "typeGroup" : "COMMON"
  }, {
    "additionalInfo" : null,
    "from" : {
      "entityType" : "DEVICE",
      "id" : "64e7d4c0-d61b-11ee-b9fb-7b1cc6be7fac"
    },
    "to" : {
      "entityType" : "DEVICE",
      "id" : "0d199bf0-c9c0-11ee-8b99-ef98cf4316a7"
    },
    "type" : "Contains",
    "typeGroup" : "COMMON"
  }, {
    "additionalInfo" : null,
    "from" : {
      "entityType" : "DEVICE",
      "id" : "64e7d4c0-d61b-11ee-b9fb-7b1cc6be7fac"
    },
    "to" : {
      "entityType" : "DEVICE",
      "id" : "0d2a64d0-c9c0-11ee-8b99-ef98cf4316a7"
    },
    "type" : "Contains",
    "typeGroup" : "COMMON"
  }, {
    "additionalInfo" : null,
    "from" : {
      "entityType" : "DEVICE",
      "id" : "64e7d4c0-d61b-11ee-b9fb-7b1cc6be7fac"
    },
    "to" : {
      "entityType" : "DEVICE",
      "id" : "388d2d00-dbaf-11ee-976e-0d9f5031d9fa"
    },
    "type" : "Contains",
    "typeGroup" : "COMMON"
  } ],
  "attributes" : {
    "SERVER_SCOPE" : [ {
      "booleanValue" : true,
      "doubleValue" : null,
      "jsonValue" : null,
      "key" : "active",
      "lastUpdateTs" : 1720080326110,
      "longValue" : null,
      "strValue" : null
    }, {
      "booleanValue" : null,
      "doubleValue" : null,
      "jsonValue" : "[{\"deviceName\":\"C1.1.1\",\"channel\":[{\"channel\":\"y\",\"dx\":null,\"dy\":null,\"dz\":null},{\"channel\":\"z\",\"dx\":null,\"dy\":null,\"dz\":null}]},{\"deviceName\":\"C1.1.2\",\"channel\":[{\"channel\":\"y\",\"dx\":null,\"dy\":null,\"dz\":null},{\"channel\":\"z\",\"dx\":null,\"dy\":null,\"dz\":null}]},{\"deviceName\":\"C1.1.3\",\"channel\":[{\"channel\":\"y\",\"dx\":null,\"dy\":null,\"dz\":null},{\"channel\":\"z\",\"dx\":null,\"dy\":null,\"dz\":null}]},{\"deviceName\":\"C1.2.1\",\"channel\":[{\"channel\":\"y\",\"dx\":null,\"dy\":null,\"dz\":null},{\"channel\":\"z\",\"dx\":null,\"dy\":null,\"dz\":null}]},{\"deviceName\":\"C1.2.2\",\"channel\":[{\"channel\":\"y\",\"dx\":null,\"dy\":null,\"dz\":null},{\"channel\":\"z\",\"dx\":null,\"dy\":null,\"dz\":null}]}]",
      "key" : "channel",
      "lastUpdateTs" : 1712315830770,
      "longValue" : null,
      "strValue" : null
    }, {
      "booleanValue" : null,
      "doubleValue" : null,
      "jsonValue" : null,
      "key" : "constant1_oma",
      "lastUpdateTs" : 1709112923357,
      "longValue" : null,
      "strValue" : "1"
    }, {
      "booleanValue" : null,
      "doubleValue" : null,
      "jsonValue" : null,
      "key" : "constant1_static_analisys",
      "lastUpdateTs" : 1709112923357,
      "longValue" : null,
      "strValue" : "1"
    }, {
      "booleanValue" : null,
      "doubleValue" : null,
      "jsonValue" : null,
      "key" : "currentPhi",
      "lastUpdateTs" : 1719479072838,
      "longValue" : null,
      "strValue" : ""
    }, {
      "booleanValue" : null,
      "doubleValue" : null,
      "jsonValue" : null,
      "key" : "dampmax",
      "lastUpdateTs" : 1709112923357,
      "longValue" : null,
      "strValue" : "0.1"
    }, {
      "booleanValue" : null,
      "doubleValue" : null,
      "jsonValue" : null,
      "key" : "deltadamp",
      "lastUpdateTs" : 1709112923357,
      "longValue" : null,
      "strValue" : "0.05"
    }, {
      "booleanValue" : null,
      "doubleValue" : null,
      "jsonValue" : null,
      "key" : "deltaf",
      "lastUpdateTs" : 1709112923357,
      "longValue" : null,
      "strValue" : "0.01"
    }, {
      "booleanValue" : null,
      "doubleValue" : null,
      "jsonValue" : null,
      "key" : "deltamac",
      "lastUpdateTs" : 1709112923357,
      "longValue" : null,
      "strValue" : "0.02"
    }, {
      "booleanValue" : null,
      "doubleValue" : null,
      "jsonValue" : null,
      "key" : "deltamax",
      "lastUpdateTs" : 1709112923357,
      "longValue" : null,
      "strValue" : "0.02"
    }, {
      "booleanValue" : null,
      "doubleValue" : null,
      "jsonValue" : null,
      "key" : "f_lower",
      "lastUpdateTs" : 1709112923357,
      "longValue" : null,
      "strValue" : "0.1"
    }, {
      "booleanValue" : null,
      "doubleValue" : null,
      "jsonValue" : null,
      "key" : "f_upper",
      "lastUpdateTs" : 1709112923357,
      "longValue" : null,
      "strValue" : "24"
    }, {
      "booleanValue" : null,
      "doubleValue" : null,
      "jsonValue" : null,
      "key" : "fs",
      "lastUpdateTs" : 1709112923357,
      "longValue" : null,
      "strValue" : "1"
    }, {
      "booleanValue" : null,
      "doubleValue" : null,
      "jsonValue" : null,
      "key" : "i_values",
      "lastUpdateTs" : 1712139833727,
      "longValue" : null,
      "strValue" : "30,60,5"
    }, {
      "booleanValue" : null,
      "doubleValue" : null,
      "jsonValue" : null,
      "key" : "inactivityAlarmTime",
      "lastUpdateTs" : 1709829575023,
      "longValue" : 1709829575022,
      "strValue" : null
    }, {
      "booleanValue" : null,
      "doubleValue" : null,
      "jsonValue" : null,
      "key" : "inactivityTimeout",
      "lastUpdateTs" : 1709829396794,
      "longValue" : 120000,
      "strValue" : null
    }, {
      "booleanValue" : null,
      "doubleValue" : null,
      "jsonValue" : null,
      "key" : "lastActivityTime",
      "lastUpdateTs" : 1709829396824,
      "longValue" : 1709829396807,
      "strValue" : null
    }, {
      "booleanValue" : null,
      "doubleValue" : null,
      "jsonValue" : null,
      "key" : "lastConnectTime",
      "lastUpdateTs" : 1709829396794,
      "longValue" : 1709829395855,
      "strValue" : null
    }, {
      "booleanValue" : null,
      "doubleValue" : null,
      "jsonValue" : null,
      "key" : "lastDisconnectTime",
      "lastUpdateTs" : 1709829396794,
      "longValue" : 1709828918356,
      "strValue" : null
    }, {
      "booleanValue" : null,
      "doubleValue" : null,
      "jsonValue" : null,
      "key" : "lastInactivityAlarmTime",
      "lastUpdateTs" : 1709829396794,
      "longValue" : 1709828789156,
      "strValue" : null
    }, {
      "booleanValue" : null,
      "doubleValue" : null,
      "jsonValue" : "[{\"node1L\":\"V1.1.2\",\"node2L\":\"C1.1.2\"},{\"node1L\":\"C1.1.2\",\"node2L\":\"C1.1.3\"},{\"node1L\":\"C1.1.3\",\"node2L\":\"V1.2.2\"},{\"node1L\":\"V1.1.3\",\"node2L\":\"C1.1.1\"},{\"node1L\":\"C1.1.1\",\"node2L\":\"C1.2.2\"},{\"node1L\":\"C1.2.2\",\"node2L\":\"V1.2.1\"},{\"node1L\":\"V1.1.2\",\"node2L\":\"V1.1.3\"},{\"node1L\":\"C1.1.2\",\"node2L\":\"C1.1.1\"},{\"node1L\":\"C1.1.3\",\"node2L\":\"C1.2.1\"},{\"node1L\":\"C1.2.1\",\"node2L\":\"C1.2.2\"},{\"node1L\":\"V1.2.2\",\"node2L\":\"V1.2.1\"},{\"node1L\":\"C1.1.2\",\"node2L\":\"V2.2.1\"},{\"node1L\":\"V1.2.2\",\"node2L\":\"V2.2.5\"},{\"node1L\":\"V1.2.1\",\"node2L\":\"V2.2.4\"}]",
      "key" : "lines",
      "lastUpdateTs" : 1712315830891,
      "longValue" : null,
      "strValue" : null
    }, {
      "booleanValue" : null,
      "doubleValue" : null,
      "jsonValue" : null,
      "key" : "manually_rpc_date",
      "lastUpdateTs" : 1709715456366,
      "longValue" : 1653033600000,
      "strValue" : null
    }, {
      "booleanValue" : null,
      "doubleValue" : null,
      "jsonValue" : null,
      "key" : "manually_rpc_duration",
      "lastUpdateTs" : 1709913370553,
      "longValue" : 30,
      "strValue" : null
    }, {
      "booleanValue" : null,
      "doubleValue" : null,
      "jsonValue" : null,
      "key" : "manually_rpc_end_date",
      "lastUpdateTs" : 1720093952608,
      "longValue" : 1720097700000,
      "strValue" : null
    }, {
      "booleanValue" : null,
      "doubleValue" : null,
      "jsonValue" : null,
      "key" : "manually_rpc_start_date",
      "lastUpdateTs" : 1720093952608,
      "longValue" : 1720094100000,
      "strValue" : null
    }, {
      "booleanValue" : null,
      "doubleValue" : null,
      "jsonValue" : "[\"modal_discovery\",\"frequency_tracking_train\",\"frequency_tracking_deployment\",\"mac_over_time_train\",\"mac_over_time_deployment\",\"temperature_depuration_train\",\"temperature_depuration_deployment\",\"control_chart_train\",\"control_chart_deployment\"]",
      "key" : "manually_stages",
      "lastUpdateTs" : 1720084115796,
      "longValue" : null,
      "strValue" : null
    }, {
      "booleanValue" : null,
      "doubleValue" : null,
      "jsonValue" : null,
      "key" : "orders",
      "lastUpdateTs" : 1712139833727,
      "longValue" : null,
      "strValue" : "20,110,2"
    }, {
      "booleanValue" : null,
      "doubleValue" : null,
      "jsonValue" : null,
      "key" : "q",
      "lastUpdateTs" : 1709112923357,
      "longValue" : null,
      "strValue" : "2"
    }, {
      "booleanValue" : true,
      "doubleValue" : null,
      "jsonValue" : null,
      "key" : "rpc",
      "lastUpdateTs" : 1720093962738,
      "longValue" : null,
      "strValue" : null
    }, {
      "booleanValue" : null,
      "doubleValue" : null,
      "jsonValue" : null,
      "key" : "rpc_priority",
      "lastUpdateTs" : 1709636448225,
      "longValue" : 1,
      "strValue" : null
    }, {
      "booleanValue" : null,
      "doubleValue" : null,
      "jsonValue" : null,
      "key" : "s",
      "lastUpdateTs" : 1709112923357,
      "longValue" : null,
      "strValue" : "1"
    }, {
      "booleanValue" : null,
      "doubleValue" : null,
      "jsonValue" : "[{\"node1S\":\"V1.1.2\",\"node2S\":\"V1.1.3\",\"node3S\":\"C1.1.2\"},{\"node1S\":\"V1.1.3\",\"node2S\":\"C1.1.2\",\"node3S\":\"C1.1.1\"},{\"node1S\":\"C1.1.2\",\"node2S\":\"C1.1.3\",\"node3S\":\"C1.2.1\"},{\"node1S\":\"C1.1.2\",\"node2S\":\"C1.2.1\",\"node3S\":\"C1.1.1\"},{\"node1S\":\"C1.1.1\",\"node2S\":\"C1.2.1\",\"node3S\":\"C1.2.2\"},{\"node1S\":\"C1.1.3\",\"node2S\":\"C1.2.1\",\"node3S\":\"V1.2.2\"},{\"node1S\":\"V1.2.2\",\"node2S\":\"C1.2.1\",\"node3S\":\"V1.2.1\"},{\"node1S\":\"V1.2.1\",\"node2S\":\"C1.2.1\",\"node3S\":\"C1.2.2\"},{\"node1S\":\"C1.1.2\",\"node2S\":\"V2.2.1\",\"node3S\":\"C1.1.1\"},{\"node1S\":\"V1.2.2\",\"node2S\":\"V2.2.5\",\"node3S\":\"V2.2.4\"},{\"node1S\":\"V2.2.4\",\"node2S\":\"V1.2.2\",\"node3S\":\"V1.2.1\"}]",
      "key" : "surfaces",
      "lastUpdateTs" : 1712315830916,
      "longValue" : null,
      "strValue" : null
    }, {
      "booleanValue" : null,
      "doubleValue" : null,
      "jsonValue" : "{\"durationInMinutes\":30,\"params\":{\"request\":{\"_id\":\"64e7d4c0-d61b-11ee-b9fb-7b1cc6be7fac_1709567040029\",\"priority\":0,\"type\":\"OMA\"},\"data\":{\"parameters\":{\"start_time\":\"2022-05-20 08:00:00\",\"interval_minutes\":180,\"sensor_channels\":[\"C1.1.2_x\",\"C1.1.2_y\",\"C1.2.2_x\",\"C1.2.2_y\",\"C1.1.3_x\",\"C1.1.3_y\",\"C1.2.1_x\",\"C1.2.1_y\",\"C1.1.1_x\",\"C1.1.1_y\"]},\"additional_flags\":{\"add_timestamp\":false,\"add_temperature\":false,\"add_humidity\":false}},\"parameters\":{\"constant1_oma\":\"1\",\"constant1_static_analisys\":\"1\",\"q\":2,\"f_lower\":0.1,\"f_upper\":24,\"s\":2,\"deltaf\":0.01,\"deltadamp\":0.05,\"deltamac\":0.02,\"dampmax\":0.1,\"fs\":100,\"orders\":[20,150,2],\"i_values\":[25,55,5]}},\"method\":\"OMA\"}",
      "key" : "test_rpc",
      "lastUpdateTs" : 1709584840667,
      "longValue" : null,
      "strValue" : null
    } ],
    "SHARED_SCOPE" : [ ]
  }
}