{
  "entityType" : "DEVICE",
  "entity" : {
    "additionalInfo" : {
      "lastConnectedGateway" : "edeed790-37a1-11ef-82ae-05ce59667d06"
    },
    "customerId" : {
      "entityType" : "CUSTOMER",
      "id" : "13814000-1dd2-11b2-8080-808080808080"
    },
    "deviceData" : {
      "configuration" : {
        "type" : "DEFAULT"
      },
      "transportConfiguration" : {
        "type" : "DEFAULT"
      }
    },
    "deviceProfileId" : {
      "entityType" : "DEVICE_PROFILE",
      "id" : "10e94390-3787-11ef-84c7-a35f39bcc696"
    },
    "externalId" : null,
    "firmwareId" : null,
    "id" : {
      "entityType" : "DEVICE",
      "id" : "6d85fdd0-3941-11ef-b708-a3a07ce7bf5f"
    },
    "label" : null,
    "name" : "Z24_MOD1_0",
    "softwareId" : null,
    "type" : "frequency_tracking"
  },
  "credentials" : {
    "credentialsId" : "FTgaeIhP7GPlmpZJnpqH",
    "credentialsType" : "ACCESS_TOKEN",
    "credentialsValue" : null
  },
  "relations" : [ {
    "additionalInfo" : null,
    "from" : {
      "entityType" : "DEVICE",
      "id" : "edeed790-37a1-11ef-82ae-05ce59667d06"
    },
    "to" : {
      "entityType" : "DEVICE",
      "id" : "6d85fdd0-3941-11ef-b708-a3a07ce7bf5f"
    },
    "type" : "Created",
    "typeGroup" : "COMMON"
  }, {
    "additionalInfo" : null,
    "from" : {
      "entityType" : "DEVICE",
      "id" : "5b42f7f0-2fe0-11ef-9843-652801e5186d"
    },
    "to" : {
      "entityType" : "DEVICE",
      "id" : "6d85fdd0-3941-11ef-b708-a3a07ce7bf5f"
    },
    "type" : "contains_frequencies",
    "typeGroup" : "COMMON"
  } ],
  "attributes" : {
    "SERVER_SCOPE" : [ {
      "booleanValue" : false,
      "doubleValue" : null,
      "jsonValue" : null,
      "key" : "active",
      "lastUpdateTs" : 1720196630563,
      "longValue" : null,
      "strValue" : null
    }, {
      "booleanValue" : null,
      "doubleValue" : null,
      "jsonValue" : null,
      "key" : "inactivityAlarmTime",
      "lastUpdateTs" : 1720196630563,
      "longValue" : 1720196630562,
      "strValue" : null
    }, {
      "booleanValue" : null,
      "doubleValue" : null,
      "jsonValue" : null,
      "key" : "lastActivityTime",
      "lastUpdateTs" : 1720196498482,
      "longValue" : 1720196498482,
      "strValue" : null
    }, {
      "booleanValue" : null,
      "doubleValue" : null,
      "jsonValue" : null,
      "key" : "lastConnectTime",
      "lastUpdateTs" : 1720196498482,
      "longValue" : 1720196498482,
      "strValue" : null
    }, {
      "booleanValue" : null,
      "doubleValue" : null,
      "jsonValue" : null,
      "key" : "lastDisconnectTime",
      "lastUpdateTs" : 1720196800312,
      "longValue" : 1720196800312,
      "strValue" : null
    } ],
    "SHARED_SCOPE" : [ ]
  }
}