{
  "entityType" : "DEVICE",
  "entity" : {
    "additionalInfo" : {
      "lastConnectedGateway" : "2bdf0eb0-95e6-11ef-8fd8-05f5511a927e"
    },
    "customerId" : {
      "entityType" : "CUSTOMER",
      "id" : "19121880-87c8-11ef-9e51-bd4861d58417"
    },
    "deviceData" : {
      "configuration" : {
        "type" : "DEFAULT"
      },
      "transportConfiguration" : {
        "type" : "DEFAULT"
      }
    },
    "deviceProfileId" : {
      "entityType" : "DEVICE_PROFILE",
      "id" : "196dbb00-5d07-11ee-bd48-b70fa5f76abc"
    },
    "externalId" : null,
    "firmwareId" : null,
    "id" : {
      "entityType" : "DEVICE",
      "id" : "7bb7d050-95e8-11ef-8fd8-05f5511a927e"
    },
    "label" : null,
    "name" : "030E7296",
    "softwareId" : null,
    "type" : "Accelerometer"
  },
  "credentials" : {
    "credentialsId" : "dKW8mkm3QViVQe7vvlQY",
    "credentialsType" : "ACCESS_TOKEN",
    "credentialsValue" : null
  },
  "relations" : [ {
    "additionalInfo" : null,
    "from" : {
      "entityType" : "DEVICE",
      "id" : "ed23f770-961d-11ef-8fd8-05f5511a927e"
    },
    "to" : {
      "entityType" : "DEVICE",
      "id" : "7bb7d050-95e8-11ef-8fd8-05f5511a927e"
    },
    "type" : "Contains",
    "typeGroup" : "COMMON"
  }, {
    "additionalInfo" : null,
    "from" : {
      "entityType" : "CUSTOMER",
      "id" : "19121880-87c8-11ef-9e51-bd4861d58417"
    },
    "to" : {
      "entityType" : "DEVICE",
      "id" : "7bb7d050-95e8-11ef-8fd8-05f5511a927e"
    },
    "type" : "Owns",
    "typeGroup" : "COMMON"
  }, {
    "additionalInfo" : null,
    "from" : {
      "entityType" : "DEVICE",
      "id" : "2bdf0eb0-95e6-11ef-8fd8-05f5511a927e"
    },
    "to" : {
      "entityType" : "DEVICE",
      "id" : "7bb7d050-95e8-11ef-8fd8-05f5511a927e"
    },
    "type" : "Created",
    "typeGroup" : "COMMON"
  }, {
    "additionalInfo" : null,
    "from" : {
      "entityType" : "ASSET",
      "id" : "6412e5d0-8af7-11ef-9e51-bd4861d58417"
    },
    "to" : {
      "entityType" : "DEVICE",
      "id" : "7bb7d050-95e8-11ef-8fd8-05f5511a927e"
    },
    "type" : "Contains",
    "typeGroup" : "COMMON"
  }, {
    "additionalInfo" : null,
    "from" : {
      "entityType" : "DEVICE",
      "id" : "7bb7d050-95e8-11ef-8fd8-05f5511a927e"
    },
    "to" : {
      "entityType" : "ASSET",
      "id" : "6412e5d0-8af7-11ef-9e51-bd4861d58417"
    },
    "type" : "Contains",
    "typeGroup" : "COMMON"
  } ],
  "attributes" : {
    "SERVER_SCOPE" : [ {
      "booleanValue" : false,
      "doubleValue" : null,
      "jsonValue" : null,
      "key" : "active",
      "lastUpdateTs" : 1730240038233,
      "longValue" : null,
      "strValue" : null
    }, {
      "booleanValue" : null,
      "doubleValue" : null,
      "jsonValue" : null,
      "key" : "inactivityAlarmTime",
      "lastUpdateTs" : 1730240038233,
      "longValue" : 1730240038232,
      "strValue" : null
    }, {
      "booleanValue" : null,
      "doubleValue" : null,
      "jsonValue" : null,
      "key" : "lastActivityTime",
      "lastUpdateTs" : 1730239863361,
      "longValue" : 1730239860638,
      "strValue" : null
    }, {
      "booleanValue" : null,
      "doubleValue" : null,
      "jsonValue" : null,
      "key" : "lastConnectTime",
      "lastUpdateTs" : 1730239837132,
      "longValue" : 1730239837132,
      "strValue" : null
    }, {
      "booleanValue" : null,
      "doubleValue" : null,
      "jsonValue" : null,
      "key" : "lastDisconnectTime",
      "lastUpdateTs" : 1730239860650,
      "longValue" : 1730239860650,
      "strValue" : null
    }, {
      "booleanValue" : null,
      "doubleValue" : null,
      "jsonValue" : null,
      "key" : "state",
      "lastUpdateTs" : 1730208157835,
      "longValue" : null,
      "strValue" : "normal"
    }, {
      "booleanValue" : null,
      "doubleValue" : null,
      "jsonValue" : null,
      "key" : "x",
      "lastUpdateTs" : 1730224555709,
      "longValue" : 1,
      "strValue" : null
    }, {
      "booleanValue" : null,
      "doubleValue" : 0.34531919511244186,
      "jsonValue" : null,
      "key" : "xPos",
      "lastUpdateTs" : 1730270268037,
      "longValue" : null,
      "strValue" : null
    }, {
      "booleanValue" : null,
      "doubleValue" : null,
      "jsonValue" : null,
      "key" : "y",
      "lastUpdateTs" : 1730224555709,
      "longValue" : 6,
      "strValue" : null
    }, {
      "booleanValue" : null,
      "doubleValue" : null,
      "jsonValue" : null,
      "key" : "z",
      "lastUpdateTs" : 1730224555709,
      "longValue" : 0,
      "strValue" : null
    }, {
      "booleanValue" : null,
      "doubleValue" : 0.17239676408985227,
      "jsonValue" : null,
      "key" : "zPos",
      "lastUpdateTs" : 1730270268037,
      "longValue" : null,
      "strValue" : null
    } ],
    "SHARED_SCOPE" : [ ]
  }
}