{
  "entityType" : "DEVICE",
  "entity" : {
    "additionalInfo" : null,
    "customerId" : {
      "entityType" : "CUSTOMER",
      "id" : "13814000-1dd2-11b2-8080-808080808080"
    },
    "deviceData" : {
      "configuration" : {
        "type" : "DEFAULT"
      },
      "transportConfiguration" : {
        "type" : "DEFAULT"
      }
    },
    "deviceProfileId" : {
      "entityType" : "DEVICE_PROFILE",
      "id" : "aef6b770-904d-11ee-a888-1d6093a7ee12"
    },
    "externalId" : null,
    "firmwareId" : null,
    "id" : {
      "entityType" : "DEVICE",
      "id" : "865ecc30-fbeb-11ee-8a8c-e7962a764211"
    },
    "label" : "",
    "name" : "v3.2",
    "softwareId" : null,
    "type" : "virtual nodes"
  },
  "credentials" : {
    "credentialsId" : "tSLreR7ewxAKTIN4D6O2",
    "credentialsType" : "ACCESS_TOKEN",
    "credentialsValue" : null
  },
  "relations" : [ {
    "additionalInfo" : null,
    "from" : {
      "entityType" : "DEVICE",
      "id" : "5db472a0-fb26-11ee-9795-0be0db08e426"
    },
    "to" : {
      "entityType" : "DEVICE",
      "id" : "865ecc30-fbeb-11ee-8a8c-e7962a764211"
    },
    "type" : "Contains",
    "typeGroup" : "COMMON"
  } ],
  "attributes" : {
    "SERVER_SCOPE" : [ {
      "booleanValue" : false,
      "doubleValue" : null,
      "jsonValue" : null,
      "key" : "active",
      "lastUpdateTs" : 1713270121271,
      "longValue" : null,
      "strValue" : null
    }, {
      "booleanValue" : null,
      "doubleValue" : null,
      "jsonValue" : null,
      "key" : "inactivityAlarmTime",
      "lastUpdateTs" : 1713270121277,
      "longValue" : 1713270121270,
      "strValue" : null
    }, {
      "booleanValue" : null,
      "doubleValue" : null,
      "jsonValue" : null,
      "key" : "x",
      "lastUpdateTs" : 1713270141626,
      "longValue" : 4,
      "strValue" : null
    }, {
      "booleanValue" : null,
      "doubleValue" : null,
      "jsonValue" : null,
      "key" : "y",
      "lastUpdateTs" : 1713270141626,
      "longValue" : -3,
      "strValue" : null
    }, {
      "booleanValue" : null,
      "doubleValue" : null,
      "jsonValue" : null,
      "key" : "z",
      "lastUpdateTs" : 1713270141626,
      "longValue" : 1,
      "strValue" : null
    } ],
    "SHARED_SCOPE" : [ ]
  }
}