{
  "entityType" : "DEVICE",
  "entity" : {
    "additionalInfo" : {
      "gateway" : false,
      "overwriteActivityTime" : false,
      "description" : ""
    },
    "customerId" : {
      "entityType" : "CUSTOMER",
      "id" : "13814000-1dd2-11b2-8080-808080808080"
    },
    "deviceData" : {
      "configuration" : {
        "type" : "DEFAULT"
      },
      "transportConfiguration" : {
        "type" : "DEFAULT"
      }
    },
    "deviceProfileId" : {
      "entityType" : "DEVICE_PROFILE",
      "id" : "aef6b770-904d-11ee-a888-1d6093a7ee12"
    },
    "externalId" : null,
    "firmwareId" : null,
    "id" : {
      "entityType" : "DEVICE",
      "id" : "96ce4a60-9532-11ef-8fd8-05f5511a927e"
    },
    "label" : "",
    "name" : "z24_v3",
    "softwareId" : null,
    "type" : "virtual nodes"
  },
  "credentials" : {
    "credentialsId" : "sEBCoy8E5tB3OuyZprpe",
    "credentialsType" : "ACCESS_TOKEN",
    "credentialsValue" : null
  },
  "relations" : [ {
    "additionalInfo" : null,
    "from" : {
      "entityType" : "DEVICE",
      "id" : "4fb4ad40-2e35-11ef-8118-c99b59b38ae5"
    },
    "to" : {
      "entityType" : "DEVICE",
      "id" : "96ce4a60-9532-11ef-8fd8-05f5511a927e"
    },
    "type" : "Contains",
    "typeGroup" : "COMMON"
  } ],
  "attributes" : {
    "SERVER_SCOPE" : [ {
      "booleanValue" : false,
      "doubleValue" : null,
      "jsonValue" : null,
      "key" : "active",
      "lastUpdateTs" : 1730123157929,
      "longValue" : null,
      "strValue" : null
    }, {
      "booleanValue" : null,
      "doubleValue" : null,
      "jsonValue" : null,
      "key" : "inactivityAlarmTime",
      "lastUpdateTs" : 1730123157930,
      "longValue" : 1730123157928,
      "strValue" : null
    }, {
      "booleanValue" : null,
      "doubleValue" : null,
      "jsonValue" : null,
      "key" : "x",
      "lastUpdateTs" : 1730123294448,
      "longValue" : 8,
      "strValue" : null
    }, {
      "booleanValue" : null,
      "doubleValue" : null,
      "jsonValue" : null,
      "key" : "y",
      "lastUpdateTs" : 1730123294448,
      "longValue" : 0,
      "strValue" : null
    }, {
      "booleanValue" : null,
      "doubleValue" : null,
      "jsonValue" : null,
      "key" : "z",
      "lastUpdateTs" : 1730123294448,
      "longValue" : 0,
      "strValue" : null
    } ],
    "SHARED_SCOPE" : [ ]
  }
}