{
  "entityType" : "DEVICE",
  "entity" : {
    "additionalInfo" : {
      "gateway" : true,
      "overwriteActivityTime" : false,
      "description" : ""
    },
    "customerId" : {
      "entityType" : "CUSTOMER",
      "id" : "58860100-ae05-11ed-b366-dfefa829992c"
    },
    "deviceData" : {
      "configuration" : {
        "type" : "DEFAULT"
      },
      "transportConfiguration" : {
        "type" : "DEFAULT"
      }
    },
    "deviceProfileId" : {
      "entityType" : "DEVICE_PROFILE",
      "id" : "12531d30-a86a-11ed-9719-81bc5c240dd0"
    },
    "externalId" : {
      "entityType" : "DEVICE",
      "id" : "9a7f0bb0-c728-11ed-8394-0fd016aa5654"
    },
    "firmwareId" : null,
    "id" : {
      "entityType" : "DEVICE",
      "id" : "9a7f0bb0-c728-11ed-8394-0fd016aa5654"
    },
    "label" : "",
    "name" : "TestOnMC",
    "softwareId" : null,
    "type" : "gateway"
  },
  "credentials" : {
    "credentialsId" : "aaUTKbZSEQbMMrujcZ7N",
    "credentialsType" : "ACCESS_TOKEN",
    "credentialsValue" : null
  },
  "attributes" : {
    "SERVER_SCOPE" : [ {
      "booleanValue" : false,
      "doubleValue" : null,
      "jsonValue" : null,
      "key" : "active",
      "lastUpdateTs" : 1679321444601,
      "longValue" : null,
      "strValue" : null
    }, {
      "booleanValue" : null,
      "doubleValue" : null,
      "jsonValue" : null,
      "key" : "inactivityAlarmTime",
      "lastUpdateTs" : 1679321444601,
      "longValue" : 1679321444601,
      "strValue" : null
    } ],
    "SHARED_SCOPE" : [ ]
  }
}