{
  "entityType" : "DEVICE",
  "entity" : {
    "additionalInfo" : {
      "lastConnectedGateway" : "edeed790-37a1-11ef-82ae-05ce59667d06"
    },
    "customerId" : {
      "entityType" : "CUSTOMER",
      "id" : "13814000-1dd2-11b2-8080-808080808080"
    },
    "deviceData" : {
      "configuration" : {
        "type" : "DEFAULT"
      },
      "transportConfiguration" : {
        "type" : "DEFAULT"
      }
    },
    "deviceProfileId" : {
      "entityType" : "DEVICE_PROFILE",
      "id" : "10e94390-3787-11ef-84c7-a35f39bcc696"
    },
    "externalId" : null,
    "firmwareId" : null,
    "id" : {
      "entityType" : "DEVICE",
      "id" : "a0018c00-3880-11ef-8627-8fc5b5436d2d"
    },
    "label" : null,
    "name" : "Z24_MOD1_2",
    "softwareId" : null,
    "type" : "frequency_tracking"
  },
  "credentials" : {
    "credentialsId" : "AYFBhCZy2XJLN2SPYLdr",
    "credentialsType" : "ACCESS_TOKEN",
    "credentialsValue" : null
  },
  "relations" : [ {
    "additionalInfo" : null,
    "from" : {
      "entityType" : "DEVICE",
      "id" : "edeed790-37a1-11ef-82ae-05ce59667d06"
    },
    "to" : {
      "entityType" : "DEVICE",
      "id" : "a0018c00-3880-11ef-8627-8fc5b5436d2d"
    },
    "type" : "Created",
    "typeGroup" : "COMMON"
  } ],
  "attributes" : {
    "SERVER_SCOPE" : [ {
      "booleanValue" : false,
      "doubleValue" : null,
      "jsonValue" : null,
      "key" : "active",
      "lastUpdateTs" : 1719949853750,
      "longValue" : null,
      "strValue" : null
    }, {
      "booleanValue" : null,
      "doubleValue" : null,
      "jsonValue" : null,
      "key" : "inactivityAlarmTime",
      "lastUpdateTs" : 1719949853750,
      "longValue" : 1719949853748,
      "strValue" : null
    }, {
      "booleanValue" : null,
      "doubleValue" : null,
      "jsonValue" : null,
      "key" : "lastActivityTime",
      "lastUpdateTs" : 1719949723106,
      "longValue" : 1719949721804,
      "strValue" : null
    }, {
      "booleanValue" : null,
      "doubleValue" : null,
      "jsonValue" : null,
      "key" : "lastConnectTime",
      "lastUpdateTs" : 1719949708974,
      "longValue" : 1719949708974,
      "strValue" : null
    }, {
      "booleanValue" : null,
      "doubleValue" : null,
      "jsonValue" : null,
      "key" : "lastDisconnectTime",
      "lastUpdateTs" : 1719950023087,
      "longValue" : 1719950023087,
      "strValue" : null
    } ],
    "SHARED_SCOPE" : [ ]
  }
}