{
  "entityType" : "DEVICE",
  "entity" : {
    "additionalInfo" : null,
    "customerId" : {
      "entityType" : "CUSTOMER",
      "id" : "13814000-1dd2-11b2-8080-808080808080"
    },
    "deviceData" : {
      "configuration" : {
        "type" : "DEFAULT"
      },
      "transportConfiguration" : {
        "type" : "DEFAULT"
      }
    },
    "deviceProfileId" : {
      "entityType" : "DEVICE_PROFILE",
      "id" : "ddb6cd90-77cd-11ee-a573-172a852c61ec"
    },
    "externalId" : {
      "entityType" : "DEVICE",
      "id" : "ae2a8800-9807-11ee-b6d4-81d685ab2d2f"
    },
    "firmwareId" : null,
    "id" : {
      "entityType" : "DEVICE",
      "id" : "ae2a8800-9807-11ee-b6d4-81d685ab2d2f"
    },
    "label" : "",
    "name" : "Tea_Device",
    "softwareId" : null,
    "type" : "Scenarios"
  },
  "credentials" : {
    "credentialsId" : "7GP6uHxRKPRNRxNy6CKY",
    "credentialsType" : "ACCESS_TOKEN",
    "credentialsValue" : null
  },
  "attributes" : {
    "SERVER_SCOPE" : [ {
      "booleanValue" : false,
      "doubleValue" : null,
      "jsonValue" : null,
      "key" : "active",
      "lastUpdateTs" : 1702287081722,
      "longValue" : null,
      "strValue" : null
    }, {
      "booleanValue" : null,
      "doubleValue" : null,
      "jsonValue" : null,
      "key" : "inactivityAlarmTime",
      "lastUpdateTs" : 1702287081722,
      "longValue" : 1702287081721,
      "strValue" : null
    } ],
    "SHARED_SCOPE" : [ ]
  }
}