{
  "entityType" : "DEVICE",
  "entity" : {
    "additionalInfo" : null,
    "customerId" : {
      "entityType" : "CUSTOMER",
      "id" : "13814000-1dd2-11b2-8080-808080808080"
    },
    "deviceData" : {
      "configuration" : {
        "type" : "DEFAULT"
      },
      "transportConfiguration" : {
        "type" : "DEFAULT"
      }
    },
    "deviceProfileId" : {
      "entityType" : "DEVICE_PROFILE",
      "id" : "27b3efb0-980b-11ee-b6d4-81d685ab2d2f"
    },
    "externalId" : null,
    "firmwareId" : null,
    "id" : {
      "entityType" : "DEVICE",
      "id" : "ba8fda80-be8d-11ee-bee5-9fcebc70a874"
    },
    "label" : "",
    "name" : "C1",
    "softwareId" : null,
    "type" : "oma"
  },
  "credentials" : {
    "credentialsId" : "8uSjJAC78h3O0DQvDYJ1",
    "credentialsType" : "ACCESS_TOKEN",
    "credentialsValue" : null
  },
  "relations" : [ {
    "additionalInfo" : null,
    "from" : {
      "entityType" : "DEVICE",
      "id" : "ba8fda80-be8d-11ee-bee5-9fcebc70a874"
    },
    "to" : {
      "entityType" : "DEVICE",
      "id" : "93aa45e0-be8d-11ee-bee5-9fcebc70a874"
    },
    "type" : "Contains",
    "typeGroup" : "COMMON"
  }, {
    "additionalInfo" : null,
    "from" : {
      "entityType" : "DEVICE",
      "id" : "ba8fda80-be8d-11ee-bee5-9fcebc70a874"
    },
    "to" : {
      "entityType" : "DEVICE",
      "id" : "b53dfa50-be90-11ee-bee5-9fcebc70a874"
    },
    "type" : "Contains",
    "typeGroup" : "COMMON"
  }, {
    "additionalInfo" : null,
    "from" : {
      "entityType" : "DEVICE",
      "id" : "ba8fda80-be8d-11ee-bee5-9fcebc70a874"
    },
    "to" : {
      "entityType" : "DEVICE",
      "id" : "e962fa10-be90-11ee-bee5-9fcebc70a874"
    },
    "type" : "Contains",
    "typeGroup" : "COMMON"
  }, {
    "additionalInfo" : null,
    "from" : {
      "entityType" : "DEVICE",
      "id" : "ba8fda80-be8d-11ee-bee5-9fcebc70a874"
    },
    "to" : {
      "entityType" : "DEVICE",
      "id" : "076355f0-be91-11ee-bee5-9fcebc70a874"
    },
    "type" : "Contains",
    "typeGroup" : "COMMON"
  }, {
    "additionalInfo" : null,
    "from" : {
      "entityType" : "DEVICE",
      "id" : "ba8fda80-be8d-11ee-bee5-9fcebc70a874"
    },
    "to" : {
      "entityType" : "DEVICE",
      "id" : "2e501680-be91-11ee-bee5-9fcebc70a874"
    },
    "type" : "Contains",
    "typeGroup" : "COMMON"
  }, {
    "additionalInfo" : null,
    "from" : {
      "entityType" : "DEVICE",
      "id" : "ba8fda80-be8d-11ee-bee5-9fcebc70a874"
    },
    "to" : {
      "entityType" : "DEVICE",
      "id" : "36e9eb30-be8d-11ee-bee5-9fcebc70a874"
    },
    "type" : "Contains",
    "typeGroup" : "COMMON"
  }, {
    "additionalInfo" : null,
    "from" : {
      "entityType" : "DEVICE",
      "id" : "ba8fda80-be8d-11ee-bee5-9fcebc70a874"
    },
    "to" : {
      "entityType" : "DEVICE",
      "id" : "45ebc6d0-be8d-11ee-bee5-9fcebc70a874"
    },
    "type" : "Contains",
    "typeGroup" : "COMMON"
  }, {
    "additionalInfo" : null,
    "from" : {
      "entityType" : "DEVICE",
      "id" : "ba8fda80-be8d-11ee-bee5-9fcebc70a874"
    },
    "to" : {
      "entityType" : "DEVICE",
      "id" : "51b2c2c0-be8d-11ee-bee5-9fcebc70a874"
    },
    "type" : "Contains",
    "typeGroup" : "COMMON"
  }, {
    "additionalInfo" : null,
    "from" : {
      "entityType" : "DEVICE",
      "id" : "ba8fda80-be8d-11ee-bee5-9fcebc70a874"
    },
    "to" : {
      "entityType" : "DEVICE",
      "id" : "635d7e90-bf4e-11ee-9bae-8b2ec629601c"
    },
    "type" : "Contains",
    "typeGroup" : "COMMON"
  }, {
    "additionalInfo" : null,
    "from" : {
      "entityType" : "DEVICE",
      "id" : "ba8fda80-be8d-11ee-bee5-9fcebc70a874"
    },
    "to" : {
      "entityType" : "DEVICE",
      "id" : "6f9424f0-be8d-11ee-bee5-9fcebc70a874"
    },
    "type" : "Contains",
    "typeGroup" : "COMMON"
  }, {
    "additionalInfo" : null,
    "from" : {
      "entityType" : "DEVICE",
      "id" : "ba8fda80-be8d-11ee-bee5-9fcebc70a874"
    },
    "to" : {
      "entityType" : "DEVICE",
      "id" : "7d528410-be8d-11ee-bee5-9fcebc70a874"
    },
    "type" : "Contains",
    "typeGroup" : "COMMON"
  }, {
    "additionalInfo" : null,
    "from" : {
      "entityType" : "ASSET",
      "id" : "f5a6d580-b47c-11ee-8ec6-3d74b061a9fa"
    },
    "to" : {
      "entityType" : "DEVICE",
      "id" : "ba8fda80-be8d-11ee-bee5-9fcebc70a874"
    },
    "type" : "Contains",
    "typeGroup" : "COMMON"
  } ],
  "attributes" : {
    "SERVER_SCOPE" : [ {
      "booleanValue" : false,
      "doubleValue" : null,
      "jsonValue" : null,
      "key" : "active",
      "lastUpdateTs" : 1706719104478,
      "longValue" : null,
      "strValue" : null
    }, {
      "booleanValue" : null,
      "doubleValue" : null,
      "jsonValue" : "[{\"deviceName\":\"F415_05P1_AT_237\",\"channel\":[{\"channel\":\"x\",\"dx\":1,\"dy\":0,\"dz\":0},{\"channel\":\"y\",\"dx\":0,\"dy\":1,\"dz\":0},{\"channel\":\"z\",\"dx\":0,\"dy\":0,\"dz\":-1}]},{\"deviceName\":\"F415_05T1_AB_242\",\"channel\":[{\"channel\":\"y\",\"dx\":-1,\"dy\":0,\"dz\":0},{\"channel\":\"z\",\"dx\":0,\"dy\":0,\"dz\":-1}]},{\"deviceName\":\"F415_05T1_AT_243\",\"channel\":[{\"channel\":\"x\",\"dx\":1,\"dy\":0,\"dz\":0}]},{\"deviceName\":\"F415_05T3_AM_248\",\"channel\":[{\"channel\":\"x\",\"dx\":0,\"dy\":0,\"dz\":-1}]},{\"deviceName\":\"F415_06P1_AT_257\",\"channel\":[{\"channel\":\"x\",\"dx\":1,\"dy\":0,\"dz\":0},{\"channel\":\"y\",\"dx\":0,\"dy\":1,\"dz\":0}]},{\"deviceName\":\"F415_05T3_AM_249\",\"channel\":[{\"channel\":\"x\",\"dx\":0,\"dy\":0,\"dz\":-1}]}]",
      "key" : "channel",
      "lastUpdateTs" : 1708437674143,
      "longValue" : null,
      "strValue" : null
    }, {
      "booleanValue" : null,
      "doubleValue" : null,
      "jsonValue" : null,
      "key" : "inactivityAlarmTime",
      "lastUpdateTs" : 1706719104478,
      "longValue" : 1706719104477,
      "strValue" : null
    }, {
      "booleanValue" : null,
      "doubleValue" : null,
      "jsonValue" : null,
      "key" : "lastActivityTime",
      "lastUpdateTs" : 1706718969042,
      "longValue" : 1706718969017,
      "strValue" : null
    }, {
      "booleanValue" : null,
      "doubleValue" : null,
      "jsonValue" : "[{\"node1L\":\"P2.\",\"node2L\":\"P1\"},{\"node1L\":\"P2.\",\"node2L\":\"F415_05T3_AM_249\"},{\"node1L\":\"F415_05T3_AM_249\",\"node2L\":\"F415_06P1_AT_257\"},{\"node1L\":\"F415_06P1_AT_257\",\"node2L\":\"F415_05T1_AT_243\"},{\"node1L\":\"F415_05T1_AT_243\",\"node2L\":\"P4\"},{\"node1L\":\"P4\",\"node2L\":\"P3\"},{\"node1L\":\"F415_05T1_AB_242\",\"node2L\":\"F415_05P1_AT_237\"},{\"node1L\":\"F415_05P1_AT_237\",\"node2L\":\"F415_05T3_AM_248\"},{\"node1L\":\"F415_05T3_AM_248\",\"node2L\":\"P1\"},{\"node1L\":\"P3\",\"node2L\":\"F415_05T1_AB_242\"}]",
      "key" : "lines",
      "lastUpdateTs" : 1708437674163,
      "longValue" : null,
      "strValue" : null
    }, {
      "booleanValue" : null,
      "doubleValue" : null,
      "jsonValue" : "[\"3\",\"4\",\"7,5\"]",
      "key" : "peaks",
      "lastUpdateTs" : 1706608928972,
      "longValue" : null,
      "strValue" : null
    }, {
      "booleanValue" : null,
      "doubleValue" : null,
      "jsonValue" : "[{\"node1S\":\"P1\",\"node2S\":\"P2.\",\"node3S\":\"F415_05T3_AM_249\"},{\"node1S\":\"P1\",\"node2S\":\"F415_05T3_AM_249\",\"node3S\":\"F415_05T3_AM_248\"},{\"node1S\":\"F415_05T3_AM_249\",\"node2S\":\"P4\",\"node3S\":\"P3\"},{\"node1S\":\"P3\",\"node2S\":\"F415_05T3_AM_249\",\"node3S\":\"F415_05T3_AM_248\"}]",
      "key" : "surfaces",
      "lastUpdateTs" : 1708437674162,
      "longValue" : null,
      "strValue" : null
    } ],
    "SHARED_SCOPE" : [ ]
  }
}