{
  "entityType" : "DEVICE",
  "entity" : {
    "additionalInfo" : {
      "lastConnectedGateway" : "bf2eb780-5ba7-11ee-bd48-b70fa5f76abc"
    },
    "customerId" : {
      "entityType" : "CUSTOMER",
      "id" : "13814000-1dd2-11b2-8080-808080808080"
    },
    "deviceData" : {
      "configuration" : {
        "type" : "DEFAULT"
      },
      "transportConfiguration" : {
        "type" : "DEFAULT"
      }
    },
    "deviceProfileId" : {
      "entityType" : "DEVICE_PROFILE",
      "id" : "a4a4ca40-9842-11ed-ae3d-232983d77f71"
    },
    "externalId" : {
      "entityType" : "DEVICE",
      "id" : "c06012b0-798f-11ee-bce9-4d898643d326"
    },
    "firmwareId" : null,
    "id" : {
      "entityType" : "DEVICE",
      "id" : "c06012b0-798f-11ee-bce9-4d898643d326"
    },
    "label" : null,
    "name" : "C3.1.3_55",
    "softwareId" : null,
    "type" : "default"
  },
  "credentials" : {
    "credentialsId" : "q6PkBKrG6eIm6XAYszvE",
    "credentialsType" : "ACCESS_TOKEN",
    "credentialsValue" : null
  },
  "attributes" : {
    "SERVER_SCOPE" : [ {
      "booleanValue" : false,
      "doubleValue" : null,
      "jsonValue" : null,
      "key" : "active",
      "lastUpdateTs" : 1698937059409,
      "longValue" : null,
      "strValue" : null
    }, {
      "booleanValue" : null,
      "doubleValue" : null,
      "jsonValue" : null,
      "key" : "inactivityAlarmTime",
      "lastUpdateTs" : 1698937059410,
      "longValue" : 1698937059406,
      "strValue" : null
    } ],
    "SHARED_SCOPE" : [ ]
  }
}