{
  "entityType" : "DEVICE",
  "entity" : {
    "additionalInfo" : {
      "lastConnectedGateway" : "bf2eb780-5ba7-11ee-bd48-b70fa5f76abc"
    },
    "customerId" : {
      "entityType" : "CUSTOMER",
      "id" : "13814000-1dd2-11b2-8080-808080808080"
    },
    "deviceData" : {
      "configuration" : {
        "type" : "DEFAULT"
      },
      "transportConfiguration" : {
        "type" : "DEFAULT"
      }
    },
    "deviceProfileId" : {
      "entityType" : "DEVICE_PROFILE",
      "id" : "a4a4ca40-9842-11ed-ae3d-232983d77f71"
    },
    "externalId" : {
      "entityType" : "DEVICE",
      "id" : "c08e4ea0-798f-11ee-bce9-4d898643d326"
    },
    "firmwareId" : null,
    "id" : {
      "entityType" : "DEVICE",
      "id" : "c08e4ea0-798f-11ee-bce9-4d898643d326"
    },
    "label" : null,
    "name" : "S2.2.2",
    "softwareId" : null,
    "type" : "default"
  },
  "credentials" : {
    "credentialsId" : "u99itbNTRg3cpdH1pYhX",
    "credentialsType" : "ACCESS_TOKEN",
    "credentialsValue" : null
  },
  "attributes" : {
    "SERVER_SCOPE" : [ {
      "booleanValue" : false,
      "doubleValue" : null,
      "jsonValue" : null,
      "key" : "active",
      "lastUpdateTs" : 1698937059409,
      "longValue" : null,
      "strValue" : null
    }, {
      "booleanValue" : null,
      "doubleValue" : 45.13353434472693,
      "jsonValue" : null,
      "key" : "endLatitude",
      "lastUpdateTs" : 1699210651126,
      "longValue" : null,
      "strValue" : null
    }, {
      "booleanValue" : null,
      "doubleValue" : 7.166873354924484,
      "jsonValue" : null,
      "key" : "endLongitude",
      "lastUpdateTs" : 1699210651126,
      "longValue" : null,
      "strValue" : null
    }, {
      "booleanValue" : null,
      "doubleValue" : null,
      "jsonValue" : "[{\"legs\":[{\"steps\":[],\"weight\":7.7,\"distance\":172.4,\"duration\":7.7,\"summary\":\"\",\"annotation\":{\"nodes\":[442943391,3757037043,3757037044,442938482],\"datasources\":[0,0,0],\"speed\":[22,22.5,23.1],\"weight\":[3.2,3,1.5],\"duration\":[3.2,3,1.5],\"distance\":[70.25171,67.538025,34.60327],\"metadata\":{\"datasource_names\":[\"lua profile\"]}}}],\"weight_name\":\"routability\",\"geometry\":{\"type\":\"LineString\",\"coordinates\":[[7.1648,45.133032],[7.165648,45.13323],[7.166462,45.133423],[7.166879,45.133522]]},\"weight\":7.7,\"distance\":172.4,\"duration\":7.7}]",
      "key" : "geometry",
      "lastUpdateTs" : 1699210651126,
      "longValue" : null,
      "strValue" : null
    }, {
      "booleanValue" : null,
      "doubleValue" : null,
      "jsonValue" : null,
      "key" : "inactivityAlarmTime",
      "lastUpdateTs" : 1698937059409,
      "longValue" : 1698937059406,
      "strValue" : null
    }, {
      "booleanValue" : null,
      "doubleValue" : 45.13302723748879,
      "jsonValue" : null,
      "key" : "startLatitude",
      "lastUpdateTs" : 1699210651126,
      "longValue" : null,
      "strValue" : null
    }, {
      "booleanValue" : null,
      "doubleValue" : 7.164803087938402,
      "jsonValue" : null,
      "key" : "startLongitude",
      "lastUpdateTs" : 1699210651126,
      "longValue" : null,
      "strValue" : null
    } ],
    "SHARED_SCOPE" : [ ]
  }
}