{
  "entityType" : "DEVICE",
  "entity" : {
    "additionalInfo" : {
      "gateway" : false,
      "overwriteActivityTime" : false,
      "description" : ""
    },
    "customerId" : {
      "entityType" : "CUSTOMER",
      "id" : "13814000-1dd2-11b2-8080-808080808080"
    },
    "deviceData" : {
      "configuration" : {
        "type" : "DEFAULT"
      },
      "transportConfiguration" : {
        "type" : "DEFAULT"
      }
    },
    "deviceProfileId" : {
      "entityType" : "DEVICE_PROFILE",
      "id" : "ddb6cd90-77cd-11ee-a573-172a852c61ec"
    },
    "externalId" : {
      "entityType" : "DEVICE",
      "id" : "d21c1770-9ffe-11ee-8e3a-a944b73841e6"
    },
    "firmwareId" : null,
    "id" : {
      "entityType" : "DEVICE",
      "id" : "d21c1770-9ffe-11ee-8e3a-a944b73841e6"
    },
    "label" : "",
    "name" : "Scenario_Genti_Test",
    "softwareId" : null,
    "type" : "Scenarios"
  },
  "credentials" : {
    "credentialsId" : "wTSuUtktPkcfE3jREsQb",
    "credentialsType" : "ACCESS_TOKEN",
    "credentialsValue" : null
  },
  "attributes" : {
    "SERVER_SCOPE" : [ {
      "booleanValue" : false,
      "doubleValue" : null,
      "jsonValue" : null,
      "key" : "active",
      "lastUpdateTs" : 1703162890890,
      "longValue" : null,
      "strValue" : null
    }, {
      "booleanValue" : null,
      "doubleValue" : null,
      "jsonValue" : null,
      "key" : "inactivityAlarmTime",
      "lastUpdateTs" : 1703162890890,
      "longValue" : 1703162890890,
      "strValue" : null
    } ],
    "SHARED_SCOPE" : [ ]
  }
}