{
  "entityType" : "DEVICE",
  "entity" : {
    "additionalInfo" : {
      "lastConnectedGateway" : "2bdf0eb0-95e6-11ef-8fd8-05f5511a927e"
    },
    "customerId" : {
      "entityType" : "CUSTOMER",
      "id" : "13814000-1dd2-11b2-8080-808080808080"
    },
    "deviceData" : {
      "configuration" : {
        "type" : "DEFAULT"
      },
      "transportConfiguration" : {
        "type" : "DEFAULT"
      }
    },
    "deviceProfileId" : {
      "entityType" : "DEVICE_PROFILE",
      "id" : "89bf3800-8a03-11ef-9e51-bd4861d58417"
    },
    "externalId" : null,
    "firmwareId" : null,
    "id" : {
      "entityType" : "DEVICE",
      "id" : "d621df21-960d-11ef-8fd8-05f5511a927e"
    },
    "label" : null,
    "name" : "04046040",
    "softwareId" : null,
    "type" : "Inclinometer"
  },
  "credentials" : {
    "credentialsId" : "e5aysG0F1hM1kh0CaXQV",
    "credentialsType" : "ACCESS_TOKEN",
    "credentialsValue" : null
  },
  "relations" : [ {
    "additionalInfo" : null,
    "from" : {
      "entityType" : "DEVICE",
      "id" : "2bdf0eb0-95e6-11ef-8fd8-05f5511a927e"
    },
    "to" : {
      "entityType" : "DEVICE",
      "id" : "d621df21-960d-11ef-8fd8-05f5511a927e"
    },
    "type" : "Created",
    "typeGroup" : "COMMON"
  }, {
    "additionalInfo" : null,
    "from" : {
      "entityType" : "ASSET",
      "id" : "6412e5d0-8af7-11ef-9e51-bd4861d58417"
    },
    "to" : {
      "entityType" : "DEVICE",
      "id" : "d621df21-960d-11ef-8fd8-05f5511a927e"
    },
    "type" : "Contains",
    "typeGroup" : "COMMON"
  } ],
  "attributes" : {
    "SERVER_SCOPE" : [ {
      "booleanValue" : false,
      "doubleValue" : null,
      "jsonValue" : null,
      "key" : "active",
      "lastUpdateTs" : 1730217538150,
      "longValue" : null,
      "strValue" : null
    }, {
      "booleanValue" : null,
      "doubleValue" : null,
      "jsonValue" : null,
      "key" : "inactivityAlarmTime",
      "lastUpdateTs" : 1730217538150,
      "longValue" : 1730217538149,
      "strValue" : null
    }, {
      "booleanValue" : null,
      "doubleValue" : null,
      "jsonValue" : null,
      "key" : "lastActivityTime",
      "lastUpdateTs" : 1730217375360,
      "longValue" : 1730217374110,
      "strValue" : null
    }, {
      "booleanValue" : null,
      "doubleValue" : null,
      "jsonValue" : null,
      "key" : "lastConnectTime",
      "lastUpdateTs" : 1730217164374,
      "longValue" : 1730217164374,
      "strValue" : null
    }, {
      "booleanValue" : null,
      "doubleValue" : null,
      "jsonValue" : null,
      "key" : "lastDisconnectTime",
      "lastUpdateTs" : 1730217374129,
      "longValue" : 1730217374129,
      "strValue" : null
    }, {
      "booleanValue" : null,
      "doubleValue" : 0.14249139056986745,
      "jsonValue" : null,
      "key" : "xPos",
      "lastUpdateTs" : 1730276914649,
      "longValue" : null,
      "strValue" : null
    }, {
      "booleanValue" : null,
      "doubleValue" : 0.23698744201063768,
      "jsonValue" : null,
      "key" : "zPos",
      "lastUpdateTs" : 1730276914649,
      "longValue" : null,
      "strValue" : null
    } ],
    "SHARED_SCOPE" : [ ]
  }
}