{
  "entityType" : "DEVICE",
  "entity" : {
    "additionalInfo" : {
      "gateway" : false,
      "overwriteActivityTime" : false,
      "description" : ""
    },
    "customerId" : {
      "entityType" : "CUSTOMER",
      "id" : "58860100-ae05-11ed-b366-dfefa829992c"
    },
    "deviceData" : {
      "configuration" : {
        "type" : "DEFAULT"
      },
      "transportConfiguration" : {
        "type" : "DEFAULT"
      }
    },
    "deviceProfileId" : {
      "entityType" : "DEVICE_PROFILE",
      "id" : "a4a4ca40-9842-11ed-ae3d-232983d77f71"
    },
    "externalId" : {
      "entityType" : "DEVICE",
      "id" : "e438c970-ed8a-11ed-be03-594bd1252ee6"
    },
    "firmwareId" : null,
    "id" : {
      "entityType" : "DEVICE",
      "id" : "e438c970-ed8a-11ed-be03-594bd1252ee6"
    },
    "label" : "",
    "name" : "EriRsuTest",
    "softwareId" : null,
    "type" : "default"
  },
  "credentials" : {
    "credentialsId" : "b3zt7nDFmvcCvDiwNOzd",
    "credentialsType" : "ACCESS_TOKEN",
    "credentialsValue" : null
  },
  "attributes" : {
    "SERVER_SCOPE" : [ {
      "booleanValue" : false,
      "doubleValue" : null,
      "jsonValue" : null,
      "key" : "active",
      "lastUpdateTs" : 1683707672075,
      "longValue" : null,
      "strValue" : null
    }, {
      "booleanValue" : null,
      "doubleValue" : null,
      "jsonValue" : null,
      "key" : "inactivityAlarmTime",
      "lastUpdateTs" : 1683707672075,
      "longValue" : 1683707672075,
      "strValue" : null
    }, {
      "booleanValue" : null,
      "doubleValue" : null,
      "jsonValue" : null,
      "key" : "jfdz",
      "lastUpdateTs" : 1683706796089,
      "longValue" : null,
      "strValue" : "xxxs"
    }, {
      "booleanValue" : null,
      "doubleValue" : null,
      "jsonValue" : null,
      "key" : "lastActivityTime",
      "lastUpdateTs" : 1683707504247,
      "longValue" : 1683707504246,
      "strValue" : null
    } ],
    "SHARED_SCOPE" : [ ]
  }
}