{
  "entityType" : "DEVICE",
  "entity" : {
    "additionalInfo" : null,
    "customerId" : {
      "entityType" : "CUSTOMER",
      "id" : "13814000-1dd2-11b2-8080-808080808080"
    },
    "deviceData" : {
      "configuration" : {
        "type" : "DEFAULT"
      },
      "transportConfiguration" : {
        "type" : "DEFAULT"
      }
    },
    "deviceProfileId" : {
      "entityType" : "DEVICE_PROFILE",
      "id" : "aef6b770-904d-11ee-a888-1d6093a7ee12"
    },
    "externalId" : {
      "entityType" : "DEVICE",
      "id" : "e61f2530-9358-11ee-b6d4-81d685ab2d2f"
    },
    "firmwareId" : null,
    "id" : {
      "entityType" : "DEVICE",
      "id" : "e61f2530-9358-11ee-b6d4-81d685ab2d2f"
    },
    "label" : null,
    "name" : "gfd",
    "softwareId" : null,
    "type" : "virtual nodes"
  },
  "credentials" : {
    "credentialsId" : "zzJgGj9shq61F1myFvIj",
    "credentialsType" : "ACCESS_TOKEN",
    "credentialsValue" : null
  },
  "attributes" : {
    "SERVER_SCOPE" : [ {
      "booleanValue" : false,
      "doubleValue" : null,
      "jsonValue" : null,
      "key" : "active",
      "lastUpdateTs" : 1701772221721,
      "longValue" : null,
      "strValue" : null
    }, {
      "booleanValue" : null,
      "doubleValue" : null,
      "jsonValue" : null,
      "key" : "inactivityAlarmTime",
      "lastUpdateTs" : 1701772221721,
      "longValue" : 1701772221721,
      "strValue" : null
    } ],
    "SHARED_SCOPE" : [ ]
  }
}