{
  "entityType" : "DEVICE",
  "entity" : {
    "additionalInfo" : null,
    "customerId" : {
      "entityType" : "CUSTOMER",
      "id" : "13814000-1dd2-11b2-8080-808080808080"
    },
    "deviceData" : {
      "configuration" : {
        "type" : "DEFAULT"
      },
      "transportConfiguration" : {
        "type" : "DEFAULT"
      }
    },
    "deviceProfileId" : {
      "entityType" : "DEVICE_PROFILE",
      "id" : "b3258d10-95d5-11ef-8fd8-05f5511a927e"
    },
    "externalId" : null,
    "firmwareId" : null,
    "id" : {
      "entityType" : "DEVICE",
      "id" : "ed23f770-961d-11ef-8fd8-05f5511a927e"
    },
    "label" : "C1",
    "name" : "Campata !",
    "softwareId" : null,
    "type" : "Damage Scenario"
  },
  "credentials" : {
    "credentialsId" : "TTV1ruDtFAmXk21HOOp8",
    "credentialsType" : "ACCESS_TOKEN",
    "credentialsValue" : null
  },
  "relations" : [ {
    "additionalInfo" : null,
    "from" : {
      "entityType" : "DEVICE",
      "id" : "ed23f770-961d-11ef-8fd8-05f5511a927e"
    },
    "to" : {
      "entityType" : "DEVICE",
      "id" : "7bb75b20-95e8-11ef-8fd8-05f5511a927e"
    },
    "type" : "Contains",
    "typeGroup" : "COMMON"
  }, {
    "additionalInfo" : null,
    "from" : {
      "entityType" : "DEVICE",
      "id" : "ed23f770-961d-11ef-8fd8-05f5511a927e"
    },
    "to" : {
      "entityType" : "DEVICE",
      "id" : "7bb78230-95e8-11ef-8fd8-05f5511a927e"
    },
    "type" : "Contains",
    "typeGroup" : "COMMON"
  }, {
    "additionalInfo" : null,
    "from" : {
      "entityType" : "DEVICE",
      "id" : "ed23f770-961d-11ef-8fd8-05f5511a927e"
    },
    "to" : {
      "entityType" : "DEVICE",
      "id" : "7bb7a940-95e8-11ef-8fd8-05f5511a927e"
    },
    "type" : "Contains",
    "typeGroup" : "COMMON"
  }, {
    "additionalInfo" : null,
    "from" : {
      "entityType" : "DEVICE",
      "id" : "ed23f770-961d-11ef-8fd8-05f5511a927e"
    },
    "to" : {
      "entityType" : "DEVICE",
      "id" : "7bb7d050-95e8-11ef-8fd8-05f5511a927e"
    },
    "type" : "Contains",
    "typeGroup" : "COMMON"
  }, {
    "additionalInfo" : null,
    "from" : {
      "entityType" : "DEVICE",
      "id" : "ed23f770-961d-11ef-8fd8-05f5511a927e"
    },
    "to" : {
      "entityType" : "DEVICE",
      "id" : "7bb7f760-95e8-11ef-8fd8-05f5511a927e"
    },
    "type" : "Contains",
    "typeGroup" : "COMMON"
  }, {
    "additionalInfo" : null,
    "from" : {
      "entityType" : "DEVICE",
      "id" : "ed23f770-961d-11ef-8fd8-05f5511a927e"
    },
    "to" : {
      "entityType" : "DEVICE",
      "id" : "7bb81e70-95e8-11ef-8fd8-05f5511a927e"
    },
    "type" : "Contains",
    "typeGroup" : "COMMON"
  }, {
    "additionalInfo" : null,
    "from" : {
      "entityType" : "ASSET",
      "id" : "6412e5d0-8af7-11ef-9e51-bd4861d58417"
    },
    "to" : {
      "entityType" : "DEVICE",
      "id" : "ed23f770-961d-11ef-8fd8-05f5511a927e"
    },
    "type" : "Contains",
    "typeGroup" : "COMMON"
  } ],
  "attributes" : {
    "SERVER_SCOPE" : [ {
      "booleanValue" : false,
      "doubleValue" : null,
      "jsonValue" : null,
      "key" : "active",
      "lastUpdateTs" : 1730224198169,
      "longValue" : null,
      "strValue" : null
    }, {
      "booleanValue" : null,
      "doubleValue" : null,
      "jsonValue" : null,
      "key" : "categoria",
      "lastUpdateTs" : 1730224075001,
      "longValue" : null,
      "strValue" : "STR"
    }, {
      "booleanValue" : null,
      "doubleValue" : null,
      "jsonValue" : "[{\"deviceName\":\"0400D084\",\"channel\":[{\"channel\":\"x\",\"dx\":0,\"dy\":0,\"dz\":-1}]},{\"deviceName\":\"0400D276\",\"channel\":[{\"channel\":\"x\",\"dx\":0,\"dy\":0,\"dz\":-1}]},{\"deviceName\":\"0400D153\",\"channel\":[{\"channel\":\"x\",\"dx\":0,\"dy\":0,\"dz\":-1}]},{\"deviceName\":\"0400D134\",\"channel\":[{\"channel\":\"x\",\"dx\":0,\"dy\":0,\"dz\":-1}]},{\"deviceName\":\"030F7BFE\",\"channel\":[{\"channel\":\"x\",\"dx\":0,\"dy\":0,\"dz\":-1}]},{\"deviceName\":\"030E7296\",\"channel\":[{\"channel\":\"x\",\"dx\":0,\"dy\":0,\"dz\":-1}]}]",
      "key" : "channel",
      "lastUpdateTs" : 1730224555712,
      "longValue" : null,
      "strValue" : null
    }, {
      "booleanValue" : null,
      "doubleValue" : null,
      "jsonValue" : null,
      "key" : "effeto",
      "lastUpdateTs" : 1730224075001,
      "longValue" : null,
      "strValue" : "Perdita di rigidezza dell’impalcato"
    }, {
      "booleanValue" : null,
      "doubleValue" : null,
      "jsonValue" : null,
      "key" : "inactivityAlarmTime",
      "lastUpdateTs" : 1730224198169,
      "longValue" : 1730224198169,
      "strValue" : null
    }, {
      "booleanValue" : null,
      "doubleValue" : null,
      "jsonValue" : null,
      "key" : "indicatoreDiDanno",
      "lastUpdateTs" : 1730224075001,
      "longValue" : null,
      "strValue" : "Variazione della risposta dinamica del sistema"
    }, {
      "booleanValue" : null,
      "doubleValue" : null,
      "jsonValue" : "[{\"node1L\":\"0400D084\",\"node2L\":\"0400D276\"},{\"node1L\":\"0400D084\",\"node2L\":\"0400D134\"},{\"node1L\":\"0400D134\",\"node2L\":\"030E7296\"},{\"node1L\":\"030E7296\",\"node2L\":\"030F7BFE\"},{\"node1L\":\"030F7BFE\",\"node2L\":\"0400D153\"},{\"node1L\":\"0400D153\",\"node2L\":\"0400D276\"}]",
      "key" : "lines",
      "lastUpdateTs" : 1730224669650,
      "longValue" : null,
      "strValue" : null
    }, {
      "booleanValue" : null,
      "doubleValue" : null,
      "jsonValue" : null,
      "key" : "scenario",
      "lastUpdateTs" : 1730224075001,
      "longValue" : null,
      "strValue" : "Situazioni evolutive di danno/degrado dovute ad azioni di esercizio"
    }, {
      "booleanValue" : null,
      "doubleValue" : null,
      "jsonValue" : "[{\"node1S\":\"0400D084\",\"node2S\":\"0400D276\",\"node3S\":\"030F7BFE\"},{\"node1S\":\"0400D084\",\"node2S\":\"030E7296\",\"node3S\":\"030F7BFE\"}]",
      "key" : "surfaces",
      "lastUpdateTs" : 1730224669653,
      "longValue" : null,
      "strValue" : null
    } ],
    "SHARED_SCOPE" : [ ]
  }
}