{
  "entityType" : "DEVICE",
  "entity" : {
    "additionalInfo" : {
      "gateway" : true,
      "overwriteActivityTime" : false,
      "description" : ""
    },
    "customerId" : {
      "entityType" : "CUSTOMER",
      "id" : "13814000-1dd2-11b2-8080-808080808080"
    },
    "deviceData" : {
      "configuration" : {
        "type" : "DEFAULT"
      },
      "transportConfiguration" : {
        "type" : "DEFAULT"
      }
    },
    "deviceProfileId" : {
      "entityType" : "DEVICE_PROFILE",
      "id" : "10e94390-3787-11ef-84c7-a35f39bcc696"
    },
    "externalId" : null,
    "firmwareId" : null,
    "id" : {
      "entityType" : "DEVICE",
      "id" : "edeed790-37a1-11ef-82ae-05ce59667d06"
    },
    "label" : "",
    "name" : "SHM ANALYSIS GATEWAY",
    "softwareId" : null,
    "type" : "frequency_tracking"
  },
  "credentials" : {
    "credentialsId" : "ZqRiVHbwsV6q6k9zQFGJ",
    "credentialsType" : "ACCESS_TOKEN",
    "credentialsValue" : null
  },
  "relations" : [ {
    "additionalInfo" : null,
    "from" : {
      "entityType" : "DEVICE",
      "id" : "edeed790-37a1-11ef-82ae-05ce59667d06"
    },
    "to" : {
      "entityType" : "DEVICE",
      "id" : "6d85fdd0-3941-11ef-b708-a3a07ce7bf5f"
    },
    "type" : "Created",
    "typeGroup" : "COMMON"
  }, {
    "additionalInfo" : null,
    "from" : {
      "entityType" : "DEVICE",
      "id" : "edeed790-37a1-11ef-82ae-05ce59667d06"
    },
    "to" : {
      "entityType" : "DEVICE",
      "id" : "6d9dcb90-3941-11ef-b708-a3a07ce7bf5f"
    },
    "type" : "Created",
    "typeGroup" : "COMMON"
  }, {
    "additionalInfo" : null,
    "from" : {
      "entityType" : "DEVICE",
      "id" : "edeed790-37a1-11ef-82ae-05ce59667d06"
    },
    "to" : {
      "entityType" : "DEVICE",
      "id" : "6d9f5230-3941-11ef-b708-a3a07ce7bf5f"
    },
    "type" : "Created",
    "typeGroup" : "COMMON"
  }, {
    "additionalInfo" : null,
    "from" : {
      "entityType" : "DEVICE",
      "id" : "edeed790-37a1-11ef-82ae-05ce59667d06"
    },
    "to" : {
      "entityType" : "DEVICE",
      "id" : "6da9b270-3941-11ef-b708-a3a07ce7bf5f"
    },
    "type" : "Created",
    "typeGroup" : "COMMON"
  }, {
    "additionalInfo" : null,
    "from" : {
      "entityType" : "DEVICE",
      "id" : "edeed790-37a1-11ef-82ae-05ce59667d06"
    },
    "to" : {
      "entityType" : "DEVICE",
      "id" : "6dac4a80-3941-11ef-b708-a3a07ce7bf5f"
    },
    "type" : "Created",
    "typeGroup" : "COMMON"
  }, {
    "additionalInfo" : null,
    "from" : {
      "entityType" : "DEVICE",
      "id" : "edeed790-37a1-11ef-82ae-05ce59667d06"
    },
    "to" : {
      "entityType" : "DEVICE",
      "id" : "6dad0dd0-3941-11ef-b708-a3a07ce7bf5f"
    },
    "type" : "Created",
    "typeGroup" : "COMMON"
  }, {
    "additionalInfo" : null,
    "from" : {
      "entityType" : "DEVICE",
      "id" : "edeed790-37a1-11ef-82ae-05ce59667d06"
    },
    "to" : {
      "entityType" : "DEVICE",
      "id" : "6dcddc40-3941-11ef-b708-a3a07ce7bf5f"
    },
    "type" : "Created",
    "typeGroup" : "COMMON"
  }, {
    "additionalInfo" : null,
    "from" : {
      "entityType" : "DEVICE",
      "id" : "edeed790-37a1-11ef-82ae-05ce59667d06"
    },
    "to" : {
      "entityType" : "DEVICE",
      "id" : "6e106380-3941-11ef-b708-a3a07ce7bf5f"
    },
    "type" : "Created",
    "typeGroup" : "COMMON"
  } ],
  "attributes" : {
    "SERVER_SCOPE" : [ {
      "booleanValue" : true,
      "doubleValue" : null,
      "jsonValue" : null,
      "key" : "active",
      "lastUpdateTs" : 1720199272314,
      "longValue" : null,
      "strValue" : null
    }, {
      "booleanValue" : null,
      "doubleValue" : null,
      "jsonValue" : null,
      "key" : "inactivityAlarmTime",
      "lastUpdateTs" : 1720199270574,
      "longValue" : 1720199270574,
      "strValue" : null
    }, {
      "booleanValue" : null,
      "doubleValue" : null,
      "jsonValue" : null,
      "key" : "inactivityTimeout",
      "lastUpdateTs" : 1719837423010,
      "longValue" : 120000,
      "strValue" : null
    }, {
      "booleanValue" : null,
      "doubleValue" : null,
      "jsonValue" : null,
      "key" : "lastActivityTime",
      "lastUpdateTs" : 1720199755315,
      "longValue" : 1720199753599,
      "strValue" : null
    }, {
      "booleanValue" : null,
      "doubleValue" : null,
      "jsonValue" : null,
      "key" : "lastConnectTime",
      "lastUpdateTs" : 1720196498100,
      "longValue" : 1720196498100,
      "strValue" : null
    }, {
      "booleanValue" : null,
      "doubleValue" : null,
      "jsonValue" : null,
      "key" : "lastDisconnectTime",
      "lastUpdateTs" : 1720195642328,
      "longValue" : 1720195642328,
      "strValue" : null
    }, {
      "booleanValue" : null,
      "doubleValue" : null,
      "jsonValue" : null,
      "key" : "lastInactivityAlarmTime",
      "lastUpdateTs" : 1719837423010,
      "longValue" : 0,
      "strValue" : null
    } ],
    "SHARED_SCOPE" : [ ]
  }
}