{
  "entityType" : "DEVICE",
  "entity" : {
    "additionalInfo" : null,
    "customerId" : {
      "entityType" : "CUSTOMER",
      "id" : "13814000-1dd2-11b2-8080-808080808080"
    },
    "deviceData" : {
      "configuration" : {
        "type" : "DEFAULT"
      },
      "transportConfiguration" : {
        "type" : "DEFAULT"
      }
    },
    "deviceProfileId" : {
      "entityType" : "DEVICE_PROFILE",
      "id" : "27b3efb0-980b-11ee-b6d4-81d685ab2d2f"
    },
    "externalId" : null,
    "firmwareId" : null,
    "id" : {
      "entityType" : "DEVICE",
      "id" : "ef04d060-becc-11ee-bee5-9fcebc70a874"
    },
    "label" : "",
    "name" : "Scenario 5",
    "softwareId" : null,
    "type" : "oma"
  },
  "credentials" : {
    "credentialsId" : "T6njToP1FsQ8BQBySrjT",
    "credentialsType" : "ACCESS_TOKEN",
    "credentialsValue" : null
  },
  "relations" : [ {
    "additionalInfo" : null,
    "from" : {
      "entityType" : "ASSET",
      "id" : "dad60eb0-b47c-11ee-8ec6-3d74b061a9fa"
    },
    "to" : {
      "entityType" : "DEVICE",
      "id" : "ef04d060-becc-11ee-bee5-9fcebc70a874"
    },
    "type" : "Contains",
    "typeGroup" : "COMMON"
  }, {
    "additionalInfo" : null,
    "from" : {
      "entityType" : "DEVICE",
      "id" : "ef04d060-becc-11ee-bee5-9fcebc70a874"
    },
    "to" : {
      "entityType" : "DEVICE",
      "id" : "c9cf8cd0-b4a5-11ee-8ec6-3d74b061a9fa"
    },
    "type" : "Contains",
    "typeGroup" : "COMMON"
  } ],
  "attributes" : {
    "SERVER_SCOPE" : [ {
      "booleanValue" : false,
      "doubleValue" : null,
      "jsonValue" : null,
      "key" : "active",
      "lastUpdateTs" : 1706719104478,
      "longValue" : null,
      "strValue" : null
    }, {
      "booleanValue" : null,
      "doubleValue" : null,
      "jsonValue" : "[{\"deviceName\":\"Inclinometer 2\",\"channel\":[{\"channel\":\"irrigationTask\",\"dx\":1,\"dy\":0,\"dz\":1}]}]",
      "key" : "channel",
      "lastUpdateTs" : 1709212940038,
      "longValue" : null,
      "strValue" : null
    }, {
      "booleanValue" : null,
      "doubleValue" : null,
      "jsonValue" : null,
      "key" : "currentPhi",
      "lastUpdateTs" : 1709907231490,
      "longValue" : null,
      "strValue" : ""
    }, {
      "booleanValue" : null,
      "doubleValue" : null,
      "jsonValue" : null,
      "key" : "inactivityAlarmTime",
      "lastUpdateTs" : 1706719104478,
      "longValue" : 1706719104477,
      "strValue" : null
    }, {
      "booleanValue" : null,
      "doubleValue" : null,
      "jsonValue" : null,
      "key" : "lastActivityTime",
      "lastUpdateTs" : 1706718936490,
      "longValue" : 1706718936468,
      "strValue" : null
    }, {
      "booleanValue" : null,
      "doubleValue" : null,
      "jsonValue" : "[\"1\",\"1.2\",\"1.3\"]",
      "key" : "peaks",
      "lastUpdateTs" : 1706794222527,
      "longValue" : null,
      "strValue" : null
    } ],
    "SHARED_SCOPE" : [ ]
  }
}