{
  "entityType" : "DEVICE",
  "entity" : {
    "additionalInfo" : {
      "gateway" : true,
      "overwriteActivityTime" : false,
      "description" : ""
    },
    "customerId" : {
      "entityType" : "CUSTOMER",
      "id" : "13814000-1dd2-11b2-8080-808080808080"
    },
    "deviceData" : {
      "configuration" : {
        "type" : "DEFAULT"
      },
      "transportConfiguration" : {
        "type" : "DEFAULT"
      }
    },
    "deviceProfileId" : {
      "entityType" : "DEVICE_PROFILE",
      "id" : "c1211600-c9a2-11ee-9bae-8b2ec629601c"
    },
    "externalId" : null,
    "firmwareId" : null,
    "id" : {
      "entityType" : "DEVICE",
      "id" : "fb425280-3b68-11ef-8891-0db6cd2e5de0"
    },
    "label" : "",
    "name" : "FREQ_TRAC_GATEWAY",
    "softwareId" : null,
    "type" : "gateway"
  },
  "credentials" : {
    "credentialsId" : "ZEWudiyC2x5Nj34rmz6I",
    "credentialsType" : "ACCESS_TOKEN",
    "credentialsValue" : null
  },
  "relations" : [ {
    "additionalInfo" : null,
    "from" : {
      "entityType" : "DEVICE",
      "id" : "fb425280-3b68-11ef-8891-0db6cd2e5de0"
    },
    "to" : {
      "entityType" : "DEVICE",
      "id" : "2c49bde5-3c82-11ef-8202-ff4a49371549"
    },
    "type" : "Created",
    "typeGroup" : "COMMON"
  }, {
    "additionalInfo" : null,
    "from" : {
      "entityType" : "DEVICE",
      "id" : "fb425280-3b68-11ef-8891-0db6cd2e5de0"
    },
    "to" : {
      "entityType" : "DEVICE",
      "id" : "2c6709e1-3c82-11ef-8202-ff4a49371549"
    },
    "type" : "Created",
    "typeGroup" : "COMMON"
  }, {
    "additionalInfo" : null,
    "from" : {
      "entityType" : "DEVICE",
      "id" : "fb425280-3b68-11ef-8891-0db6cd2e5de0"
    },
    "to" : {
      "entityType" : "DEVICE",
      "id" : "2c6b0182-3c82-11ef-8202-ff4a49371549"
    },
    "type" : "Created",
    "typeGroup" : "COMMON"
  }, {
    "additionalInfo" : null,
    "from" : {
      "entityType" : "DEVICE",
      "id" : "fb425280-3b68-11ef-8891-0db6cd2e5de0"
    },
    "to" : {
      "entityType" : "DEVICE",
      "id" : "2c727b90-3c82-11ef-8202-ff4a49371549"
    },
    "type" : "Created",
    "typeGroup" : "COMMON"
  }, {
    "additionalInfo" : null,
    "from" : {
      "entityType" : "DEVICE",
      "id" : "fb425280-3b68-11ef-8891-0db6cd2e5de0"
    },
    "to" : {
      "entityType" : "DEVICE",
      "id" : "2c72f0d4-3c82-11ef-8202-ff4a49371549"
    },
    "type" : "Created",
    "typeGroup" : "COMMON"
  }, {
    "additionalInfo" : null,
    "from" : {
      "entityType" : "DEVICE",
      "id" : "fb425280-3b68-11ef-8891-0db6cd2e5de0"
    },
    "to" : {
      "entityType" : "DEVICE",
      "id" : "2c7513a4-3c82-11ef-8202-ff4a49371549"
    },
    "type" : "Created",
    "typeGroup" : "COMMON"
  }, {
    "additionalInfo" : null,
    "from" : {
      "entityType" : "DEVICE",
      "id" : "fb425280-3b68-11ef-8891-0db6cd2e5de0"
    },
    "to" : {
      "entityType" : "DEVICE",
      "id" : "2cd05300-3c82-11ef-8202-ff4a49371549"
    },
    "type" : "Created",
    "typeGroup" : "COMMON"
  }, {
    "additionalInfo" : null,
    "from" : {
      "entityType" : "DEVICE",
      "id" : "fb425280-3b68-11ef-8891-0db6cd2e5de0"
    },
    "to" : {
      "entityType" : "DEVICE",
      "id" : "2db275a0-3c82-11ef-8202-ff4a49371549"
    },
    "type" : "Created",
    "typeGroup" : "COMMON"
  } ],
  "attributes" : {
    "SERVER_SCOPE" : [ {
      "booleanValue" : false,
      "doubleValue" : null,
      "jsonValue" : null,
      "key" : "active",
      "lastUpdateTs" : 1722587231828,
      "longValue" : null,
      "strValue" : null
    }, {
      "booleanValue" : null,
      "doubleValue" : null,
      "jsonValue" : null,
      "key" : "inactivityAlarmTime",
      "lastUpdateTs" : 1722587231829,
      "longValue" : 1722587231828,
      "strValue" : null
    }, {
      "booleanValue" : null,
      "doubleValue" : null,
      "jsonValue" : null,
      "key" : "lastActivityTime",
      "lastUpdateTs" : 1722587098612,
      "longValue" : 1722587095969,
      "strValue" : null
    }, {
      "booleanValue" : null,
      "doubleValue" : null,
      "jsonValue" : null,
      "key" : "lastConnectTime",
      "lastUpdateTs" : 1722586965733,
      "longValue" : 1722586965733,
      "strValue" : null
    }, {
      "booleanValue" : null,
      "doubleValue" : null,
      "jsonValue" : null,
      "key" : "lastDisconnectTime",
      "lastUpdateTs" : 1722587095975,
      "longValue" : 1722587095975,
      "strValue" : null
    } ],
    "SHARED_SCOPE" : [ ]
  }
}