{
  "entityType" : "RULE_CHAIN",
  "entity" : {
    "additionalInfo" : {
      "description" : ""
    },
    "configuration" : null,
    "debugMode" : false,
    "externalId" : null,
    "firstRuleNodeId" : {
      "entityType" : "RULE_NODE",
      "id" : "3aee7890-888c-11ee-bee5-6fcf9d9eeda4"
    },
    "id" : {
      "entityType" : "RULE_CHAIN",
      "id" : "121acf90-888c-11ee-bee5-6fcf9d9eeda4"
    },
    "name" : "vbnm",
    "root" : false,
    "type" : "CORE"
  },
  "metaData" : {
    "connections" : [ {
      "fromIndex" : 2,
      "toIndex" : 0,
      "type" : "Post telemetry"
    }, {
      "fromIndex" : 2,
      "toIndex" : 1,
      "type" : "Post attributes"
    }, {
      "fromIndex" : 2,
      "toIndex" : 3,
      "type" : "RPC Request from Device"
    }, {
      "fromIndex" : 2,
      "toIndex" : 4,
      "type" : "Other"
    }, {
      "fromIndex" : 2,
      "toIndex" : 5,
      "type" : "RPC Request to Device"
    }, {
      "fromIndex" : 2,
      "toIndex" : 7,
      "type" : "Activity Event"
    }, {
      "fromIndex" : 2,
      "toIndex" : 7,
      "type" : "Inactivity Event"
    }, {
      "fromIndex" : 2,
      "toIndex" : 8,
      "type" : "Attributes Updated"
    }, {
      "fromIndex" : 6,
      "toIndex" : 2,
      "type" : "Success"
    } ],
    "firstNodeIndex" : 6,
    "nodes" : [ {
      "additionalInfo" : {
        "description" : null,
        "layoutX" : 886,
        "layoutY" : 215
      },
      "configuration" : {
        "defaultTTL" : 0
      },
      "createdTime" : 0,
      "debugMode" : false,
      "externalId" : null,
      "id" : {
        "entityType" : "RULE_NODE",
        "id" : "3ae7c1d0-888c-11ee-bee5-6fcf9d9eeda4"
      },
      "name" : "Save Timeseries",
      "ruleChainId" : null,
      "singletonMode" : false,
      "type" : "org.thingsboard.rule.engine.telemetry.TbMsgTimeseriesNode"
    }, {
      "additionalInfo" : {
        "description" : null,
        "layoutX" : 620,
        "layoutY" : 131
      },
      "configuration" : {
        "scope" : "CLIENT_SCOPE",
        "notifyDevice" : "false"
      },
      "createdTime" : 0,
      "debugMode" : false,
      "externalId" : null,
      "id" : {
        "entityType" : "RULE_NODE",
        "id" : "3ae92160-888c-11ee-bee5-6fcf9d9eeda4"
      },
      "name" : "Save Client Attributes",
      "ruleChainId" : null,
      "singletonMode" : false,
      "type" : "org.thingsboard.rule.engine.telemetry.TbMsgAttributesNode"
    }, {
      "additionalInfo" : {
        "description" : null,
        "layoutX" : 344,
        "layoutY" : 231
      },
      "configuration" : {
        "version" : 0
      },
      "createdTime" : 0,
      "debugMode" : false,
      "externalId" : null,
      "id" : {
        "entityType" : "RULE_NODE",
        "id" : "3aea0bc0-888c-11ee-bee5-6fcf9d9eeda4"
      },
      "name" : "Message Type Switch",
      "ruleChainId" : null,
      "singletonMode" : false,
      "type" : "org.thingsboard.rule.engine.filter.TbMsgTypeSwitchNode"
    }, {
      "additionalInfo" : {
        "description" : null,
        "layoutX" : 620,
        "layoutY" : 345
      },
      "configuration" : {
        "scriptLang" : "TBEL",
        "jsScript" : "return '\\nIncoming message:\\n' + JSON.stringify(msg) + '\\nIncoming metadata:\\n' + JSON.stringify(metadata);",
        "tbelScript" : "return '\\nIncoming message:\\n' + JSON.stringify(msg) + '\\nIncoming metadata:\\n' + JSON.stringify(metadata);"
      },
      "createdTime" : 0,
      "debugMode" : false,
      "externalId" : null,
      "id" : {
        "entityType" : "RULE_NODE",
        "id" : "3aeb4440-888c-11ee-bee5-6fcf9d9eeda4"
      },
      "name" : "Log RPC from Device",
      "ruleChainId" : null,
      "singletonMode" : false,
      "type" : "org.thingsboard.rule.engine.action.TbLogNode"
    }, {
      "additionalInfo" : {
        "layoutX" : 620,
        "layoutY" : 458
      },
      "configuration" : {
        "scriptLang" : "TBEL",
        "jsScript" : "return '\\nIncoming message:\\n' + JSON.stringify(msg) + '\\nIncoming metadata:\\n' + JSON.stringify(metadata);",
        "tbelScript" : "return '\\nIncoming message:\\n' + JSON.stringify(msg) + '\\nIncoming metadata:\\n' + JSON.stringify(metadata);"
      },
      "createdTime" : 0,
      "debugMode" : false,
      "externalId" : null,
      "id" : {
        "entityType" : "RULE_NODE",
        "id" : "3aec55b0-888c-11ee-bee5-6fcf9d9eeda4"
      },
      "name" : "Log Other",
      "ruleChainId" : null,
      "singletonMode" : false,
      "type" : "org.thingsboard.rule.engine.action.TbLogNode"
    }, {
      "additionalInfo" : {
        "description" : null,
        "layoutX" : 620,
        "layoutY" : 547
      },
      "configuration" : {
        "timeoutInSeconds" : 60
      },
      "createdTime" : 0,
      "debugMode" : false,
      "externalId" : null,
      "id" : {
        "entityType" : "RULE_NODE",
        "id" : "3aed4010-888c-11ee-bee5-6fcf9d9eeda4"
      },
      "name" : "RPC Call Request",
      "ruleChainId" : null,
      "singletonMode" : false,
      "type" : "org.thingsboard.rule.engine.rpc.TbSendRPCRequestNode"
    }, {
      "additionalInfo" : {
        "description" : "Process incoming messages from devices with the alarm rules defined in the device profile. Dispatch all incoming messages with \"Success\" relation type.",
        "layoutX" : 54,
        "layoutY" : 230
      },
      "configuration" : {
        "persistAlarmRulesState" : false,
        "fetchAlarmRulesStateOnStart" : false
      },
      "createdTime" : 0,
      "debugMode" : false,
      "externalId" : null,
      "id" : {
        "entityType" : "RULE_NODE",
        "id" : "3aee7890-888c-11ee-bee5-6fcf9d9eeda4"
      },
      "name" : "Device Profile Node",
      "ruleChainId" : null,
      "singletonMode" : false,
      "type" : "org.thingsboard.rule.engine.profile.TbDeviceProfileNode"
    }, {
      "additionalInfo" : {
        "description" : "",
        "layoutX" : 592,
        "layoutY" : 644
      },
      "configuration" : {
        "scriptLang" : "TBEL",
        "jsScript" : "return '\\nIncoming message:\\n' + JSON.stringify(msg) + '\\nIncoming metadata:\\n' + JSON.stringify(metadata);",
        "tbelScript" : "return '\\nIncoming message:\\n' + JSON.stringify(msg) + '\\nIncoming metadata:\\n' + JSON.stringify(metadata);"
      },
      "createdTime" : 0,
      "debugMode" : false,
      "externalId" : null,
      "id" : {
        "entityType" : "RULE_NODE",
        "id" : "3aef3be0-888c-11ee-bee5-6fcf9d9eeda4"
      },
      "name" : "log",
      "ruleChainId" : null,
      "singletonMode" : false,
      "type" : "org.thingsboard.rule.engine.action.TbLogNode"
    }, {
      "additionalInfo" : {
        "description" : "",
        "layoutX" : 534,
        "layoutY" : 802
      },
      "configuration" : {
        "deviceRelationsQuery" : {
          "fetchLastLevelOnly" : false,
          "direction" : "FROM",
          "maxLevel" : 1,
          "relationType" : "Contains",
          "deviceTypes" : [ "default", "sensor", "BRIDGE" ]
        },
        "tellFailureIfAbsent" : true,
        "fetchToData" : false,
        "clientAttributeNames" : [ ],
        "sharedAttributeNames" : [ ],
        "serverAttributeNames" : [ ],
        "latestTsKeyNames" : [ ],
        "getLatestValueWithTs" : false
      },
      "createdTime" : 0,
      "debugMode" : false,
      "externalId" : null,
      "id" : {
        "entityType" : "RULE_NODE",
        "id" : "3af02640-888c-11ee-bee5-6fcf9d9eeda4"
      },
      "name" : "test",
      "ruleChainId" : null,
      "singletonMode" : false,
      "type" : "org.thingsboard.rule.engine.ora.relatedattributes.TbGetDeviceAttrNodeOra"
    } ],
    "ruleChainConnections" : null
  },
  "relations" : [ ],
  "attributes" : {
    "SERVER_SCOPE" : [ ]
  }
}