{
  "entityType" : "RULE_CHAIN",
  "entity" : {
    "additionalInfo" : {
      "description" : ""
    },
    "configuration" : null,
    "debugMode" : false,
    "externalId" : {
      "entityType" : "RULE_CHAIN",
      "id" : "24cf2830-ed86-11ed-b693-4dcc77d26f5c"
    },
    "firstRuleNodeId" : null,
    "id" : {
      "entityType" : "RULE_CHAIN",
      "id" : "24cf2830-ed86-11ed-b693-4dcc77d26f5c"
    },
    "name" : "RPC",
    "root" : false,
    "type" : "EDGE"
  },
  "metaData" : {
    "connections" : null,
    "firstNodeIndex" : null,
    "nodes" : [ ],
    "ruleChainConnections" : null
  },
  "relations" : [ ],
  "attributes" : {
    "SERVER_SCOPE" : [ ]
  }
}