{
  "entityType" : "RULE_CHAIN",
  "entity" : {
    "additionalInfo" : {
      "description" : ""
    },
    "configuration" : null,
    "debugMode" : false,
    "externalId" : null,
    "firstRuleNodeId" : {
      "entityType" : "RULE_NODE",
      "id" : "a19e8600-3937-11ef-bd2c-c5fe1c0c5f29"
    },
    "id" : {
      "entityType" : "RULE_CHAIN",
      "id" : "3e271d30-3937-11ef-bd2c-c5fe1c0c5f29"
    },
    "name" : "control_chart_train_and_deployment",
    "root" : false,
    "type" : "CORE"
  },
  "metaData" : {
    "connections" : [ {
      "fromIndex" : 0,
      "toIndex" : 1,
      "type" : "Success"
    }, {
      "fromIndex" : 2,
      "toIndex" : 3,
      "type" : "Success"
    }, {
      "fromIndex" : 3,
      "toIndex" : 4,
      "type" : "Success"
    }, {
      "fromIndex" : 4,
      "toIndex" : 5,
      "type" : "Success"
    }, {
      "fromIndex" : 5,
      "toIndex" : 6,
      "type" : "Success"
    }, {
      "fromIndex" : 6,
      "toIndex" : 9,
      "type" : "Success"
    }, {
      "fromIndex" : 7,
      "toIndex" : 2,
      "type" : "Success"
    }, {
      "fromIndex" : 8,
      "toIndex" : 0,
      "type" : "Success"
    } ],
    "firstNodeIndex" : 7,
    "nodes" : [ {
      "additionalInfo" : {
        "description" : "",
        "layoutX" : 328,
        "layoutY" : 326
      },
      "configuration" : {
        "version" : 0
      },
      "configurationVersion" : 0,
      "createdTime" : 0,
      "debugMode" : true,
      "externalId" : null,
      "id" : {
        "entityType" : "RULE_NODE",
        "id" : "a1944cd0-3937-11ef-bd2c-c5fe1c0c5f29"
      },
      "name" : "split",
      "ruleChainId" : null,
      "singletonMode" : false,
      "type" : "org.thingsboard.rule.engine.transform.TbSplitArrayMsgNode"
    }, {
      "additionalInfo" : {
        "description" : "",
        "layoutX" : 323,
        "layoutY" : 417
      },
      "configuration" : {
        "topicPattern" : "/analysis/control_chart",
        "host" : "10.86.20.129",
        "port" : 1883,
        "connectTimeoutSec" : 10,
        "clientId" : null,
        "cleanSession" : true,
        "retainedMessage" : false,
        "ssl" : false,
        "credentials" : {
          "type" : "anonymous"
        }
      },
      "configurationVersion" : 0,
      "createdTime" : 0,
      "debugMode" : true,
      "externalId" : null,
      "id" : {
        "entityType" : "RULE_NODE",
        "id" : "a1958550-3937-11ef-bd2c-c5fe1c0c5f29"
      },
      "name" : "push to frequency analysis",
      "ruleChainId" : null,
      "singletonMode" : false,
      "type" : "org.thingsboard.rule.engine.mqtt.TbMqttNode"
    }, {
      "additionalInfo" : {
        "description" : "",
        "layoutX" : 588,
        "layoutY" : 59
      },
      "configuration" : {
        "scriptLang" : "JS",
        "jsScript" : " var array = [];\nfunction groupMessagesByStartTime(messages) {\n  // Loop through each frequency in the result\n  Object.keys(messages.result.control_chart.control_chart).forEach(function(key){\n    var frequencyData = messages.result.control_chart.control_chart[key];\n    array.push(frequencyData);\n  });\n\n  return groupedMessages;\n}\nvar groupedMessages = groupMessagesByStartTime(msg);\n// array.push(groupedMessages);\nmetadata.scenario_name = msg.scenario_name;\nmetadata.control_chart_train = false;\nmetadata.control_chart_deployment = false;\n\nif(msg.result.control_chart.request.request.type == \"control_chart_train\"){\n    metadata.control_chart_train = true;\n}\nif(msg.result.control_chart.request.request.type == \"control_chart_deployment\"){\n    metadata.control_chart_deployment = true;\n}\nif(metadata.control_chart_deployment == true){\n    metadata.control_chart_train = true;\n}\n\nreturn {msg: array, metadata: metadata, msgType: msgType};",
        "tbelScript" : "return {msg: msg, metadata: metadata, msgType: msgType};"
      },
      "configurationVersion" : 0,
      "createdTime" : 0,
      "debugMode" : true,
      "externalId" : null,
      "id" : {
        "entityType" : "RULE_NODE",
        "id" : "a1973300-3937-11ef-bd2c-c5fe1c0c5f29"
      },
      "name" : "save grouped data",
      "ruleChainId" : null,
      "singletonMode" : false,
      "type" : "org.thingsboard.rule.engine.transform.TbTransformMsgNode"
    }, {
      "additionalInfo" : {
        "description" : "",
        "layoutX" : 576,
        "layoutY" : 152
      },
      "configuration" : {
        "version" : 0
      },
      "configurationVersion" : 0,
      "createdTime" : 0,
      "debugMode" : true,
      "externalId" : null,
      "id" : {
        "entityType" : "RULE_NODE",
        "id" : "a198b9a0-3937-11ef-bd2c-c5fe1c0c5f29"
      },
      "name" : "split to schenario",
      "ruleChainId" : null,
      "singletonMode" : false,
      "type" : "org.thingsboard.rule.engine.transform.TbSplitArrayMsgNode"
    }, {
      "additionalInfo" : {
        "description" : "",
        "layoutX" : 577,
        "layoutY" : 235
      },
      "configuration" : {
        "scriptLang" : "JS",
        "jsScript" : "var dateTimeString = msg.date_time;\nvar date = new Date(dateTimeString);\nvar formattedDate = date.toISOString().replace(/T/, ' ').replace(/\\..+/, '');\n\n\n// // Get the Unix timestamp in milliseconds\nvar ts = date.getTime();\n\n\n var state_tracking = [];\n \n if (metadata.control_chart_deployment == 'true') {\n     var state = {\n         name : \"control_chart_deployment\",\n         status: \"DONE\",\n         timestamp: formattedDate\n     };\n     state_tracking.push(state);\n }\n\n\n if (metadata.control_chart_train == 'true') {\n     var state = {\n         name : \"control_chart_train\",\n         status: \"DONE\",\n         timestamp: formattedDate\n     };\n     state_tracking.push(state);\n }\n\n//TODO check this\n\n\nvar payload = {\n    \"ts\": ts,  \n    \"values\": {\n        \"hotelling_distance\": msg.hotelling_distance,\n        \"state_tracking\": state_tracking,\n        \"control_chart_train\": true\n        \n    }\n}\n\n\nreturn {msg: payload, metadata: metadata, msgType: msgType};",
        "tbelScript" : "return {msg: msg, metadata: metadata, msgType: msgType};"
      },
      "configurationVersion" : 0,
      "createdTime" : 0,
      "debugMode" : true,
      "externalId" : null,
      "id" : {
        "entityType" : "RULE_NODE",
        "id" : "a199f220-3937-11ef-bd2c-c5fe1c0c5f29"
      },
      "name" : "Prepare to override scenario results",
      "ruleChainId" : null,
      "singletonMode" : false,
      "type" : "org.thingsboard.rule.engine.transform.TbTransformMsgNode"
    }, {
      "additionalInfo" : {
        "description" : "",
        "layoutX" : 585,
        "layoutY" : 327
      },
      "configuration" : {
        "originatorSource" : "ENTITY",
        "entityType" : "DEVICE",
        "entityNamePattern" : "${scenario_name}",
        "relationsQuery" : {
          "direction" : "FROM",
          "maxLevel" : 1,
          "filters" : [ {
            "relationType" : "Contains",
            "entityTypes" : [ ]
          } ],
          "fetchLastLevelOnly" : false
        }
      },
      "configurationVersion" : 0,
      "createdTime" : 0,
      "debugMode" : true,
      "externalId" : null,
      "id" : {
        "entityType" : "RULE_NODE",
        "id" : "a19b78c0-3937-11ef-bd2c-c5fe1c0c5f29"
      },
      "name" : "Change originator",
      "ruleChainId" : null,
      "singletonMode" : false,
      "type" : "org.thingsboard.rule.engine.transform.TbChangeOriginatorNode"
    }, {
      "additionalInfo" : {
        "description" : "",
        "layoutX" : 590,
        "layoutY" : 410
      },
      "configuration" : {
        "scriptLang" : "JS",
        "jsScript" : "var activePhases = []\nvar passivePhases = []\nif (metadata.control_chart_train == 'true') {\n    activePhases.push(\"control_chart_train\")\n}else{\n    passivePhases.push(\"control_chart_train\")\n}\nif (metadata.control_chart_deployment == 'true') {\n    activePhases.push(\"control_chart_deployment\")\n}else{\n    passivePhases.push(\"control_chart_deployment\")\n}\nmsg.values.phases= {\n    \"active\":activePhases,\n    \"passive\": passivePhases\n}\nmsg.values.control_chart_train = metadata.control_chart_train;\nreturn {msg: msg, metadata: metadata, msgType: msgType};",
        "tbelScript" : "return {msg: msg, metadata: metadata, msgType: msgType};"
      },
      "configurationVersion" : 0,
      "createdTime" : 0,
      "debugMode" : true,
      "externalId" : null,
      "id" : {
        "entityType" : "RULE_NODE",
        "id" : "a19d2670-3937-11ef-bd2c-c5fe1c0c5f29"
      },
      "name" : "split message phases",
      "ruleChainId" : null,
      "singletonMode" : false,
      "type" : "org.thingsboard.rule.engine.transform.TbTransformMsgNode"
    }, {
      "additionalInfo" : {
        "description" : "",
        "layoutX" : 316,
        "layoutY" : 155
      },
      "configuration" : {
        "scriptLang" : "JS",
        "jsScript" : "var result = {};\n\nif (msg.result.hasOwnProperty('control_chart_train')) {\n     result = {\n        control_chart: msg.result.control_chart_train\n    };\n}\nif (msg.result.hasOwnProperty('control_chart_deployment')) {\n     result = {\n        control_chart: msg.result.control_chart_deployment\n    };\n}\n\n\n\nvar newMsg = {\n    scenario_name : msg.scenario_name,\n    scenario_type : msg.scenario_type,\n    state_tracking : msg.state_tracking,\n    result : result\n}\n\nreturn {msg: newMsg, metadata: metadata, msgType: msgType};",
        "tbelScript" : "return {msg: msg, metadata: metadata, msgType: msgType};"
      },
      "configurationVersion" : 0,
      "createdTime" : 0,
      "debugMode" : true,
      "externalId" : null,
      "id" : {
        "entityType" : "RULE_NODE",
        "id" : "a19e8600-3937-11ef-bd2c-c5fe1c0c5f29"
      },
      "name" : "dublicate lines",
      "ruleChainId" : null,
      "singletonMode" : false,
      "type" : "org.thingsboard.rule.engine.transform.TbTransformMsgNode"
    }, {
      "additionalInfo" : {
        "description" : "",
        "layoutX" : 318,
        "layoutY" : 249
      },
      "configuration" : {
        "scriptLang" : "JS",
        "jsScript" : "var control_chart = msg.result.control_chart.control_chart;\nvar list = Object.keys(control_chart).map(function(key) {\n    var obj = control_chart[key];\n    obj.scenario_name = msg.scenario_name;\n    obj.scenario_type = msg.scenario_type;\n    obj.infrastructure = msg.result.control_chart.infrastructure;\n    obj.group = msg.result.control_chart.group;\n    obj.start_time = new Date(control_chart[key].start_time).getTime();\n    obj.device_name = msg.result.control_chart.infrastructure + \"_\" + msg.result.control_chart.group + \"_\" + obj.frequency_tracking_id;\n    return obj;\n});\n\nreturn {\n    msg: list,\n    metadata: metadata,\n    msgType: msgType\n};",
        "tbelScript" : "return {msg: msg, metadata: metadata, msgType: msgType};"
      },
      "configurationVersion" : 0,
      "createdTime" : 0,
      "debugMode" : true,
      "externalId" : null,
      "id" : {
        "entityType" : "RULE_NODE",
        "id" : "a19fe590-3937-11ef-bd2c-c5fe1c0c5f29"
      },
      "name" : "prepare for save to postgres",
      "ruleChainId" : null,
      "singletonMode" : false,
      "type" : "org.thingsboard.rule.engine.transform.TbTransformMsgNode"
    }, {
      "additionalInfo" : {
        "description" : "",
        "layoutX" : 589,
        "layoutY" : 488
      },
      "configuration" : {
        "defaultTTL" : 0,
        "skipLatestPersistence" : false,
        "useServerTs" : false
      },
      "configurationVersion" : 0,
      "createdTime" : 0,
      "debugMode" : true,
      "externalId" : null,
      "id" : {
        "entityType" : "RULE_NODE",
        "id" : "429317f0-3939-11ef-b708-a3a07ce7bf5f"
      },
      "name" : "overwrite results to schenario",
      "ruleChainId" : null,
      "singletonMode" : false,
      "type" : "org.thingsboard.rule.engine.telemetry.TbMsgTimeseriesNode"
    } ],
    "ruleChainConnections" : null
  },
  "relations" : [ ],
  "attributes" : {
    "SERVER_SCOPE" : [ ]
  }
}