{
  "entityType" : "RULE_CHAIN",
  "entity" : {
    "additionalInfo" : {
      "description" : "This node is for building rpc request for analysis. It comes 2 type of request, from scheduler (START_SHCHEDULER) and manually as update attributes with flag rpc=true"
    },
    "configuration" : null,
    "debugMode" : false,
    "externalId" : null,
    "firstRuleNodeId" : {
      "entityType" : "RULE_NODE",
      "id" : "ed036af0-87d6-11ef-9e51-bd4861d58417"
    },
    "id" : {
      "entityType" : "RULE_CHAIN",
      "id" : "eceb9d30-87d6-11ef-9e51-bd4861d58417"
    },
    "name" : "Analysis Request",
    "root" : false,
    "type" : "CORE"
  },
  "metaData" : {
    "connections" : [ {
      "fromIndex" : 0,
      "toIndex" : 1,
      "type" : "Success"
    }, {
      "fromIndex" : 2,
      "toIndex" : 4,
      "type" : "Success"
    }, {
      "fromIndex" : 3,
      "toIndex" : 6,
      "type" : "Success"
    }, {
      "fromIndex" : 4,
      "toIndex" : 3,
      "type" : "Success"
    }, {
      "fromIndex" : 5,
      "toIndex" : 0,
      "type" : "Success"
    }, {
      "fromIndex" : 6,
      "toIndex" : 5,
      "type" : "Success"
    }, {
      "fromIndex" : 7,
      "toIndex" : 0,
      "type" : "Success"
    }, {
      "fromIndex" : 8,
      "toIndex" : 2,
      "type" : "MANUALLY"
    }, {
      "fromIndex" : 8,
      "toIndex" : 10,
      "type" : "SCHEDULER"
    }, {
      "fromIndex" : 9,
      "toIndex" : 12,
      "type" : "Success"
    }, {
      "fromIndex" : 10,
      "toIndex" : 11,
      "type" : "Success"
    }, {
      "fromIndex" : 11,
      "toIndex" : 9,
      "type" : "Success"
    }, {
      "fromIndex" : 12,
      "toIndex" : 7,
      "type" : "Success"
    } ],
    "firstNodeIndex" : 8,
    "nodes" : [ {
      "additionalInfo" : {
        "description" : "",
        "layoutX" : 950,
        "layoutY" : 141
      },
      "configuration" : {
        "originatorSource" : "RELATED",
        "entityType" : null,
        "entityNamePattern" : null,
        "relationsQuery" : {
          "fetchLastLevelOnly" : false,
          "direction" : "TO",
          "maxLevel" : 1,
          "filters" : [ {
            "relationType" : "ANALYSIS",
            "entityTypes" : [ "DEVICE" ]
          } ]
        }
      },
      "configurationVersion" : 0,
      "createdTime" : 0,
      "debugMode" : false,
      "externalId" : null,
      "id" : {
        "entityType" : "RULE_NODE",
        "id" : "ecfe88f0-87d6-11ef-9e51-bd4861d58417"
      },
      "name" : "Change Orginator From Scenario To Processor_Analysis",
      "ruleChainId" : null,
      "singletonMode" : false,
      "type" : "org.thingsboard.rule.engine.transform.TbChangeOriginatorNode"
    }, {
      "additionalInfo" : {
        "description" : "",
        "layoutX" : 1214,
        "layoutY" : 140
      },
      "configuration" : {
        "timeoutInSeconds" : 60
      },
      "configurationVersion" : 0,
      "createdTime" : 0,
      "debugMode" : false,
      "externalId" : null,
      "id" : {
        "entityType" : "RULE_NODE",
        "id" : "ecff9a60-87d6-11ef-9e51-bd4861d58417"
      },
      "name" : "Send Analysis Rpc",
      "ruleChainId" : null,
      "singletonMode" : false,
      "type" : "org.thingsboard.rule.engine.rpc.TbSendRPCRequestNode"
    }, {
      "additionalInfo" : {
        "description" : "",
        "layoutX" : 394,
        "layoutY" : 33
      },
      "configuration" : {
        "dataMapping" : {
          "name" : "scenario_name",
          "type" : "scenario_type",
          "id" : "originator_id"
        },
        "ignoreNullStrings" : false,
        "fetchTo" : "METADATA"
      },
      "configurationVersion" : 1,
      "createdTime" : 0,
      "debugMode" : false,
      "externalId" : null,
      "id" : {
        "entityType" : "RULE_NODE",
        "id" : "ed005db0-87d6-11ef-9e51-bd4861d58417"
      },
      "name" : "get schenario name type and id",
      "ruleChainId" : null,
      "singletonMode" : false,
      "type" : "org.thingsboard.rule.engine.metadata.TbGetOriginatorFieldsNode"
    }, {
      "additionalInfo" : {
        "description" : "",
        "layoutX" : 609,
        "layoutY" : 30
      },
      "configuration" : {
        "deviceRelationsQuery" : {
          "fetchLastLevelOnly" : false,
          "direction" : "FROM",
          "maxLevel" : 1,
          "relationType" : "Contains",
          "deviceTypes" : [ "Scenarios", "Accelerometer", "Inclinometer" ]
        },
        "tellFailureIfAbsent" : true,
        "fetchToData" : false,
        "clientAttributeNames" : [ ],
        "sharedAttributeNames" : [ ],
        "serverAttributeNames" : [ "x", "y", "z" ],
        "latestTsKeyNames" : [ ],
        "getLatestValueWithTs" : false
      },
      "configurationVersion" : 0,
      "createdTime" : 0,
      "debugMode" : false,
      "externalId" : null,
      "id" : {
        "entityType" : "RULE_NODE",
        "id" : "ed00d2e0-87d6-11ef-9e51-bd4861d58417"
      },
      "name" : "fetch related channels",
      "ruleChainId" : null,
      "singletonMode" : false,
      "type" : "org.thingsboard.rule.engine.ora.relatedattributes.TbGetDeviceAttrNodeOra"
    }, {
      "additionalInfo" : {
        "description" : "",
        "layoutX" : 489,
        "layoutY" : 113
      },
      "configuration" : {
        "tellFailureIfAbsent" : false,
        "fetchTo" : "METADATA",
        "clientAttributeNames" : [ ],
        "sharedAttributeNames" : [ ],
        "serverAttributeNames" : [ "q", "f_lower", "f_upper", "s", "channel", "manually_rpc_duration", "manually_stages", "manually_rpc_start_date", "manually_rpc_end_date", "delta_f", "delta_damp", "delta_mac", "damp_max", "temperature_channel" ],
        "latestTsKeyNames" : [ ],
        "getLatestValueWithTs" : false
      },
      "configurationVersion" : 1,
      "createdTime" : 0,
      "debugMode" : false,
      "externalId" : null,
      "id" : {
        "entityType" : "RULE_NODE",
        "id" : "ed014810-87d6-11ef-9e51-bd4861d58417"
      },
      "name" : "fetch_parameters_that_are_set_by_the_dashboard",
      "ruleChainId" : null,
      "singletonMode" : false,
      "type" : "org.thingsboard.rule.engine.metadata.TbGetAttributesNode"
    }, {
      "additionalInfo" : {
        "description" : "Prepare params that needed for the algorithm",
        "layoutX" : 823,
        "layoutY" : 34
      },
      "configuration" : {
        "scriptLang" : "JS",
        "jsScript" : "//hard code parameters that need to check;\nvar fs = 100;\nvar mac_limit = 0.75;\nvar look_back = 45;\nvar occurrence_fraction_with_respect_to_maximum_value = 0.25;\nvar variance_to_keep = 90;\nvar algorithm_list = [\"LR\",\"PCA\",\"RF\"];\nvar trained_model_date = \"1997-02-09\";\nvar group_number = 4;\nvar ucl_limit = 95;\n\n\n\n// sensor_channels\n// Parse the outer JSON object\n//check for virtual sensor and delete\nvar channelData = JSON.parse(metadata.ss_channel);\nvar temperatureChannelData = JSON.parse(metadata.ss_temperature_channel);\nvar sensors_list = metadata.deviceNames.slice(1, -1).split(', ')\n\nvar ss_channel = [];\n\nvar start_date = new Date(parseInt(metadata.ss_manually_rpc_start_date)).toISOString().replace(/T/, ' ').replace(/\\..+/, '');\nvar end_date = new Date(parseInt(metadata.ss_manually_rpc_end_date)).toISOString().replace(/T/, ' ').replace(/\\..+/, '');\nchannelData.forEach(function(obj) {\n    sensors_list.forEach(function(deviceName) {\n        if (obj.deviceName === deviceName) {\n            ss_channel.push(obj);\n        }\n    });\n});\n//\n\n\n// Prepare the desired output\nvar prepareOutput = {\n    \"ss_channel\": []\n};\n\nvar sensorChannels = [];\nss_channel.forEach(function (item) {\n    var deviceName = item.deviceName;\n    var channels = item.channel;\n\n    var sensorChannelObj = {\n        \"deviceName\": deviceName,\n        \"channel\": channels.map(function (channelObj) {\n            return {\n                \"channel\": channelObj.channel,\n                \"dx\": null,\n                \"dy\": null,\n                \"dz\": null\n            };\n        })\n    };\n\n    prepareOutput.ss_channel.push(sensorChannelObj);\n\n    // Create sensor_channels entries\n    channels.forEach(function (channelObj) {\n        sensorChannels.push(deviceName + '_' + channelObj.channel);\n    });\n});\n\nvar currentDate = new Date();\nvar formattedDate = currentDate.toISOString().replace(/T/, ' ').replace(/\\..+/, '');\n\n//get temperature sensors;\nvar  temperature_channels = temperatureChannelData.map(function(channel) {\n    return channel.deviceName;\n});\n\n\nvar stages_list = metadata.ss_manually_stages.replace(/\\\\u0027/g, \"'\");\nvar replace = stages_list.replace(/'/g, '\"');\nvar stageNames = JSON.parse(replace);\n\nvar stages = {};\n\nstageNames.forEach(function(stage) {\n    switch(stage) {\n        case \"modal_discovery\":\n            stages[stage] = {\n            \"payload\": {\n                \"data\": {\n                    \"parameters\": {\n                        \"start_time\": start_date,\n                        \"interval_minutes\": metadata.ss_manually_rpc_duration ? metadata.ss_manually_rpc_duration : 30,\n                        \"channels_separator\": \"_\",\n                        \"sensor_channels\": sensorChannels,\n                        \"temperature_channels\": [\n                            \"temperature_Z24_1\"\n                        ]\n                    }\n                },\n                \"pre_processing\": [\n                    {\n                        \"process_name\": \"band_pass_filter\",\n                        \"parameters\": {\n                            \"f_lower\": parseFloat(metadata.ss_f_lower),\n                            \"f_upper\": parseFloat(metadata.ss_f_upper)\n                        }\n                    }\n                ],\n                \"parameters\": {\n                    \"fs\": fs,\n                    \"q\": parseFloat(metadata.ss_q),\n                    \"s\": parseFloat(metadata.ss_s),\n                    \"delta_f\": parseFloat(metadata.ss_delta_f),\n                    \"delta_damp\": parseFloat(metadata.ss_delta_damp),\n                    \"delta_mac\": parseFloat(metadata.ss_delta_mac),\n                    \"damp_max\": parseFloat(metadata.ss_damp_max),\n                    \"orders\": metadata.ss_orders ? metadata.ss_orders.split(\",\").map(Number) : [20,125,2],\n                    \"i_values\": metadata.ss_i_values ? metadata.ss_i_values.split(\",\").map(Number) : [25,55,5]\n                }\n            }\n        };\n            break;\n        case \"frequency_tracking_train\":\n            stages[stage] = {\n            \"payload\": {\n                \"data\": {\n                    \"parameters\": {\n                        \"start_date_training\": start_date.split(\" \")[0],\n                        \"end_date_training\": end_date.split(\" \")[0]\n                    }\n                },\n                \"parameters\": {\n                    \"mac_limit\": mac_limit\n                }\n            }\n        };\n            break;\n        case \"frequency_tracking_deployment\":\n            stages[stage] = {\n            \"payload\": {\n                \"data\": {\n                    \"parameters\": {\n                        \"trained_model\": trained_model_date,\n                        \"start_date_oma_proc\": start_date.split(\" \")[0],\n                        \"end_date_oma_proc\": end_date.split(\" \")[0]\n                    }\n                },\n                \"parameters\": {\n                    \"mac_limit\": mac_limit,\n                    \"look_back\": look_back,\n                    \"version\": \"median\"\n                }\n            }\n        };\n            break;\n        case \"mac_over_time_train\":\n            stages[stage] =  {\n            \"payload\": {\n                \"data\": {\n                    \"parameters\": {\n                        \"start_date_training\": start_date.split(\" \")[0],\n                        \"end_date_training\": end_date.split(\" \")[0]\n                    }\n                }\n            }\n        };\n            break;\n        case \"mac_over_time_deployment\":\n            stages[stage] = {\n            \"payload\": {\n                \"data\": {\n                    \"parameters\": {\n                        \"trained_model\": trained_model_date,\n                        \"start_date_freq_tracking_proc\": start_date.split(\" \")[0],\n                        \"end_date_freq_tracking_proc\": end_date.split(\" \")[0]\n                    }\n                }\n            }\n        };\n            break;\n        case \"temperature_depuration_train\":\n            stages[stage] = {\n            \"payload\": {\n                \"data\": {\n                    \"parameters\": {\n                        \"start_date_training\": start_date.split(\" \")[0],\n                        \"end_date_training\": end_date.split(\" \")[0],\n                        \"method\": algorithm_list\n                    }\n                },\n                \"parameters\": {\n                    \"occurrence_fraction_with_respect_to_maximum_value\": occurrence_fraction_with_respect_to_maximum_value,\n                    \"variance_to_keep\": variance_to_keep\n                }\n            }\n        };\n            break;\n        case \"temperature_depuration_deployment\":\n            stages[stage] = {\n            \"payload\": {\n                \"data\": {\n                    \"parameters\": {\n                        \"trained_model\": trained_model_date,\n                        \"start_date_freq_tracking_proc\": start_date.split(\" \")[0],\n                        \"end_date_freq_tracking_proc\": end_date.split(\" \")[0]\n                    }\n                }\n            }\n        };\n            break;\n        case \"control_chart_train\":\n            stages[stage] = {\n            \"payload\": {\n                \"data\": {\n                    \"parameters\": {\n                        \"start_date_training\": start_date.split(\" \")[0],\n                        \"end_date_training\": end_date.split(\" \")[0]\n                    }\n                },\n                \"parameters\": {\n                    \"occurrence_fraction_with_respect_to_maximum_value\": occurrence_fraction_with_respect_to_maximum_value,\n                    \"group_number\": group_number,\n                    \"ucl_limit\": ucl_limit\n                }\n            }\n        };\n            break;\n        case \"control_chart_deployment\":\n            stages[stage] = {\n            \"payload\": {\n                \"data\": {\n                    \"parameters\": {\n                        \"trained_model\": trained_model_date,\n                        \"start_date_freq_temp_depuration\": start_date.split(\" \")[0],\n                        \"end_date_freq_temp_depuration\": end_date.split(\" \")[0]\n                    }\n                }\n            }\n        };\n            break;\n    }\n});\n\nmsg.params = {\n    request: {\n        transaction_id: metadata.originator_id +\"_\" + new Date().getTime(),\n        priority:0,\n        scenario_name: metadata.scenario_name,\n        scenario_type: metadata.scenario_type,\n        group: \"MOD1\",\n        infrastructure: metadata.infrastructure_name\n    },\n    stages: stages\n};\n\n\n\ndelete msg.rpc;\nmsg.method = \"process\";\nvar msgType = \"RPC_CALL_FROM_SERVER_TO_DEVICE\";\nreturn {msg: msg, metadata: {}, msgType: msgType};\n",
        "tbelScript" : "return {msg: msg, metadata: metadata, msgType: msgType};"
      },
      "configurationVersion" : 0,
      "createdTime" : 0,
      "debugMode" : false,
      "externalId" : null,
      "id" : {
        "entityType" : "RULE_NODE",
        "id" : "ed01bd40-87d6-11ef-9e51-bd4861d58417"
      },
      "name" : "prepare-params",
      "ruleChainId" : null,
      "singletonMode" : false,
      "type" : "org.thingsboard.rule.engine.transform.TbTransformMsgNode"
    }, {
      "additionalInfo" : {
        "description" : "",
        "layoutX" : 724,
        "layoutY" : 115
      },
      "configuration" : {
        "relationsQuery" : {
          "fetchLastLevelOnly" : false,
          "direction" : "TO",
          "maxLevel" : 1,
          "filters" : [ {
            "relationType" : "Contains",
            "entityTypes" : [ "ASSET" ]
          } ]
        },
        "dataToFetch" : "FIELDS",
        "fetchTo" : "METADATA",
        "dataMapping" : {
          "name" : "infrastructure_name"
        }
      },
      "configurationVersion" : 1,
      "createdTime" : 0,
      "debugMode" : false,
      "externalId" : null,
      "id" : {
        "entityType" : "RULE_NODE",
        "id" : "ed025980-87d6-11ef-9e51-bd4861d58417"
      },
      "name" : "Get Related infractructure",
      "ruleChainId" : null,
      "singletonMode" : false,
      "type" : "org.thingsboard.rule.engine.metadata.TbGetRelatedAttributeNode"
    }, {
      "additionalInfo" : {
        "description" : "Prepare params that needed for the algorithm",
        "layoutX" : 820,
        "layoutY" : 284
      },
      "configuration" : {
        "scriptLang" : "JS",
        "jsScript" : "//hard code parameters that need to check;\nvar fs = 100;\nvar mac_limit = 0.75;\nvar look_back = 45;\nvar occurrence_fraction_with_respect_to_maximum_value = 0.25;\nvar variance_to_keep = 90;\nvar algorithm_list = [\"LR\",\"PCA\",\"RF\"];\nvar trained_model_date = \"1997-02-09\";\nvar group_number = 4;\nvar ucl_limit = 95;\n\n// Subtract the shift days (in milliseconds)\nvar dateNow = Date.now();\nvar shiftDaysMilliseconds = msg.shiftDays * 24 * 60 * 60 * 1000;\nvar newStartDateMilliseconds = dateNow - shiftDaysMilliseconds;\n\n// Convert minutes to milliseconds and add to newDateMilliseconds\nvar durationMilliseconds = msg.durationInMinutes * 60 * 1000;\nvar newEndMilliseconds = newStartDateMilliseconds + durationMilliseconds;\n\n\nvar start_date = new Date(newStartDateMilliseconds).toISOString().replace(/T/, ' ').replace(/\\..+/, '');\nvar end_date = new Date(newEndMilliseconds).toISOString().replace(/T/, ' ').replace(/\\..+/, '');\n\n\n// sensor_channels\n// Parse the outer JSON object\n//check for virtual sensor and delete\nvar channelData = JSON.parse(metadata.ss_channel);\nvar temperatureChannelData = JSON.parse(metadata.ss_temperature_channel);\nvar sensors_list = metadata.deviceNames.slice(1, -1).split(', ')\nvar ss_channel = [];\nvar temperature_channels = [];\n\n\nchannelData.forEach(function(obj) {\n    sensors_list.forEach(function(deviceName) {\n        if (obj.deviceName === deviceName) {\n            ss_channel.push(obj);\n        }\n    });\n});\n\n\n// Prepare the desired output\nvar prepareOutput = {\n    \"ss_channel\": []\n};\n\nvar sensorChannels = [];\nss_channel.forEach(function (item) {\n    var deviceName = item.deviceName;\n    var channels = item.channel;\n\n    var sensorChannelObj = {\n        \"deviceName\": deviceName,\n        \"channel\": channels.map(function (channelObj) {\n            return {\n                \"channel\": channelObj.channel,\n                \"dx\": null,\n                \"dy\": null,\n                \"dz\": null\n            };\n        })\n    };\n\n    prepareOutput.ss_channel.push(sensorChannelObj);\n\n    // Create sensor_channels entries\n    channels.forEach(function (channelObj) {\n        sensorChannels.push(deviceName + '_' + channelObj.channel);\n    });\n});\n\n//get temperature sensors;\nvar  temperature_channels = temperatureChannelData.map(function(channel) {\n    return channel.deviceName;\n});\n\n\nvar stageNames = msg.stage;\n\nvar stages = {};\n\nstageNames.forEach(function(stage) {\n    switch(stage) {\n        case \"modal_discovery\":\n            stages[stage] = {\n            \"payload\": {\n                \"data\": {\n                    \"parameters\": {\n                        \"start_time\": start_date,\n                        \"interval_minutes\": msg.durationInMinutes ? msg.durationInMinutes : 30,\n                        \"channels_separator\": \"_\",\n                        \"sensor_channels\": sensorChannels,\n                        \"temperature_channels\": temperature_channels\n                    }\n                },\n                \"pre_processing\": [\n                    {\n                        \"process_name\": \"band_pass_filter\",\n                        \"parameters\": {\n                            \"f_lower\": parseFloat(metadata.ss_f_lower),\n                            \"f_upper\": parseFloat(metadata.ss_f_upper)\n                        }\n                    }\n                ],\n                \"parameters\": {\n                    \"fs\": fs,\n                    \"q\": parseFloat(metadata.ss_q),\n                    \"s\": parseFloat(metadata.ss_s),\n                    \"delta_f\": parseFloat(metadata.ss_delta_f),\n                    \"delta_damp\": parseFloat(metadata.ss_delta_damp),\n                    \"delta_mac\": parseFloat(metadata.ss_delta_mac),\n                    \"damp_max\": parseFloat(metadata.ss_damp_max),\n                    \"orders\": metadata.ss_orders ? metadata.ss_orders.split(\",\").map(Number) : [20,125,2],\n                    \"i_values\": metadata.ss_i_values ? metadata.ss_i_values.split(\",\").map(Number) : [25,55,5]\n                }\n            }\n        };\n            break;\n        case \"frequency_tracking_train\":\n            stages[stage] = {\n            \"payload\": {\n                \"data\": {\n                    \"parameters\": {\n                        \"start_date_training\": start_date.split(\" \")[0],\n                        \"end_date_training\": end_date.split(\" \")[0]\n                    }\n                },\n                \"parameters\": {\n                    \"mac_limit\": mac_limit\n                }\n            }\n        };\n            break;\n        case \"frequency_tracking_deployment\":\n            stages[stage] = {\n            \"payload\": {\n                \"data\": {\n                    \"parameters\": {\n                        \"trained_model\": trained_model_date,\n                        \"start_date_oma_proc\": start_date.split(\" \")[0],\n                        \"end_date_oma_proc\": end_date.split(\" \")[0]\n                    }\n                },\n                \"parameters\": {\n                    \"mac_limit\": mac_limit,\n                    \"look_back\": look_back,\n                    \"version\": \"median\"\n                }\n            }\n        };\n            break;\n        case \"mac_over_time_train\":\n            stages[stage] =  {\n            \"payload\": {\n                \"data\": {\n                    \"parameters\": {\n                        \"start_date_training\": start_date.split(\" \")[0],\n                        \"end_date_training\": end_date.split(\" \")[0]\n                    }\n                }\n            }\n        };\n            break;\n        case \"mac_over_time_deployment\":\n            stages[stage] = {\n            \"payload\": {\n                \"data\": {\n                    \"parameters\": {\n                        \"trained_model\": trained_model_date,\n                        \"start_date_freq_tracking_proc\": start_date.split(\" \")[0],\n                        \"end_date_freq_tracking_proc\": end_date.split(\" \")[0]\n                    }\n                }\n            }\n        };\n            break;\n        case \"temperature_depuration_train\":\n            stages[stage] = {\n            \"payload\": {\n                \"data\": {\n                    \"parameters\": {\n                        \"start_date_training\": start_date.split(\" \")[0],\n                        \"end_date_training\": end_date.split(\" \")[0],\n                        \"method\": algorithm_list\n                    }\n                },\n                \"parameters\": {\n                    \"occurrence_fraction_with_respect_to_maximum_value\": occurrence_fraction_with_respect_to_maximum_value,\n                    \"variance_to_keep\": variance_to_keep\n                }\n            }\n        };\n            break;\n        case \"temperature_depuration_deployment\":\n            stages[stage] = {\n            \"payload\": {\n                \"data\": {\n                    \"parameters\": {\n                        \"trained_model\": trained_model_date,\n                        \"start_date_freq_tracking_proc\": start_date.split(\" \")[0],\n                        \"end_date_freq_tracking_proc\": end_date.split(\" \")[0]\n                    }\n                }\n            }\n        };\n            break;\n        case \"control_chart_train\":\n            stages[stage] = {\n            \"payload\": {\n                \"data\": {\n                    \"parameters\": {\n                        \"start_date_training\": start_date.split(\" \")[0],\n                        \"end_date_training\": end_date.split(\" \")[0]\n                    }\n                },\n                \"parameters\": {\n                    \"occurrence_fraction_with_respect_to_maximum_value\": occurrence_fraction_with_respect_to_maximum_value,\n                    \"group_number\": group_number,\n                    \"ucl_limit\": ucl_limit\n                }\n            }\n        };\n            break;\n        case \"control_chart_deployment\":\n            stages[stage] = {\n            \"payload\": {\n                \"data\": {\n                    \"parameters\": {\n                        \"trained_model\": trained_model_date,\n                        \"start_date_freq_temp_depuration\": start_date.split(\" \")[0],\n                        \"end_date_freq_temp_depuration\": end_date.split(\" \")[0]\n                    }\n                }\n            }\n        };\n            break;\n    }\n});\n\nmsg.params = {\n    request: {\n        transaction_id: metadata.originator_id +\"_\" + new Date().getTime(),\n        priority:0,\n        scenario_name: metadata.scenario_name,\n        scenario_type: metadata.scenario_type,\n        group: \"MOD1\",\n        infrastructure: metadata.infrastructure_name\n    },\n    stages: stages\n};\n\n\n\ndelete msg.durationInMinutes;\ndelete msg.stage;\ndelete msg.shiftDays;\nmsg.method = \"process\";\nvar msgType = \"RPC_CALL_FROM_SERVER_TO_DEVICE\";\nreturn {msg: msg, metadata: {}, msgType: msgType};\n",
        "tbelScript" : "return {msg: msg, metadata: metadata, msgType: msgType};"
      },
      "configurationVersion" : 0,
      "createdTime" : 0,
      "debugMode" : false,
      "externalId" : null,
      "id" : {
        "entityType" : "RULE_NODE",
        "id" : "ed02ceb0-87d6-11ef-9e51-bd4861d58417"
      },
      "name" : "prepare-params",
      "ruleChainId" : null,
      "singletonMode" : false,
      "type" : "org.thingsboard.rule.engine.transform.TbTransformMsgNode"
    }, {
      "additionalInfo" : {
        "description" : "",
        "layoutX" : 253,
        "layoutY" : 160
      },
      "configuration" : {
        "scriptLang" : "JS",
        "jsScript" : "function nextRelation(metadata, msg) {\n    return ['SCHEDULER','MANUALLY'];\n}\nif(msgType === 'ATTRIBUTES_UPDATED') {\n    return ['MANUALLY'];\n}\nif(msgType === 'START_SCHEDULER') {\n    return ['SCHEDULER'];\n}\nreturn nextRelation(metadata, msg);",
        "tbelScript" : "function nextRelation(metadata, msg) {\n    return ['one','nine'];\n}\nif(msgType == 'POST_TELEMETRY_REQUEST') {\n    return ['two'];\n}\nreturn nextRelation(metadata, msg);"
      },
      "configurationVersion" : 0,
      "createdTime" : 0,
      "debugMode" : false,
      "externalId" : null,
      "id" : {
        "entityType" : "RULE_NODE",
        "id" : "ed036af0-87d6-11ef-9e51-bd4861d58417"
      },
      "name" : "check - msg -type",
      "ruleChainId" : null,
      "singletonMode" : false,
      "type" : "org.thingsboard.rule.engine.filter.TbJsSwitchNode"
    }, {
      "additionalInfo" : {
        "description" : "",
        "layoutX" : 602,
        "layoutY" : 284
      },
      "configuration" : {
        "deviceRelationsQuery" : {
          "fetchLastLevelOnly" : false,
          "direction" : "FROM",
          "maxLevel" : 1,
          "relationType" : "Contains",
          "deviceTypes" : [ "Accelerometer", "Inclinometer", "Scenarios", "sensor", "temp" ]
        },
        "tellFailureIfAbsent" : true,
        "fetchToData" : false,
        "clientAttributeNames" : [ ],
        "sharedAttributeNames" : [ ],
        "serverAttributeNames" : [ "x", "y", "z" ],
        "latestTsKeyNames" : [ ],
        "getLatestValueWithTs" : false
      },
      "configurationVersion" : 0,
      "createdTime" : 0,
      "debugMode" : false,
      "externalId" : null,
      "id" : {
        "entityType" : "RULE_NODE",
        "id" : "ed03e020-87d6-11ef-9e51-bd4861d58417"
      },
      "name" : "prepare params for rpc",
      "ruleChainId" : null,
      "singletonMode" : false,
      "type" : "org.thingsboard.rule.engine.ora.relatedattributes.TbGetDeviceAttrNodeOra"
    }, {
      "additionalInfo" : {
        "description" : "",
        "layoutX" : 395,
        "layoutY" : 278
      },
      "configuration" : {
        "dataMapping" : {
          "name" : "scenario_name",
          "type" : "scenario_type",
          "id" : "originator_id"
        },
        "ignoreNullStrings" : false,
        "fetchTo" : "METADATA"
      },
      "configurationVersion" : 1,
      "createdTime" : 0,
      "debugMode" : false,
      "externalId" : null,
      "id" : {
        "entityType" : "RULE_NODE",
        "id" : "ed042e40-87d6-11ef-9e51-bd4861d58417"
      },
      "name" : "getNameAndType",
      "ruleChainId" : null,
      "singletonMode" : false,
      "type" : "org.thingsboard.rule.engine.metadata.TbGetOriginatorFieldsNode"
    }, {
      "additionalInfo" : {
        "description" : "",
        "layoutX" : 488,
        "layoutY" : 191
      },
      "configuration" : {
        "tellFailureIfAbsent" : false,
        "fetchTo" : "METADATA",
        "clientAttributeNames" : [ ],
        "sharedAttributeNames" : [ ],
        "serverAttributeNames" : [ "q", "f_lower", "f_upper", "s", "dampmax", "channel", "delta_f", "delta_damp", "delta_mac", "damp_max", "temperature_channel" ],
        "latestTsKeyNames" : [ ],
        "getLatestValueWithTs" : false
      },
      "configurationVersion" : 1,
      "createdTime" : 0,
      "debugMode" : false,
      "externalId" : null,
      "id" : {
        "entityType" : "RULE_NODE",
        "id" : "ed047c60-87d6-11ef-9e51-bd4861d58417"
      },
      "name" : "fetch_parameters_that_are_set_by_the_dashboard",
      "ruleChainId" : null,
      "singletonMode" : false,
      "type" : "org.thingsboard.rule.engine.metadata.TbGetAttributesNode"
    }, {
      "additionalInfo" : {
        "description" : "",
        "layoutX" : 726,
        "layoutY" : 183
      },
      "configuration" : {
        "relationsQuery" : {
          "fetchLastLevelOnly" : false,
          "direction" : "TO",
          "maxLevel" : 1,
          "filters" : [ {
            "relationType" : "Contains",
            "entityTypes" : [ "ASSET" ]
          } ]
        },
        "dataToFetch" : "FIELDS",
        "fetchTo" : "METADATA",
        "dataMapping" : {
          "name" : "infrastructure_name"
        }
      },
      "configurationVersion" : 1,
      "createdTime" : 0,
      "debugMode" : false,
      "externalId" : null,
      "id" : {
        "entityType" : "RULE_NODE",
        "id" : "ed04f190-87d6-11ef-9e51-bd4861d58417"
      },
      "name" : "Get Related infractructure",
      "ruleChainId" : null,
      "singletonMode" : false,
      "type" : "org.thingsboard.rule.engine.metadata.TbGetRelatedAttributeNode"
    } ],
    "ruleChainConnections" : null
  },
  "relations" : [ ],
  "attributes" : {
    "SERVER_SCOPE" : [ ]
  }
}