{
  "entityType" : "DEVICE_PROFILE",
  "entity" : {
    "default" : false,
    "defaultDashboardId" : null,
    "defaultEdgeRuleChainId" : null,
    "defaultQueueName" : null,
    "defaultRuleChainId" : {
      "entityType" : "RULE_CHAIN",
      "id" : "f57cc670-f328-11ed-a530-870b40ea769f"
    },
    "description" : "",
    "externalId" : {
      "entityType" : "DEVICE_PROFILE",
      "id" : "a0e90d70-f329-11ed-a530-870b40ea769f"
    },
    "firmwareId" : null,
    "id" : {
      "entityType" : "DEVICE_PROFILE",
      "id" : "a0e90d70-f329-11ed-a530-870b40ea769f"
    },
    "image" : null,
    "name" : "CV2X",
    "profileData" : {
      "alarms" : null,
      "configuration" : {
        "type" : "DEFAULT"
      },
      "provisionConfiguration" : {
        "type" : "DISABLED",
        "provisionDeviceSecret" : null
      },
      "transportConfiguration" : {
        "type" : "DEFAULT"
      }
    },
    "provisionDeviceKey" : null,
    "provisionType" : "DISABLED",
    "softwareId" : null,
    "transportType" : "DEFAULT",
    "type" : "DEFAULT"
  },
  "relations" : [ ],
  "attributes" : {
    "SERVER_SCOPE" : [ ]
  }
}