{
  "entityType" : "DEVICE_PROFILE",
  "entity" : {
    "default" : false,
    "defaultDashboardId" : {
      "entityType" : "DASHBOARD",
      "id" : "5d5a2430-9bc3-11ed-9089-9914804cd9c9"
    },
    "defaultEdgeRuleChainId" : null,
    "defaultQueueName" : null,
    "defaultRuleChainId" : null,
    "description" : "",
    "externalId" : {
      "entityType" : "DEVICE_PROFILE",
      "id" : "b8e3f5b0-c7ec-11ed-8394-0fd016aa5654"
    },
    "firmwareId" : null,
    "id" : {
      "entityType" : "DEVICE_PROFILE",
      "id" : "b8e3f5b0-c7ec-11ed-8394-0fd016aa5654"
    },
    "image" : null,
    "name" : "sensor",
    "profileData" : {
      "alarms" : null,
      "configuration" : {
        "type" : "DEFAULT"
      },
      "provisionConfiguration" : {
        "type" : "DISABLED",
        "provisionDeviceSecret" : null
      },
      "transportConfiguration" : {
        "type" : "DEFAULT"
      }
    },
    "provisionDeviceKey" : null,
    "provisionType" : "DISABLED",
    "softwareId" : null,
    "transportType" : "DEFAULT",
    "type" : "DEFAULT"
  },
  "relations" : [ ],
  "attributes" : {
    "SERVER_SCOPE" : [ ]
  }
}